date and time,Technique-Electrique_Prises de Courant_Energy1[kWh]
2017-03-16 13:02:00,208.87
2017-03-16 14:02:00,208.9
2017-03-16 15:02:00,208.97
2017-03-16 16:02:00,209.04
2017-03-16 17:02:00,209.1
2017-03-16 18:02:00,209.54
2017-03-16 19:02:00,209.65
2017-03-16 20:02:00,209.86
2017-03-16 21:02:00,210.04
2017-03-16 22:02:00,210.12
2017-03-16 23:02:00,210.17
2017-03-17 00:02:00,210.22
2017-03-17 01:02:00,210.28
2017-03-17 02:02:00,210.31
2017-03-17 03:02:00,210.38
2017-03-17 04:02:00,210.4
2017-03-17 05:02:00,210.46
2017-03-17 06:02:00,210.66
2017-03-17 07:02:00,210.91
2017-03-17 08:02:00,210.98
2017-03-17 09:02:00,211.03
2017-03-17 10:02:00,211.08
2017-03-17 11:02:00,211.15
2017-03-17 12:02:00,211.2
2017-03-17 13:02:00,211.26
2017-03-17 14:02:00,211.37
2017-03-17 15:02:00,211.43
2017-03-17 16:02:00,212.2
2017-03-17 17:02:00,212.41
2017-03-17 18:02:00,212.52
2017-03-17 19:02:00,212.77
2017-03-17 20:02:00,212.89
2017-03-17 21:02:00,213.06
2017-03-17 22:02:00,213.14
2017-03-17 23:02:00,213.29
2017-03-18 00:02:00,213.38
2017-03-18 01:02:00,213.53
2017-03-18 02:02:00,213.62
2017-03-18 03:02:00,213.75
2017-03-18 04:02:00,213.79
2017-03-18 05:02:00,213.84
2017-03-18 06:02:00,213.9
2017-03-18 07:02:00,214.01
2017-03-18 08:02:00,214.13
2017-03-18 09:02:00,214.18
2017-03-18 10:02:00,214.47
2017-03-18 11:02:00,214.67
2017-03-18 12:02:00,215.19
2017-03-18 13:02:00,215.32
2017-03-18 14:02:00,215.34
2017-03-18 15:02:00,215.45
2017-03-18 16:02:00,215.48
2017-03-18 17:02:00,215.54
2017-03-18 18:02:00,215.59
2017-03-18 19:02:00,215.73
2017-03-18 20:02:00,215.9
2017-03-18 21:02:00,216.05
2017-03-18 22:02:00,216.08
2017-03-18 23:02:00,216.16
2017-03-19 00:02:00,216.18
2017-03-19 01:02:00,216.25
2017-03-19 02:02:00,216.29
2017-03-19 03:02:00,216.34
2017-03-19 04:02:00,216.4
2017-03-19 05:02:00,216.43
2017-03-19 06:02:00,216.5
2017-03-19 07:02:00,216.62
2017-03-19 08:02:00,217.1
2017-03-19 09:02:00,217.46
2017-03-19 10:02:00,217.9
2017-03-19 11:02:00,218.51
2017-03-19 12:02:00,218.82
2017-03-19 13:02:00,218.93
2017-03-19 14:02:00,219.01
2017-03-19 15:02:00,219.55
2017-03-19 16:02:00,219.89
2017-03-19 17:02:00,219.95
2017-03-19 18:02:00,220.04
2017-03-19 19:02:00,220.19
2017-03-19 20:02:00,220.35
2017-03-19 21:02:00,220.53
2017-03-19 22:02:00,220.67
2017-03-19 23:02:00,220.7
2017-03-20 00:02:00,220.78
2017-03-20 01:02:00,220.81
2017-03-20 02:02:00,220.87
2017-03-20 03:02:00,220.93
2017-03-20 04:02:00,220.96
2017-03-20 05:02:00,221.03
2017-03-20 06:02:00,221.14
2017-03-20 07:02:00,221.39
2017-03-20 08:02:00,221.44
2017-03-20 09:02:00,221.48
2017-03-20 10:02:00,221.55
2017-03-20 11:02:00,221.57
2017-03-20 12:02:00,221.66
2017-03-20 13:02:00,221.72
2017-03-20 14:02:00,221.93
2017-03-20 15:02:00,222.11
2017-03-20 16:02:00,222.14
2017-03-20 17:02:00,222.24
2017-03-20 18:02:00,222.61
2017-03-20 19:02:00,222.77
2017-03-20 20:02:00,222.93
2017-03-20 21:02:00,222.97
2017-03-20 22:02:00,223.06
2017-03-20 23:02:00,223.07
2017-03-21 00:02:00,223.15
2017-03-21 01:02:00,223.17
2017-03-21 02:02:00,223.24
2017-03-21 03:02:00,223.29
2017-03-21 04:02:00,223.33
2017-03-21 05:02:00,223.4
2017-03-21 06:02:00,223.58
2017-03-21 07:02:00,223.8
2017-03-21 08:02:00,223.86
2017-03-21 09:02:00,223.89
2017-03-21 10:02:00,223.95
2017-03-21 11:02:00,223.99
2017-03-21 12:02:00,224.09
2017-03-21 13:02:00,224.16
2017-03-21 14:02:00,224.19
2017-03-21 15:02:00,224.25
2017-03-21 16:02:00,224.35
2017-03-21 17:02:00,224.4
2017-03-21 18:02:00,224.52
2017-03-21 19:02:00,224.7
2017-03-21 20:02:00,224.82
2017-03-21 21:02:00,224.98
2017-03-21 22:02:00,225.06
2017-03-21 23:02:00,225.14
2017-03-22 00:02:00,225.18
2017-03-22 01:02:00,225.23
2017-03-22 02:02:00,225.3
2017-03-22 03:02:00,225.32
2017-03-22 04:02:00,225.38
2017-03-22 05:02:00,225.52
2017-03-22 06:02:00,225.6
2017-03-22 07:02:00,225.78
2017-03-22 08:02:00,225.8
2017-03-22 09:02:00,225.87
2017-03-22 10:02:00,225.9
2017-03-22 11:02:00,225.95
2017-03-22 12:02:00,226.05
2017-03-22 13:02:00,226.08
2017-03-22 14:02:00,226.16
2017-03-22 15:02:00,226.24
2017-03-22 16:02:00,226.33
2017-03-22 17:02:00,226.43
2017-03-22 18:02:00,226.57
2017-03-22 19:02:00,226.71
2017-03-22 20:02:00,226.8
2017-03-22 21:02:00,226.92
2017-03-22 22:02:00,227.04
2017-03-22 23:02:00,227.06
2017-03-23 00:02:00,227.13
2017-03-23 01:02:00,227.15
2017-03-23 02:02:00,227.22
2017-03-23 03:02:00,227.26
2017-03-23 04:02:00,227.3
2017-03-23 05:02:00,227.37
2017-03-23 06:02:00,227.61
2017-03-23 07:02:00,227.83
2017-03-23 08:02:00,227.88
2017-03-23 09:02:00,227.92
2017-03-23 10:02:00,227.99
2017-03-23 11:02:00,228.0
2017-03-23 12:02:00,228.09
2017-03-23 13:02:00,228.16
2017-03-23 14:02:00,228.19
2017-03-23 15:02:00,228.27
2017-03-23 16:02:00,228.31
2017-03-23 17:02:00,228.42
2017-03-23 18:02:00,228.85
2017-03-23 19:02:00,228.98
2017-03-23 20:02:00,229.17
2017-03-23 21:02:00,229.32
2017-03-23 22:02:00,229.48
2017-03-23 23:02:00,229.56
2017-03-24 00:02:00,229.71
2017-03-24 01:02:00,229.76
2017-03-24 02:02:00,229.83
2017-03-24 03:02:00,229.85
2017-03-24 04:02:00,229.91
2017-03-24 05:02:00,229.96
2017-03-24 06:02:00,230.1
2017-03-24 07:02:00,230.36
2017-03-24 08:02:00,230.38
2017-03-24 09:02:00,230.45
2017-03-24 10:02:00,230.51
2017-03-24 11:02:00,230.53
2017-03-24 12:02:00,230.7
2017-03-24 13:02:00,230.74
2017-03-24 14:02:00,230.81
2017-03-24 15:02:00,230.86
2017-03-24 16:02:00,230.9
2017-03-24 17:02:00,230.96
2017-03-24 18:02:00,231.03
2017-03-24 19:02:00,231.21
2017-03-24 20:02:00,231.36
2017-03-24 21:02:00,231.4
2017-03-24 22:02:00,231.55
2017-03-24 23:02:00,231.6
2017-03-25 00:02:00,231.63
2017-03-25 01:02:00,231.7
2017-03-25 02:02:00,231.72
2017-03-25 03:02:00,231.79
2017-03-25 04:02:00,231.84
2017-03-25 05:02:00,231.86
2017-03-25 06:02:00,231.92
2017-03-25 07:02:00,231.99
2017-03-25 08:02:00,232.18
2017-03-25 09:02:00,232.37
2017-03-25 10:02:00,232.45
2017-03-25 11:02:00,232.66
2017-03-25 12:02:00,232.82
2017-03-25 13:02:00,232.85
2017-03-25 14:02:00,232.93
2017-03-25 15:02:00,232.98
2017-03-25 16:02:00,233.05
2017-03-25 17:02:00,233.24
2017-03-25 18:02:00,233.7
2017-03-25 19:02:00,234.16
2017-03-25 20:02:00,234.31
2017-03-25 21:02:00,234.42
2017-03-25 22:02:00,234.49
2017-03-25 23:02:00,234.53
2017-03-26 00:02:00,234.59
2017-03-26 01:02:00,234.61
2017-03-26 02:02:00,234.68
2017-03-26 03:02:00,234.73
2017-03-26 04:02:00,234.76
2017-03-26 05:02:00,234.83
2017-03-26 06:02:00,234.84
2017-03-26 07:02:00,234.98
2017-03-26 08:02:00,235.12
2017-03-26 09:02:00,235.24
2017-03-26 10:02:00,235.51
2017-03-26 11:02:00,235.71
2017-03-26 12:02:00,235.77
2017-03-26 13:02:00,235.86
2017-03-26 14:02:00,235.88
2017-03-26 15:02:00,236.0
2017-03-26 16:02:00,236.25
2017-03-26 17:02:00,236.44
2017-03-26 18:02:00,236.62
2017-03-26 19:02:00,236.75
2017-03-26 20:02:00,236.84
2017-03-26 21:02:00,236.97
2017-03-26 22:02:00,236.99
2017-03-26 23:02:00,237.07
2017-03-27 00:02:00,237.09
2017-03-27 01:02:00,237.16
2017-03-27 02:02:00,237.2
2017-03-27 03:02:00,237.25
2017-03-27 04:02:00,237.32
2017-03-27 05:02:00,237.48
2017-03-27 06:02:00,237.79
2017-03-27 07:02:00,237.83
2017-03-27 08:02:00,237.88
2017-03-27 09:02:00,237.95
2017-03-27 10:02:00,237.97
2017-03-27 11:02:00,238.03
2017-03-27 12:02:00,238.13
2017-03-27 13:02:00,238.17
2017-03-27 14:02:00,238.25
2017-03-27 15:02:00,238.26
2017-03-27 16:02:00,238.35
2017-03-27 17:02:00,238.42
2017-03-27 18:02:00,238.62
2017-03-27 19:02:00,238.84
2017-03-27 20:02:00,238.95
2017-03-27 21:02:00,238.97
2017-03-27 22:02:00,239.06
2017-03-27 23:02:00,239.08
2017-03-28 00:02:00,239.16
2017-03-28 01:02:00,239.19
2017-03-28 02:02:00,239.26
2017-03-28 03:02:00,239.3
2017-03-28 04:02:00,239.35
2017-03-28 05:02:00,239.54
2017-03-28 06:02:00,239.76
2017-03-28 07:02:00,239.84
2017-03-28 08:02:00,239.85
2017-03-28 09:02:00,239.92
2017-03-28 10:02:00,239.94
2017-03-28 11:02:00,240.03
2017-03-28 12:02:00,240.09
2017-03-28 13:02:00,240.13
2017-03-28 14:02:00,240.22
2017-03-28 15:02:00,240.25
2017-03-28 16:02:00,240.41
2017-03-28 17:02:00,240.69
2017-03-28 18:02:00,240.78
2017-03-28 19:02:00,240.93
2017-03-28 20:02:00,241.09
2017-03-28 21:02:00,241.2
2017-03-28 22:02:00,241.25
2017-03-28 23:02:00,241.3
2017-03-29 00:02:00,241.37
2017-03-29 01:02:00,241.4
2017-03-29 02:02:00,241.47
2017-03-29 03:02:00,241.5
2017-03-29 04:02:00,241.57
2017-03-29 05:02:00,241.74
2017-03-29 06:02:00,242.01
2017-03-29 07:02:00,242.15
2017-03-29 08:02:00,242.17
2017-03-29 09:02:00,242.25
2017-03-29 10:02:00,242.29
2017-03-29 11:02:00,242.41
2017-03-29 12:02:00,242.49
2017-03-29 13:02:00,242.51
2017-03-29 14:02:00,242.59
2017-03-29 15:02:00,242.61
2017-03-29 16:02:00,242.7
2017-03-29 17:02:00,242.94
2017-03-29 18:02:00,243.34
2017-03-29 19:02:00,243.83
2017-03-29 20:02:00,243.95
2017-03-29 21:02:00,244.04
2017-03-29 22:02:00,244.06
2017-03-29 23:02:00,244.14
2017-03-30 00:02:00,244.18
2017-03-30 01:02:00,244.24
2017-03-30 02:02:00,244.3
2017-03-30 03:02:00,244.33
2017-03-30 04:02:00,244.4
2017-03-30 05:02:00,244.56
2017-03-30 06:02:00,244.77
2017-03-30 07:02:00,244.8
2017-03-30 08:02:00,244.87
2017-03-30 09:02:00,244.92
2017-03-30 10:02:00,244.95
2017-03-30 11:02:00,245.04
2017-03-30 12:02:00,245.06
2017-03-30 13:02:00,245.13
2017-03-30 14:02:00,245.17
2017-03-30 15:02:00,245.21
2017-03-30 16:02:00,245.28
2017-03-30 17:02:00,245.31
2017-03-30 18:02:00,245.67
2017-03-30 19:02:00,245.99
2017-03-30 20:02:00,246.2
2017-03-30 21:02:00,246.41
2017-03-30 22:02:00,246.5
2017-03-30 23:02:00,246.56
2017-03-31 00:02:00,246.63
2017-03-31 01:02:00,246.68
2017-03-31 02:02:00,246.77
2017-03-31 03:02:00,246.79
2017-03-31 04:02:00,246.88
2017-03-31 05:02:00,247.05
2017-03-31 06:02:00,247.28
2017-03-31 07:02:00,247.39
2017-03-31 08:02:00,247.41
2017-03-31 09:02:00,247.57
2017-03-31 10:02:00,247.6
2017-03-31 11:02:00,247.67
2017-03-31 12:02:00,247.69
2017-03-31 14:02:00,247.79
2017-03-31 15:02:00,247.86
2017-03-31 16:02:00,247.96
2017-03-31 17:02:00,248.23
2017-03-31 18:02:00,248.32
2017-03-31 19:02:00,248.44
2017-03-31 20:02:00,248.59
2017-03-31 21:02:00,248.74
