date and time,Technique-Electrique_Module SOLISART_Energy4[kWh]
2017-03-15 11:02:00,45.38
2017-03-15 12:02:00,45.44
2017-03-15 13:02:00,45.48
2017-03-15 14:02:00,45.5
2017-03-15 15:02:00,45.52
2017-03-15 16:02:00,45.53
2017-03-15 17:02:00,45.55
2017-03-15 18:02:00,45.56
2017-03-15 19:02:00,45.56
2017-03-15 20:02:00,45.57
2017-03-15 21:02:00,45.58
2017-03-15 22:02:00,45.58
2017-03-15 23:02:00,45.59
2017-03-16 00:02:00,45.59
2017-03-16 01:02:00,45.6
2017-03-16 02:02:00,45.61
2017-03-16 03:02:00,45.63
2017-03-16 04:02:00,45.65
2017-03-16 05:02:00,45.66
2017-03-16 06:02:00,45.66
2017-03-16 07:02:00,45.68
2017-03-16 08:02:00,45.69
2017-03-16 09:02:00,45.73
2017-03-16 10:02:00,45.79
2017-03-16 11:02:00,45.86
2017-03-16 12:02:00,45.91
2017-03-16 13:02:00,45.94
2017-03-16 14:02:00,45.96
2017-03-16 15:02:00,45.99
2017-03-16 16:02:00,46.0
2017-03-16 17:02:00,46.01
2017-03-16 18:02:00,46.02
2017-03-16 19:02:00,46.02
2017-03-16 20:02:00,46.03
2017-03-16 21:02:00,46.03
2017-03-16 22:02:00,46.04
2017-03-16 23:02:00,46.05
2017-03-17 00:02:00,46.05
2017-03-17 01:02:00,46.06
2017-03-17 02:02:00,46.08
2017-03-17 03:02:00,46.09
2017-03-17 04:02:00,46.1
2017-03-17 05:02:00,46.11
2017-03-17 06:02:00,46.12
2017-03-17 07:02:00,46.13
2017-03-17 08:02:00,46.15
2017-03-17 09:02:00,46.19
2017-03-17 10:02:00,46.25
2017-03-17 11:02:00,46.31
2017-03-17 12:02:00,46.35
2017-03-17 13:02:00,46.38
2017-03-17 14:02:00,46.41
2017-03-17 15:02:00,46.43
2017-03-17 16:02:00,46.44
2017-03-17 17:02:00,46.45
2017-03-17 18:02:00,46.46
2017-03-17 19:02:00,46.46
2017-03-17 20:02:00,46.47
2017-03-17 21:02:00,46.48
2017-03-17 22:02:00,46.48
2017-03-17 23:02:00,46.49
2017-03-18 00:02:00,46.49
2017-03-18 01:02:00,46.51
2017-03-18 02:02:00,46.52
2017-03-18 03:02:00,46.55
2017-03-18 04:02:00,46.56
2017-03-18 05:02:00,46.57
2017-03-18 06:02:00,46.58
2017-03-18 07:02:00,46.58
2017-03-18 08:02:00,46.59
2017-03-18 09:02:00,46.6
2017-03-18 10:02:00,46.61
2017-03-18 11:02:00,46.64
2017-03-18 12:02:00,46.66
2017-03-18 13:02:00,46.67
2017-03-18 14:02:00,46.69
2017-03-18 15:02:00,46.71
2017-03-18 16:02:00,46.73
2017-03-18 17:02:00,46.77
2017-03-18 18:02:00,46.83
2017-03-18 19:02:00,46.87
2017-03-18 20:02:00,46.91
2017-03-18 21:02:00,46.94
2017-03-18 22:02:00,46.94
2017-03-18 23:02:00,46.95
2017-03-19 00:02:00,46.95
2017-03-19 01:02:00,46.96
2017-03-19 02:02:00,46.96
2017-03-19 03:02:00,46.99
2017-03-19 04:02:00,47.03
2017-03-19 05:02:00,47.08
2017-03-19 06:02:00,47.14
2017-03-19 07:02:00,47.2
2017-03-19 08:02:00,47.24
2017-03-19 09:02:00,47.26
2017-03-19 10:02:00,47.27
2017-03-19 11:02:00,47.29
2017-03-19 12:02:00,47.31
2017-03-19 13:02:00,47.35
2017-03-19 14:02:00,47.4
2017-03-19 15:02:00,47.44
2017-03-19 16:02:00,47.46
2017-03-19 17:02:00,47.47
2017-03-19 18:02:00,47.48
2017-03-19 19:02:00,47.48
2017-03-19 20:02:00,47.49
2017-03-19 21:02:00,47.49
2017-03-19 22:02:00,47.5
2017-03-19 23:02:00,47.5
2017-03-20 00:02:00,47.51
2017-03-20 01:02:00,47.52
2017-03-20 02:02:00,47.55
2017-03-20 03:02:00,47.57
2017-03-20 04:02:00,47.62
2017-03-20 05:02:00,47.66
2017-03-20 06:02:00,47.7
2017-03-20 07:02:00,47.72
2017-03-20 08:02:00,47.72
2017-03-20 09:02:00,47.73
2017-03-20 10:02:00,47.75
2017-03-20 11:02:00,47.77
2017-03-20 12:02:00,47.82
2017-03-20 13:02:00,47.88
2017-03-20 14:02:00,47.92
2017-03-20 15:02:00,47.94
2017-03-20 16:02:00,47.96
2017-03-20 17:02:00,47.97
2017-03-20 18:02:00,47.97
2017-03-20 19:02:00,47.98
2017-03-20 20:02:00,47.98
2017-03-20 21:02:00,47.99
2017-03-20 22:02:00,48.0
2017-03-20 23:02:00,48.0
2017-03-21 00:02:00,48.01
2017-03-21 01:02:00,48.01
2017-03-21 02:02:00,48.04
2017-03-21 03:02:00,48.06
2017-03-21 04:02:00,48.07
2017-03-21 05:02:00,48.08
2017-03-21 06:02:00,48.1
2017-03-21 07:02:00,48.12
2017-03-21 08:02:00,48.13
2017-03-21 09:02:00,48.15
2017-03-21 10:02:00,48.16
2017-03-21 11:02:00,48.18
2017-03-21 12:02:00,48.24
2017-03-21 13:02:00,48.29
2017-03-21 14:02:00,48.33
2017-03-21 15:02:00,48.35
2017-03-21 16:02:00,48.37
2017-03-21 17:02:00,48.38
2017-03-21 18:02:00,48.39
2017-03-21 19:02:00,48.39
2017-03-21 20:02:00,48.4
2017-03-21 21:02:00,48.4
2017-03-21 22:02:00,48.41
2017-03-21 23:02:00,48.41
2017-03-22 00:02:00,48.42
2017-03-22 01:02:00,48.44
2017-03-22 02:02:00,48.47
2017-03-22 03:02:00,48.51
2017-03-22 04:02:00,48.55
2017-03-22 05:02:00,48.61
2017-03-22 06:02:00,48.65
2017-03-22 07:02:00,48.68
2017-03-22 08:02:00,48.68
2017-03-22 09:02:00,48.69
2017-03-22 10:02:00,48.7
2017-03-22 11:02:00,48.74
2017-03-22 12:02:00,48.81
2017-03-22 13:02:00,48.86
2017-03-22 14:02:00,48.87
2017-03-22 15:02:00,48.89
2017-03-22 16:02:00,48.9
2017-03-22 17:02:00,48.91
2017-03-22 18:02:00,48.91
2017-03-22 19:02:00,48.92
2017-03-22 20:02:00,48.92
2017-03-22 21:02:00,48.93
2017-03-22 22:02:00,48.94
2017-03-22 23:02:00,48.95
2017-03-23 00:02:00,48.98
2017-03-23 01:02:00,49.0
2017-03-23 02:02:00,49.03
2017-03-23 03:02:00,49.08
2017-03-23 04:02:00,49.13
2017-03-23 05:02:00,49.19
2017-03-23 06:02:00,49.25
2017-03-23 07:02:00,49.27
2017-03-23 08:02:00,49.28
2017-03-23 09:02:00,49.3
2017-03-23 10:02:00,49.36
2017-03-23 11:02:00,49.42
2017-03-23 12:02:00,49.46
2017-03-23 13:02:00,49.5
2017-03-23 14:02:00,49.52
2017-03-23 15:02:00,49.54
2017-03-23 16:02:00,49.56
2017-03-23 17:02:00,49.57
2017-03-23 18:02:00,49.58
2017-03-23 19:02:00,49.59
2017-03-23 20:02:00,49.59
2017-03-23 21:02:00,49.6
2017-03-23 22:02:00,49.6
2017-03-23 23:02:00,49.61
2017-03-24 00:02:00,49.62
2017-03-24 01:02:00,49.62
2017-03-24 02:02:00,49.63
2017-03-24 03:02:00,49.63
2017-03-24 04:02:00,49.64
2017-03-24 05:02:00,49.64
2017-03-24 06:02:00,49.65
2017-03-24 07:02:00,49.65
2017-03-24 08:02:00,49.66
2017-03-24 09:02:00,49.66
2017-03-24 10:02:00,49.67
2017-03-24 11:02:00,49.68
2017-03-24 12:02:00,49.7
2017-03-24 13:02:00,49.74
2017-03-24 14:02:00,49.78
2017-03-24 15:02:00,49.82
2017-03-24 16:02:00,49.87
2017-03-24 17:02:00,49.93
2017-03-24 18:02:00,49.98
2017-03-24 19:02:00,50.02
2017-03-24 20:02:00,50.06
2017-03-24 21:02:00,50.09
2017-03-24 22:02:00,50.1
2017-03-24 23:02:00,50.1
2017-03-25 00:02:00,50.11
2017-03-25 01:02:00,50.12
2017-03-25 02:02:00,50.15
2017-03-25 03:02:00,50.19
2017-03-25 04:02:00,50.23
2017-03-25 05:02:00,50.28
2017-03-25 06:02:00,50.34
2017-03-25 07:02:00,50.4
2017-03-25 08:02:00,50.45
2017-03-25 09:02:00,50.51
2017-03-25 10:02:00,50.57
2017-03-25 11:02:00,50.62
2017-03-25 12:02:00,50.64
2017-03-25 13:02:00,50.65
2017-03-25 14:02:00,50.66
2017-03-25 15:02:00,50.66
2017-03-25 16:02:00,50.67
2017-03-25 17:02:00,50.67
2017-03-25 18:02:00,50.68
2017-03-25 19:02:00,50.68
2017-03-25 20:02:00,50.69
2017-03-25 21:02:00,50.7
2017-03-25 22:02:00,50.73
2017-03-25 23:02:00,50.74
2017-03-26 00:02:00,50.74
2017-03-26 01:02:00,50.74
2017-03-26 02:02:00,50.77
2017-03-26 03:02:00,50.82
2017-03-26 04:02:00,50.88
2017-03-26 05:02:00,50.93
2017-03-26 06:02:00,50.99
2017-03-26 07:02:00,51.05
2017-03-26 08:02:00,51.1
2017-03-26 09:02:00,51.14
2017-03-26 10:02:00,51.16
2017-03-26 11:02:00,51.19
2017-03-26 12:02:00,51.21
2017-03-26 13:02:00,51.24
2017-03-26 14:02:00,51.26
2017-03-26 15:02:00,51.27
2017-03-26 16:02:00,51.29
2017-03-26 17:02:00,51.3
2017-03-26 18:02:00,51.3
2017-03-26 19:02:00,51.32
2017-03-26 20:02:00,51.33
2017-03-26 21:02:00,51.34
2017-03-26 22:02:00,51.34
2017-03-26 23:02:00,51.35
2017-03-27 00:02:00,51.37
2017-03-27 01:02:00,51.39
2017-03-27 02:02:00,51.41
2017-03-27 03:02:00,51.44
2017-03-27 04:02:00,51.47
2017-03-27 05:02:00,51.5
2017-03-27 06:02:00,51.51
2017-03-27 07:02:00,51.51
2017-03-27 08:02:00,51.52
2017-03-27 09:02:00,51.57
2017-03-27 10:02:00,51.64
2017-03-27 11:02:00,51.71
2017-03-27 12:02:00,51.76
2017-03-27 13:02:00,51.8
2017-03-27 14:02:00,51.82
2017-03-27 15:02:00,51.84
2017-03-27 16:02:00,51.85
2017-03-27 17:02:00,51.87
2017-03-27 18:02:00,51.88
2017-03-27 19:02:00,51.88
2017-03-27 20:02:00,51.89
2017-03-27 21:02:00,51.89
2017-03-27 22:02:00,51.9
2017-03-27 23:02:00,51.9
2017-03-28 00:02:00,51.91
2017-03-28 01:02:00,51.93
2017-03-28 02:02:00,51.94
2017-03-28 03:02:00,51.96
2017-03-28 04:02:00,51.96
2017-03-28 05:02:00,51.97
2017-03-28 06:02:00,51.98
2017-03-28 07:02:00,51.99
2017-03-28 08:02:00,51.99
2017-03-28 09:02:00,52.01
2017-03-28 10:02:00,52.07
2017-03-28 11:02:00,52.13
2017-03-28 12:02:00,52.18
2017-03-28 13:02:00,52.21
2017-03-28 14:02:00,52.23
2017-03-28 15:02:00,52.27
2017-03-28 16:02:00,52.28
2017-03-28 17:02:00,52.29
2017-03-28 18:02:00,52.3
2017-03-28 19:02:00,52.3
2017-03-28 20:02:00,52.31
2017-03-28 21:02:00,52.31
2017-03-28 22:02:00,52.32
2017-03-28 23:02:00,52.33
2017-03-29 00:02:00,52.33
2017-03-29 01:02:00,52.34
2017-03-29 02:02:00,52.36
2017-03-29 03:02:00,52.36
2017-03-29 04:02:00,52.37
2017-03-29 05:02:00,52.38
2017-03-29 06:02:00,52.39
2017-03-29 07:02:00,52.4
2017-03-29 08:02:00,52.41
2017-03-29 09:02:00,52.46
2017-03-29 10:02:00,52.51
2017-03-29 11:02:00,52.55
2017-03-29 12:02:00,52.58
2017-03-29 13:02:00,52.6
2017-03-29 14:02:00,52.63
2017-03-29 15:02:00,52.65
2017-03-29 16:02:00,52.66
2017-03-30 11:02:00,52.83
2017-03-30 12:02:00,52.85
2017-03-30 13:02:00,52.87
2017-03-30 14:02:00,52.89
2017-03-30 15:02:00,52.91
2017-03-30 16:02:00,52.92
2017-03-30 17:02:00,52.93
2017-03-30 18:02:00,52.94
2017-03-30 19:02:00,52.94
2017-03-30 20:02:00,52.95
2017-03-30 21:02:00,52.95
2017-03-30 22:02:00,52.96
2017-03-30 23:02:00,52.97
2017-03-31 00:02:00,52.97
2017-03-31 01:02:00,52.98
2017-03-31 02:02:00,52.98
2017-03-31 03:02:00,52.99
2017-03-31 04:02:00,53.0
2017-03-31 05:02:00,53.0
2017-03-31 06:02:00,53.01
2017-03-31 07:02:00,53.02
2017-03-31 08:02:00,53.02
2017-03-31 09:02:00,53.03
2017-03-31 10:02:00,53.04
2017-03-31 11:02:00,53.06
2017-03-31 12:02:00,53.07
2017-03-31 13:02:00,53.09
2017-03-31 14:02:00,53.09
2017-03-31 15:02:00,53.1
2017-03-31 16:02:00,53.11
2017-03-31 17:02:00,53.12
2017-03-31 18:02:00,53.14
2017-03-31 19:02:00,53.15
2017-03-31 20:02:00,53.16
2017-03-31 21:02:00,53.16
