date and time,Technique-Meteo_Pression atmosphérique relative_Rel. air pressure relating[hP]
2017-01-30 12:08:17.398,952.6
2017-01-30 12:09:17.298,952.6
2017-01-30 12:10:17.287,952.6
2017-01-30 12:11:17.304,952.6
2017-01-30 12:12:17.286,952.6
2017-01-30 12:13:17.317,952.6
2017-01-30 12:14:17.289,952.5
2017-01-30 12:15:17.319,952.6
2017-01-30 12:16:17.291,952.5
2017-01-30 12:17:17.292,952.5
2017-01-30 12:18:17.295,952.5
2017-01-30 12:19:17.300,952.5
2017-01-30 12:20:17.289,952.5
2017-01-30 12:21:17.287,952.5
2017-01-30 12:22:17.280,952.5
2017-01-30 12:23:17.272,952.5
2017-01-30 12:24:17.283,952.5
2017-01-30 12:25:17.275,952.5
2017-01-30 12:26:17.275,952.5
2017-01-30 12:27:17.281,952.6
2017-01-30 12:28:17.277,952.6
2017-01-30 12:29:17.269,952.6
2017-01-30 12:30:17.275,952.6
2017-01-30 12:31:17.274,952.6
2017-01-30 12:32:17.311,952.6
2017-01-30 12:33:17.276,952.6
2017-01-30 12:34:17.288,952.5
2017-01-30 12:35:17.281,952.6
2017-01-30 12:36:17.282,952.5
2017-01-30 12:37:17.277,952.6
2017-01-30 12:38:17.274,952.6
2017-01-30 12:39:17.279,952.5
2017-01-30 12:40:17.281,952.5
2017-01-30 12:41:17.274,952.5
2017-01-30 12:42:17.275,952.5
2017-01-30 12:43:17.286,952.4
2017-01-30 12:44:17.286,952.4
2017-01-30 12:45:17.318,952.4
2017-01-30 12:46:17.284,952.4
2017-01-30 12:47:17.271,952.4
2017-01-30 12:48:17.284,952.3
2017-01-30 12:49:17.293,952.3
2017-01-30 12:50:17.286,952.3
2017-01-30 12:51:17.283,952.2
2017-01-30 12:52:17.280,952.2
2017-01-30 12:53:17.275,952.2
2017-01-30 12:54:17.273,952.2
2017-01-30 12:55:17.280,952.2
2017-01-30 12:56:17.294,952.2
2017-01-30 12:57:17.281,952.1
2017-01-30 12:58:17.272,952.1
2017-01-30 12:59:17.277,952.1
2017-01-30 13:00:17.278,952.0
2017-01-30 13:01:17.273,952.0
2017-01-30 13:02:17.283,952.0
2017-01-30 13:03:17.275,951.9
2017-01-30 13:04:17.294,952.0
2017-01-30 13:05:17.283,951.9
2017-01-30 13:06:17.286,951.9
2017-01-30 13:07:17.277,951.9
2017-01-30 13:08:17.282,951.8
2017-01-30 13:09:17.278,951.8
2017-01-30 13:10:17.277,951.8
2017-01-30 13:11:17.277,951.8
2017-01-30 13:12:17.271,951.8
2017-01-30 13:13:17.269,951.8
2017-01-30 13:14:17.272,951.8
2017-01-30 13:15:17.270,951.8
2017-01-30 13:16:17.272,951.8
2017-01-30 13:17:17.281,951.7
2017-01-30 13:18:17.266,951.7
2017-01-30 13:19:17.281,951.8
2017-01-30 13:20:17.283,951.7
2017-01-30 13:21:17.278,951.7
2017-01-30 13:22:17.281,951.7
2017-01-30 13:23:17.275,951.7
2017-01-30 13:24:17.276,951.7
2017-01-30 13:25:17.272,951.7
2017-01-30 13:26:17.277,951.7
2017-01-30 13:27:17.284,951.7
2017-01-30 13:28:17.279,951.7
2017-01-30 13:29:17.265,951.7
2017-01-30 13:30:17.275,951.7
2017-01-30 13:31:17.270,951.7
2017-01-30 13:32:17.278,951.7
2017-01-30 13:33:17.278,951.7
2017-01-30 13:34:17.293,951.7
2017-01-30 13:35:17.283,951.7
2017-01-30 13:36:17.291,951.8
2017-01-30 13:37:17.285,951.6
2017-01-30 13:38:17.284,951.7
2017-01-30 13:39:17.275,951.7
2017-01-30 13:40:17.271,951.7
2017-01-30 13:41:17.275,951.7
2017-01-30 13:42:17.277,951.6
2017-01-30 13:43:17.282,951.6
2017-01-30 13:44:17.286,951.6
2017-01-30 13:45:17.282,951.6
2017-01-30 13:46:17.276,951.6
2017-01-30 13:47:17.267,951.6
2017-01-30 13:48:17.273,951.6
2017-01-30 13:49:17.268,951.6
2017-01-30 13:50:17.277,951.6
2017-01-30 13:51:17.291,951.6
2017-01-30 13:52:17.274,951.6
2017-01-30 13:53:17.275,951.6
2017-01-30 13:54:17.266,951.5
2017-01-30 13:55:17.272,951.5
2017-01-30 13:56:17.266,951.5
2017-01-30 13:57:17.270,951.5
2017-01-30 13:58:17.274,951.5
2017-01-30 13:59:17.294,951.4
2017-01-30 14:00:17.285,951.4
2017-01-30 14:01:17.276,951.4
2017-01-30 14:02:17.278,951.4
2017-01-30 14:03:17.269,951.4
2017-01-30 14:04:17.268,951.4
2017-01-30 14:05:17.282,951.3
2017-01-30 14:06:17.270,951.3
2017-01-30 14:07:17.270,951.4
2017-01-30 14:08:17.270,951.3
2017-01-30 14:09:17.275,951.3
2017-01-30 14:10:17.283,951.3
2017-01-30 14:11:17.278,951.3
2017-01-30 14:12:17.272,951.3
2017-01-30 14:13:17.281,951.3
2017-01-30 14:14:17.280,951.2
2017-01-30 14:15:17.274,951.2
2017-01-30 14:16:17.276,951.2
2017-01-30 14:17:17.285,951.2
2017-01-30 14:18:17.273,951.1
2017-01-30 14:19:17.274,951.2
2017-01-30 14:20:17.281,951.2
2017-01-30 14:21:17.273,951.2
2017-01-30 14:22:17.282,951.2
2017-01-30 14:23:17.281,951.1
2017-01-30 14:24:17.272,951.1
2017-01-30 14:25:17.270,951.1
2017-01-30 14:26:17.273,951.0
2017-01-30 14:27:17.268,951.1
2017-01-30 14:28:17.274,951.1
2017-01-30 14:29:17.278,951.1
2017-01-30 14:30:17.290,951.0
2017-01-30 14:31:17.269,951.0
2017-01-30 14:32:17.283,951.1
2017-01-30 14:33:17.281,951.1
2017-01-30 14:34:17.282,951.1
2017-01-30 14:35:17.281,951.0
2017-01-30 14:36:17.273,951.0
2017-01-30 14:37:17.274,951.0
2017-01-30 14:38:17.285,951.0
2017-01-30 14:39:17.281,951.1
2017-01-30 14:40:17.271,951.1
2017-01-30 14:41:17.284,951.1
2017-01-30 14:42:17.276,951.1
2017-01-30 14:43:17.281,951.1
2017-01-30 14:44:17.270,951.1
2017-01-30 14:45:17.271,951.3
2017-01-30 14:46:17.276,951.1
2017-01-30 14:47:17.269,951.1
2017-01-30 14:48:17.277,951.1
2017-01-30 14:49:17.277,951.2
2017-01-30 14:50:17.277,951.2
2017-01-30 14:51:17.282,951.2
2017-01-30 14:52:17.287,951.3
2017-01-30 14:53:17.293,951.2
2017-01-30 14:54:17.271,951.3
2017-01-30 14:55:17.282,951.4
2017-01-30 14:56:17.270,951.3
2017-01-30 14:57:17.275,951.3
2017-01-30 14:58:17.281,951.4
2017-01-30 14:59:17.285,951.4
2017-01-30 15:00:17.273,951.4
2017-01-30 15:01:17.274,951.4
2017-01-30 15:02:17.285,951.4
2017-01-30 15:03:17.272,951.4
2017-01-30 15:04:17.292,951.4
2017-01-30 15:05:17.282,951.5
2017-01-30 15:06:17.276,951.5
2017-01-30 15:07:17.271,951.5
2017-01-30 15:08:17.281,951.5
2017-01-30 15:09:17.282,951.5
2017-01-30 15:10:17.281,951.5
2017-01-30 15:11:17.277,951.5
2017-01-30 15:12:17.276,951.6
2017-01-30 15:13:17.272,951.5
2017-01-30 15:14:17.284,951.6
2017-01-30 15:15:17.287,951.6
2017-01-30 15:16:17.282,951.5
2017-01-30 15:17:17.280,951.6
2017-01-30 15:18:17.275,951.6
2017-01-30 15:19:17.275,951.6
2017-01-30 15:20:17.272,951.5
2017-01-30 15:21:17.288,951.6
2017-01-30 15:22:17.276,951.5
2017-01-30 15:23:17.273,951.5
2017-01-30 15:24:17.285,951.5
2017-01-30 15:25:17.286,951.5
2017-01-30 15:26:17.293,951.5
2017-01-30 15:27:17.281,951.5
2017-01-30 15:28:17.279,951.5
2017-01-30 15:29:17.284,951.5
2017-01-30 15:30:17.270,951.5
2017-01-30 15:31:17.280,951.4
2017-01-30 15:32:17.272,951.5
2017-01-30 15:33:17.301,951.5
2017-01-30 15:34:17.272,951.5
2017-01-30 15:35:17.272,951.5
2017-01-30 15:36:17.277,951.4
2017-01-30 15:37:17.263,951.4
2017-01-30 15:38:17.268,951.5
2017-01-30 15:39:17.271,951.4
2017-01-30 15:40:17.275,951.4
2017-01-30 15:41:17.284,951.4
2017-01-30 15:42:17.279,951.4
2017-01-30 15:43:17.278,951.5
2017-01-30 15:44:17.272,951.4
2017-01-30 15:45:17.284,951.5
2017-01-30 15:46:17.272,951.4
2017-01-30 15:47:17.291,951.5
2017-01-30 15:48:17.271,951.5
2017-01-30 15:49:17.282,951.5
2017-01-30 15:50:17.276,951.5
2017-01-30 15:51:17.271,951.5
2017-01-30 15:52:17.270,951.6
2017-01-30 15:53:17.279,951.6
2017-01-30 15:54:17.280,951.5
2017-01-30 15:55:17.268,951.6
2017-01-30 15:56:17.273,951.7
2017-01-30 15:57:17.282,951.6
2017-01-30 15:58:17.269,951.6
2017-01-30 15:59:17.282,951.7
2017-01-30 16:00:17.274,951.6
2017-01-30 16:01:17.281,951.7
2017-01-30 16:02:17.275,951.6
2017-01-30 16:03:17.279,951.7
2017-01-30 16:04:17.272,951.7
2017-01-30 16:05:17.277,951.6
2017-01-30 16:06:17.278,951.6
2017-01-30 16:07:17.281,951.6
2017-01-30 16:08:17.276,951.7
2017-01-30 16:09:17.282,951.6
2017-01-30 16:10:17.270,951.7
2017-01-30 16:11:17.282,951.6
2017-01-30 16:12:17.271,951.7
2017-01-30 16:13:17.272,951.7
2017-01-30 16:14:17.283,951.8
2017-01-30 16:15:17.276,951.6
2017-01-30 16:16:17.283,951.6
2017-01-30 16:17:17.278,951.7
2017-01-30 16:18:17.282,951.7
2017-01-30 16:19:17.293,951.8
2017-01-30 16:20:17.281,951.8
2017-01-30 16:21:17.272,951.8
2017-01-30 16:22:17.275,951.8
2017-01-30 16:23:17.280,951.8
2017-01-30 16:24:17.287,951.8
2017-01-30 16:25:17.271,951.8
2017-01-30 16:26:17.282,951.8
2017-01-30 16:27:17.282,951.8
2017-01-30 16:28:17.283,951.9
2017-01-30 16:29:17.270,951.8
2017-01-30 16:30:17.283,951.8
2017-01-30 16:31:17.271,951.8
2017-01-30 16:32:17.271,951.9
2017-01-30 16:33:17.273,951.8
2017-01-30 16:34:17.278,951.8
2017-01-30 16:35:17.275,951.8
2017-01-30 16:36:17.288,951.9
2017-01-30 16:37:17.273,951.8
2017-01-30 16:38:17.269,951.9
2017-01-30 16:39:17.277,951.8
2017-01-30 16:40:17.282,951.9
2017-01-30 16:41:17.272,951.9
2017-01-30 16:42:17.281,951.9
2017-01-30 16:43:17.283,952.0
2017-01-30 16:44:17.282,951.9
2017-01-30 16:45:17.269,951.9
2017-01-30 16:46:17.270,952.0
2017-01-30 16:47:17.280,952.0
2017-01-30 16:48:17.281,952.0
2017-01-30 16:49:17.270,952.0
2017-01-30 16:50:17.273,952.0
2017-01-30 16:51:17.275,952.0
2017-01-30 16:52:17.280,952.0
2017-01-30 16:53:17.275,952.0
2017-01-30 16:54:17.275,952.0
2017-01-30 16:55:17.271,952.0
2017-01-30 16:56:17.278,952.0
2017-01-30 16:57:17.282,952.0
2017-01-30 16:58:17.269,952.0
2017-01-30 16:59:17.270,951.9
2017-01-30 17:00:17.276,951.9
2017-01-30 17:01:17.283,951.9
2017-01-30 17:02:17.297,951.9
2017-01-30 17:03:17.279,951.9
2017-01-30 17:04:17.271,951.8
2017-01-30 17:05:17.272,951.9
2017-01-30 17:06:17.266,951.9
2017-01-30 17:07:17.285,951.8
2017-01-30 17:08:17.279,951.9
2017-01-30 17:09:17.283,952.0
2017-01-30 17:10:17.283,951.9
2017-01-30 17:11:17.272,952.0
2017-01-30 17:12:17.277,952.0
2017-01-30 17:13:17.293,952.0
2017-01-30 17:14:17.274,951.9
2017-01-30 17:15:17.272,952.0
2017-01-30 17:16:17.274,952.0
2017-01-30 17:17:17.281,952.1
2017-01-30 17:18:17.288,952.0
2017-01-30 17:19:17.278,952.0
2017-01-30 17:20:17.283,952.0
2017-01-30 17:21:17.281,952.0
2017-01-30 17:22:17.276,952.0
2017-01-30 17:23:17.279,952.0
2017-01-30 17:24:17.274,951.9
2017-01-30 17:25:17.279,951.9
2017-01-30 17:26:17.276,951.9
2017-01-30 17:27:17.281,951.9
2017-01-30 17:28:17.277,951.8
2017-01-30 17:29:17.275,951.8
2017-01-30 17:30:17.272,951.8
2017-01-30 17:31:17.287,951.7
2017-01-30 17:32:17.277,951.8
2017-01-30 17:33:17.268,951.8
2017-01-30 17:34:17.291,951.8
2017-01-30 17:35:17.280,951.8
2017-01-30 17:36:17.287,951.9
2017-01-30 17:37:17.273,951.8
2017-01-30 17:38:17.272,951.8
2017-01-30 17:39:17.269,951.9
2017-01-30 17:40:17.283,951.9
2017-01-30 17:41:17.279,951.9
2017-01-30 17:42:17.280,951.8
2017-01-30 17:43:17.286,951.9
2017-01-30 17:44:17.279,951.9
2017-01-30 17:45:17.275,951.9
2017-01-30 17:46:17.272,951.9
2017-01-30 17:47:17.276,952.0
2017-01-30 17:48:17.275,952.0
2017-01-30 17:49:17.271,952.0
2017-01-30 17:50:17.272,952.0
2017-01-30 17:51:17.264,952.0
2017-01-30 17:52:17.278,952.0
2017-01-30 17:53:17.277,952.0
2017-01-30 17:54:17.285,952.0
2017-01-30 17:55:17.272,952.0
2017-01-30 17:56:17.272,952.0
2017-01-30 17:57:17.270,952.0
2017-01-30 17:58:17.286,952.0
2017-01-30 17:59:17.280,952.1
2017-01-30 18:00:17.278,952.1
2017-01-30 18:01:17.283,952.0
2017-01-30 18:02:17.278,952.1
2017-01-30 18:03:17.294,952.1
2017-01-30 18:04:17.282,952.1
2017-01-30 18:05:17.275,952.0
2017-01-30 18:06:17.271,952.0
2017-01-30 18:07:17.279,952.0
2017-01-30 18:08:17.274,952.0
2017-01-30 18:09:17.284,952.0
2017-01-30 18:10:17.272,952.0
2017-01-30 18:11:17.281,952.0
2017-01-30 18:12:17.282,952.0
2017-01-30 18:13:17.275,952.1
2017-01-30 18:14:17.283,952.1
2017-01-30 18:15:17.278,952.1
2017-01-30 18:16:17.281,952.0
2017-01-30 18:17:17.275,952.0
2017-01-30 18:18:17.271,952.1
2017-01-30 18:19:17.273,952.2
2017-01-30 18:20:17.282,952.1
2017-01-30 18:21:17.274,952.0
2017-01-30 18:22:17.281,952.1
2017-01-30 18:23:17.270,952.1
2017-01-30 18:24:17.270,952.2
2017-01-30 18:25:17.272,952.1
2017-01-30 18:26:17.291,952.1
2017-01-30 18:27:17.275,952.1
2017-01-30 18:28:17.268,952.1
2017-01-30 18:29:17.283,952.1
2017-01-30 18:30:17.286,952.1
2017-01-30 18:31:17.278,952.1
2017-01-30 18:32:17.291,952.1
2017-01-30 18:33:17.278,952.2
2017-01-30 18:34:17.279,952.1
2017-01-30 18:35:17.266,952.1
2017-01-30 18:36:17.278,952.1
2017-01-30 18:37:17.283,952.2
2017-01-30 18:38:17.278,952.1
2017-01-30 18:39:17.267,952.1
2017-01-30 18:40:17.283,952.0
2017-01-30 18:41:17.286,952.1
2017-01-30 18:42:17.270,952.1
2017-01-30 18:43:17.278,952.1
2017-01-30 18:44:17.285,952.1
2017-01-30 18:45:17.284,952.1
2017-01-30 18:46:17.271,952.1
2017-01-30 18:47:17.284,952.1
2017-01-30 18:48:17.282,952.2
2017-01-30 18:49:17.287,952.1
2017-01-30 18:50:17.292,952.1
2017-01-30 18:51:17.273,952.2
2017-01-30 18:52:17.283,952.1
2017-01-30 18:53:17.279,952.1
2017-01-30 18:54:17.273,952.1
2017-01-30 18:55:17.265,952.1
2017-01-30 18:56:17.280,952.1
2017-01-30 18:57:17.272,952.2
2017-01-30 18:58:17.284,952.1
2017-01-30 18:59:17.277,952.1
2017-01-30 19:00:17.271,952.1
2017-01-30 19:01:17.279,952.1
2017-01-30 19:02:17.285,952.1
2017-01-30 19:03:17.274,952.1
2017-01-30 19:04:17.283,952.2
2017-01-30 19:05:17.274,952.1
2017-01-30 19:06:17.277,952.1
2017-01-30 19:07:17.273,952.2
2017-01-30 19:08:17.273,952.2
2017-01-30 19:09:17.269,952.1
2017-01-30 19:10:17.282,952.2
2017-01-30 19:11:17.285,952.2
2017-01-30 19:12:17.276,952.1
2017-01-30 19:13:17.272,952.2
2017-01-30 19:14:17.285,952.2
2017-01-30 19:15:17.280,952.2
2017-01-30 19:16:17.282,952.2
2017-01-30 19:17:17.274,952.2
2017-01-30 19:18:17.274,952.2
2017-01-30 19:19:17.276,952.2
2017-01-30 19:20:17.304,952.2
2017-01-30 19:21:17.286,952.2
2017-01-30 19:22:17.276,952.2
2017-01-30 19:23:17.274,952.2
2017-01-30 19:24:17.266,952.2
2017-01-30 19:25:17.278,952.2
2017-01-30 19:26:17.285,952.2
2017-01-30 19:27:17.274,952.2
2017-01-30 19:28:17.276,952.2
2017-01-30 19:29:17.296,952.2
2017-01-30 19:30:17.281,952.2
2017-01-30 19:31:17.277,952.2
2017-01-30 19:32:17.274,952.2
2017-01-30 19:33:17.281,952.2
2017-01-30 19:34:17.278,952.2
2017-01-30 19:35:17.283,952.2
2017-01-30 19:36:17.284,952.2
2017-01-30 19:37:17.283,952.2
2017-01-30 19:38:17.276,952.1
2017-01-30 19:39:17.286,952.2
2017-01-30 19:40:17.275,952.1
2017-01-30 19:41:17.273,952.1
2017-01-30 19:42:17.281,952.1
2017-01-30 19:43:17.275,952.1
2017-01-30 19:44:17.276,952.2
2017-01-30 19:45:17.275,952.1
2017-01-30 19:46:17.280,952.1
2017-01-30 19:47:17.272,952.2
2017-01-30 19:48:17.282,952.1
2017-01-30 19:49:17.293,952.1
2017-01-30 19:50:17.267,952.2
2017-01-30 19:51:17.271,952.1
2017-01-30 19:52:17.272,952.2
2017-01-30 19:53:17.280,952.2
2017-01-30 19:54:17.270,952.2
2017-01-30 19:55:17.273,952.2
2017-01-30 19:56:17.272,952.2
2017-01-30 19:57:17.273,952.2
2017-01-30 19:58:17.275,952.2
2017-01-30 19:59:17.275,952.2
2017-01-30 20:00:17.271,952.2
2017-01-30 20:01:17.276,952.2
2017-01-30 20:02:17.275,952.2
2017-01-30 20:03:17.277,952.1
2017-01-30 20:04:17.273,952.1
2017-01-30 20:05:17.266,952.2
2017-01-30 20:06:17.272,952.1
2017-01-30 20:07:17.270,952.1
2017-01-30 20:08:17.269,952.1
2017-01-30 20:09:17.273,952.1
2017-01-30 20:10:17.280,952.1
2017-01-30 20:11:17.272,952.1
2017-01-30 20:12:17.269,952.1
2017-01-30 20:13:17.278,952.2
2017-01-30 20:14:17.270,952.2
2017-01-30 20:15:17.275,952.2
2017-01-30 20:16:17.283,952.1
2017-01-30 20:17:17.279,952.1
2017-01-30 20:18:17.278,952.1
2017-01-30 20:19:17.271,952.2
2017-01-30 20:20:17.275,952.1
2017-01-30 20:21:17.266,952.1
2017-01-30 20:22:17.271,952.1
2017-01-30 20:23:17.274,952.1
2017-01-30 20:24:17.277,952.2
2017-01-30 20:25:17.291,952.1
2017-01-30 20:26:17.264,952.1
2017-01-30 20:27:17.272,952.0
2017-01-30 20:28:17.270,952.1
2017-01-30 20:29:17.267,952.0
2017-01-30 20:30:17.271,952.0
2017-01-30 20:31:17.279,952.0
2017-01-30 20:32:17.275,952.0
2017-01-30 20:33:17.275,952.0
2017-01-30 20:34:17.287,952.0
2017-01-30 20:35:17.290,952.0
2017-01-30 20:36:17.269,952.0
2017-01-30 20:37:17.268,952.0
2017-01-30 20:38:17.271,951.9
2017-01-30 20:39:17.274,952.0
2017-01-30 20:40:17.287,952.0
2017-01-30 20:41:17.278,952.0
2017-01-30 20:42:17.290,952.1
2017-01-30 20:43:17.282,952.1
2017-01-30 20:44:17.279,952.1
2017-01-30 20:45:17.271,952.0
2017-01-30 20:46:17.268,952.0
2017-01-30 20:47:17.281,952.0
2017-01-30 20:48:17.284,952.0
2017-01-30 20:49:17.279,952.0
2017-01-30 20:50:17.271,952.0
2017-01-30 20:51:17.272,952.0
2017-01-30 20:52:17.295,951.9
2017-01-30 20:53:17.274,951.9
2017-01-30 20:54:17.275,951.9
2017-01-30 20:55:17.273,952.0
2017-01-30 20:56:17.280,951.9
2017-01-30 20:57:17.285,951.9
2017-01-30 20:58:17.288,952.0
2017-01-30 20:59:17.283,952.0
2017-01-30 21:00:17.270,952.0
2017-01-30 21:01:17.281,952.0
2017-01-30 21:02:17.274,951.9
2017-01-30 21:03:17.271,952.0
2017-01-30 21:04:17.274,952.0
2017-01-30 21:05:17.280,952.0
2017-01-30 21:06:17.273,952.0
2017-01-30 21:07:17.274,951.9
2017-01-30 21:08:17.272,951.9
2017-01-30 21:09:17.275,951.9
2017-01-30 21:10:17.270,951.9
2017-01-30 21:11:17.278,951.9
2017-01-30 21:12:17.281,951.9
2017-01-30 21:13:17.271,951.9
2017-01-30 21:14:17.274,951.9
2017-01-30 21:15:17.271,951.9
2017-01-30 21:16:17.274,951.9
2017-01-30 21:17:17.282,951.9
2017-01-30 21:18:17.273,951.9
2017-01-30 21:19:17.273,951.9
2017-01-30 21:20:17.295,951.9
2017-01-30 21:21:17.279,951.9
2017-01-30 21:22:17.278,952.0
2017-01-30 21:23:17.273,952.0
2017-01-30 21:24:17.273,952.0
2017-01-30 21:25:17.274,952.0
2017-01-30 21:26:17.275,952.0
2017-01-30 21:27:17.272,952.0
2017-01-30 21:28:17.279,952.0
2017-01-30 21:29:17.275,952.0
2017-01-30 21:30:17.281,952.1
2017-01-30 21:31:17.272,952.1
2017-01-30 21:32:17.270,952.1
2017-01-30 21:33:17.270,952.0
2017-01-30 21:34:17.275,952.1
2017-01-30 21:35:17.283,952.1
2017-01-30 21:36:17.270,952.0
2017-01-30 21:37:17.282,952.1
2017-01-30 21:38:17.281,952.0
2017-01-30 21:39:17.263,952.1
2017-01-30 21:40:17.269,952.0
2017-01-30 21:41:17.280,952.0
2017-01-30 21:42:17.285,952.1
2017-01-30 21:43:17.288,952.1
2017-01-30 21:44:17.282,952.0
2017-01-30 21:45:17.270,952.0
2017-01-30 21:46:17.279,952.0
2017-01-30 21:47:17.269,952.0
2017-01-30 21:48:17.263,952.0
2017-01-30 21:49:17.282,952.0
2017-01-30 21:50:17.273,952.0
2017-01-30 21:51:17.277,952.0
2017-01-30 21:52:17.273,951.8
2017-01-30 21:53:17.276,951.8
2017-01-30 21:54:17.281,951.8
2017-01-30 21:55:17.285,951.8
2017-01-30 21:56:17.269,951.8
2017-01-30 21:57:17.281,951.8
2017-01-30 21:58:17.275,951.8
2017-01-30 21:59:17.273,951.8
2017-01-30 22:00:17.279,951.9
2017-01-30 22:01:17.273,951.9
2017-01-30 22:02:17.270,952.0
2017-01-30 22:03:17.272,952.0
2017-01-30 22:04:17.284,952.0
2017-01-30 22:05:17.281,952.0
2017-01-30 22:06:17.274,952.1
2017-01-30 22:07:17.275,952.0
2017-01-30 22:08:17.279,952.1
2017-01-30 22:09:17.264,952.1
2017-01-30 22:10:17.281,952.1
2017-01-30 22:11:17.282,952.1
2017-01-30 22:12:17.315,952.1
2017-01-30 22:13:17.272,952.1
2017-01-30 22:14:17.269,952.1
2017-01-30 22:15:17.284,952.0
2017-01-30 22:16:17.280,952.1
2017-01-30 22:17:17.277,952.1
2017-01-30 22:18:17.277,952.1
2017-01-30 22:19:17.276,952.0
2017-01-30 22:20:17.275,952.0
2017-01-30 22:21:17.273,951.9
2017-01-30 22:22:17.285,951.9
2017-01-30 22:23:17.284,951.9
2017-01-30 22:24:17.274,951.8
2017-01-30 22:25:17.274,951.8
2017-01-30 22:26:17.268,951.9
2017-01-30 22:27:17.283,951.8
2017-01-30 22:28:17.283,951.8
2017-01-30 22:29:17.285,951.8
2017-01-30 22:30:17.271,951.8
2017-01-30 22:31:17.269,951.8
2017-01-30 22:32:17.271,951.8
2017-01-30 22:33:17.271,951.7
2017-01-30 22:34:17.269,951.8
2017-01-30 22:35:17.281,951.7
2017-01-30 22:36:17.285,951.7
2017-01-30 22:37:17.284,951.7
2017-01-30 22:38:17.280,951.7
2017-01-30 22:39:17.297,951.7
2017-01-30 22:40:17.273,951.7
2017-01-30 22:41:17.281,951.8
2017-01-30 22:42:17.282,951.7
2017-01-30 22:43:17.283,951.7
2017-01-30 22:44:17.279,951.7
2017-01-30 22:45:17.270,951.7
2017-01-30 22:46:17.278,951.7
2017-01-30 22:47:17.285,951.7
2017-01-30 22:48:17.272,951.7
2017-01-30 22:49:17.275,951.7
2017-01-30 22:50:17.274,951.7
2017-01-30 22:51:17.276,951.7
2017-01-30 22:52:17.285,951.7
2017-01-30 22:53:17.270,951.7
2017-01-30 22:54:17.273,951.7
2017-01-30 22:55:17.270,951.7
2017-01-30 22:56:17.275,951.7
2017-01-30 22:57:17.273,951.6
2017-01-30 22:58:17.275,951.7
2017-01-30 22:59:17.271,951.7
2017-01-30 23:00:17.279,951.6
2017-01-30 23:01:17.271,951.7
2017-01-30 23:02:17.276,951.6
2017-01-30 23:03:17.274,951.5
2017-01-30 23:04:17.282,951.5
2017-01-30 23:05:17.277,951.5
2017-01-30 23:06:17.275,951.6
2017-01-30 23:07:17.279,951.5
2017-01-30 23:08:17.274,951.5
2017-01-30 23:09:17.272,951.4
2017-01-30 23:10:17.287,951.4
2017-01-30 23:11:17.270,951.5
2017-01-30 23:12:17.271,951.6
2017-01-30 23:13:17.271,951.5
2017-01-30 23:14:17.273,951.5
2017-01-30 23:15:17.270,951.5
2017-01-30 23:16:17.288,951.4
2017-01-30 23:17:17.279,951.4
2017-01-30 23:18:17.277,951.4
2017-01-30 23:19:17.288,951.5
2017-01-30 23:20:17.269,951.5
2017-01-30 23:21:17.271,951.5
2017-01-30 23:22:17.270,951.4
2017-01-30 23:23:17.276,951.4
2017-01-30 23:24:17.279,951.4
2017-01-30 23:25:17.283,951.4
2017-01-30 23:26:17.286,951.5
2017-01-30 23:27:17.283,951.5
2017-01-30 23:28:17.278,951.5
2017-01-30 23:29:17.280,951.5
2017-01-30 23:30:17.274,951.4
2017-01-30 23:31:17.281,951.4
2017-01-30 23:32:17.283,951.4
2017-01-30 23:33:17.272,951.5
2017-01-30 23:34:17.270,951.6
2017-01-30 23:35:17.275,951.5
2017-01-30 23:36:17.293,951.5
2017-01-30 23:37:17.286,951.5
2017-01-30 23:38:17.270,951.5
2017-01-30 23:39:17.281,951.5
2017-01-30 23:40:17.280,951.5
2017-01-30 23:41:17.274,951.5
2017-01-30 23:42:17.282,951.5
2017-01-30 23:43:17.271,951.5
2017-01-30 23:44:17.271,951.5
2017-01-30 23:45:17.269,951.5
2017-01-30 23:46:17.272,951.4
2017-01-30 23:47:17.275,951.5
2017-01-30 23:48:17.286,951.4
2017-01-30 23:49:17.279,951.4
2017-01-30 23:50:17.275,951.5
2017-01-30 23:51:17.278,951.4
2017-01-30 23:52:17.274,951.4
2017-01-30 23:53:17.276,951.4
2017-01-30 23:54:17.277,951.4
2017-01-30 23:55:17.302,951.4
2017-01-30 23:56:17.273,951.4
2017-01-30 23:57:17.276,951.4
2017-01-30 23:58:17.274,951.3
2017-01-30 23:59:17.275,951.4
2017-01-31 00:00:17.284,951.3
2017-01-31 00:01:17.292,951.3
2017-01-31 00:02:17.272,951.3
2017-01-31 00:03:17.277,951.4
2017-01-31 00:04:17.270,951.4
2017-01-31 00:05:17.297,951.4
2017-01-31 00:06:17.286,951.4
2017-01-31 00:07:17.271,951.4
2017-01-31 00:08:17.269,951.4
2017-01-31 00:09:17.281,951.4
2017-01-31 00:10:17.272,951.5
2017-01-31 00:11:17.271,951.4
2017-01-31 00:12:17.271,951.4
2017-01-31 00:13:17.279,951.4
2017-01-31 00:14:17.271,951.4
2017-01-31 00:15:17.273,951.4
2017-01-31 00:16:17.276,951.4
2017-01-31 00:17:17.273,951.4
2017-01-31 00:18:17.482,951.4
2017-01-31 00:19:17.277,951.4
2017-01-31 00:20:17.275,951.3
2017-01-31 00:21:17.291,951.4
2017-01-31 00:22:17.269,951.4
2017-01-31 00:23:17.275,951.3
2017-01-31 00:24:17.268,951.3
2017-01-31 00:25:17.291,951.3
2017-01-31 00:26:17.274,951.3
2017-01-31 00:27:17.276,951.2
2017-01-31 00:28:17.277,951.2
2017-01-31 00:29:17.278,951.2
2017-01-31 00:30:17.291,951.2
2017-01-31 00:31:17.283,951.2
2017-01-31 00:32:17.269,951.2
2017-01-31 00:33:17.277,951.2
2017-01-31 00:34:17.282,951.3
2017-01-31 00:35:17.286,951.2
2017-01-31 00:36:17.278,951.2
2017-01-31 00:37:17.278,951.2
2017-01-31 00:38:17.274,951.2
2017-01-31 00:39:17.274,951.2
2017-01-31 00:40:17.267,951.2
2017-01-31 00:41:17.282,951.2
2017-01-31 00:42:17.275,951.3
2017-01-31 00:43:17.272,951.3
2017-01-31 00:44:17.273,951.2
2017-01-31 00:45:17.278,951.3
2017-01-31 00:46:17.278,951.3
2017-01-31 00:47:17.272,951.3
2017-01-31 00:48:17.277,951.3
2017-01-31 00:49:17.284,951.3
2017-01-31 00:50:17.272,951.3
2017-01-31 00:51:17.277,951.2
2017-01-31 00:52:17.307,951.2
2017-01-31 00:53:17.272,951.2
2017-01-31 00:54:17.270,951.2
2017-01-31 00:55:17.292,951.2
2017-01-31 00:56:17.273,951.2
2017-01-31 00:57:17.277,951.2
2017-01-31 00:58:17.275,951.3
2017-01-31 00:59:17.281,951.2
2017-01-31 01:00:17.285,951.2
2017-01-31 01:01:17.272,951.2
2017-01-31 01:02:17.280,951.2
2017-01-31 01:03:17.268,951.2
2017-01-31 01:04:17.275,951.1
2017-01-31 01:05:17.283,951.1
2017-01-31 01:06:17.283,951.1
2017-01-31 01:07:17.278,951.1
2017-01-31 01:08:17.272,951.1
2017-01-31 01:09:17.270,951.0
2017-01-31 01:10:17.268,951.1
2017-01-31 01:11:17.275,951.0
2017-01-31 01:12:17.288,951.0
2017-01-31 01:13:17.278,951.0
2017-01-31 01:14:17.275,951.0
2017-01-31 01:15:17.276,951.0
2017-01-31 01:16:17.273,951.0
2017-01-31 01:17:17.279,951.0
2017-01-31 01:18:17.278,951.1
2017-01-31 01:19:17.273,951.1
2017-01-31 01:20:17.284,951.2
2017-01-31 01:21:17.273,951.2
2017-01-31 01:22:17.271,951.2
2017-01-31 01:23:17.270,951.2
2017-01-31 01:24:17.275,951.2
2017-01-31 01:25:17.272,951.2
2017-01-31 01:26:17.281,951.2
2017-01-31 01:27:17.268,951.2
2017-01-31 01:28:17.282,951.2
2017-01-31 01:29:17.277,951.2
2017-01-31 01:30:17.275,951.2
2017-01-31 01:31:17.280,951.2
2017-01-31 01:32:17.279,951.2
2017-01-31 01:33:17.278,951.2
2017-01-31 01:34:17.291,951.2
2017-01-31 01:35:17.269,951.2
2017-01-31 01:36:17.272,951.1
2017-01-31 01:37:17.289,951.1
2017-01-31 01:38:17.276,951.1
2017-01-31 01:39:17.284,951.1
2017-01-31 01:40:17.268,951.1
2017-01-31 01:41:17.271,951.0
2017-01-31 01:42:17.287,951.0
2017-01-31 01:43:17.281,951.1
2017-01-31 01:44:17.278,951.1
2017-01-31 01:45:17.271,951.1
2017-01-31 01:46:17.283,951.1
2017-01-31 01:47:17.273,951.1
2017-01-31 01:48:17.283,951.0
2017-01-31 01:49:17.273,951.1
2017-01-31 01:50:17.275,951.1
2017-01-31 01:51:17.270,951.1
2017-01-31 01:52:17.274,951.0
2017-01-31 01:53:17.273,951.0
2017-01-31 01:54:17.278,951.0
2017-01-31 01:55:17.284,951.0
2017-01-31 01:56:17.284,951.0
2017-01-31 01:57:17.283,951.0
2017-01-31 01:58:17.284,951.0
2017-01-31 01:59:17.283,951.1
2017-01-31 02:00:17.266,951.1
2017-01-31 02:01:17.272,951.1
2017-01-31 02:02:17.279,951.1
2017-01-31 02:03:17.277,951.1
2017-01-31 02:04:17.278,951.1
2017-01-31 02:05:17.274,951.1
2017-01-31 02:06:17.272,951.1
2017-01-31 02:07:17.285,951.1
2017-01-31 02:08:17.278,951.1
2017-01-31 02:09:17.283,951.1
2017-01-31 02:10:17.274,951.1
2017-01-31 02:11:17.273,951.1
2017-01-31 02:12:17.278,951.1
2017-01-31 02:13:17.277,951.2
2017-01-31 02:14:17.280,951.1
2017-01-31 02:15:17.279,951.1
2017-01-31 02:16:17.271,951.1
2017-01-31 02:17:17.278,951.0
2017-01-31 02:18:17.271,951.0
2017-01-31 02:19:17.272,951.0
2017-01-31 02:20:17.273,950.9
2017-01-31 02:21:17.286,950.9
2017-01-31 02:22:17.286,950.8
2017-01-31 02:23:17.273,950.7
2017-01-31 02:24:17.271,950.7
2017-01-31 02:25:17.292,950.7
2017-01-31 02:26:17.272,950.7
2017-01-31 02:27:17.286,950.7
2017-01-31 02:28:17.274,950.7
2017-01-31 02:29:17.307,950.8
2017-01-31 02:30:17.272,950.8
2017-01-31 02:31:17.277,950.8
2017-01-31 02:32:17.282,950.9
2017-01-31 02:33:17.272,950.7
2017-01-31 02:34:17.280,950.8
2017-01-31 02:35:17.281,950.8
2017-01-31 02:36:17.277,950.8
2017-01-31 02:37:17.286,950.8
2017-01-31 02:38:17.265,950.8
2017-01-31 02:39:17.275,950.8
2017-01-31 02:40:17.275,950.8
2017-01-31 02:41:17.273,950.9
2017-01-31 02:42:17.278,950.9
2017-01-31 02:43:17.274,950.9
2017-01-31 02:44:17.272,950.8
2017-01-31 02:45:17.271,950.8
2017-01-31 02:46:17.271,950.8
2017-01-31 02:47:17.268,950.8
2017-01-31 02:48:17.269,950.8
2017-01-31 02:49:17.281,950.8
2017-01-31 02:50:17.267,950.7
2017-01-31 02:51:17.281,950.8
2017-01-31 02:52:17.273,950.9
2017-01-31 02:53:17.281,950.8
2017-01-31 02:54:17.271,950.9
2017-01-31 02:55:17.280,950.9
2017-01-31 02:56:17.277,950.9
2017-01-31 02:57:17.271,950.8
2017-01-31 02:58:17.274,950.9
2017-01-31 02:59:17.275,950.9
2017-01-31 03:00:17.270,951.0
2017-01-31 03:01:17.288,951.0
2017-01-31 03:02:17.280,950.9
2017-01-31 03:03:17.285,950.8
2017-01-31 03:04:17.282,950.8
2017-01-31 03:05:17.285,950.8
2017-01-31 03:06:17.272,950.8
2017-01-31 03:07:17.288,950.8
2017-01-31 03:08:17.282,950.7
2017-01-31 03:09:17.272,950.7
2017-01-31 03:10:17.270,950.8
2017-01-31 03:11:17.271,950.8
2017-01-31 03:12:17.271,950.7
2017-01-31 03:13:17.278,950.8
2017-01-31 03:14:17.272,950.7
2017-01-31 03:15:17.279,950.8
2017-01-31 03:16:17.279,950.7
2017-01-31 03:17:17.273,950.6
2017-01-31 03:18:17.274,950.6
2017-01-31 03:19:17.271,950.7
2017-01-31 03:20:17.281,950.7
2017-01-31 03:21:17.293,950.7
2017-01-31 03:22:17.285,950.6
2017-01-31 03:23:17.274,950.6
2017-01-31 03:24:17.274,950.6
2017-01-31 03:25:17.285,950.6
2017-01-31 03:26:17.279,950.6
2017-01-31 03:27:17.265,950.6
2017-01-31 03:28:17.281,950.6
2017-01-31 03:29:17.280,950.6
2017-01-31 03:30:17.272,950.6
2017-01-31 03:31:17.288,950.6
2017-01-31 03:32:17.273,950.5
2017-01-31 03:33:17.268,950.6
2017-01-31 03:34:17.275,950.6
2017-01-31 03:35:17.284,950.6
2017-01-31 03:36:17.281,950.5
2017-01-31 03:37:17.285,950.6
2017-01-31 03:38:17.274,950.6
2017-01-31 03:39:17.271,950.6
2017-01-31 03:40:17.278,950.6
2017-01-31 03:41:17.285,950.5
2017-01-31 03:42:17.268,950.5
2017-01-31 03:43:17.271,950.6
2017-01-31 03:44:17.274,950.6
2017-01-31 03:45:17.276,950.7
2017-01-31 03:46:17.284,950.6
2017-01-31 03:47:17.282,950.6
2017-01-31 03:48:17.281,950.6
2017-01-31 03:49:17.271,950.6
2017-01-31 03:50:17.284,950.7
2017-01-31 03:51:17.270,950.6
2017-01-31 03:52:17.271,950.6
2017-01-31 03:53:17.274,950.5
2017-01-31 03:54:17.269,950.6
2017-01-31 03:55:17.273,950.6
2017-01-31 03:56:17.274,950.6
2017-01-31 03:57:17.276,950.5
2017-01-31 03:58:17.273,950.6
2017-01-31 03:59:17.289,950.6
2017-01-31 04:00:17.273,950.6
2017-01-31 04:01:17.272,950.6
2017-01-31 04:02:17.272,950.6
2017-01-31 04:03:17.271,950.6
2017-01-31 04:04:17.267,950.6
2017-01-31 04:05:17.287,950.7
2017-01-31 04:06:17.272,950.7
2017-01-31 04:07:17.271,950.7
2017-01-31 04:08:17.281,950.7
2017-01-31 04:09:17.281,950.7
2017-01-31 04:10:17.272,950.7
2017-01-31 04:11:17.272,950.7
2017-01-31 04:12:17.302,950.8
2017-01-31 04:13:17.268,950.7
2017-01-31 04:14:17.285,950.8
2017-01-31 04:15:17.277,950.8
2017-01-31 04:16:17.276,950.7
2017-01-31 04:17:17.271,950.7
2017-01-31 04:18:17.284,950.7
2017-01-31 04:19:17.276,950.8
2017-01-31 04:20:17.274,950.8
2017-01-31 04:21:17.291,950.7
2017-01-31 04:22:17.285,950.8
2017-01-31 04:23:17.271,950.8
2017-01-31 04:24:17.269,950.7
2017-01-31 04:25:17.288,950.7
2017-01-31 04:26:17.281,950.7
2017-01-31 04:27:17.284,950.7
2017-01-31 04:28:17.272,950.7
2017-01-31 04:29:17.276,950.7
2017-01-31 04:30:17.271,950.7
2017-01-31 04:31:17.271,950.7
2017-01-31 04:32:17.279,950.7
2017-01-31 04:33:17.282,950.7
2017-01-31 04:34:17.287,950.8
2017-01-31 04:35:17.271,950.8
2017-01-31 04:36:17.272,950.7
2017-01-31 04:37:17.268,950.8
2017-01-31 04:38:17.268,950.8
2017-01-31 04:39:17.285,950.8
2017-01-31 04:40:17.292,950.8
2017-01-31 04:41:17.284,950.8
2017-01-31 04:42:17.278,950.8
2017-01-31 04:43:17.275,950.8
2017-01-31 04:44:17.283,950.8
2017-01-31 04:45:17.269,950.8
2017-01-31 04:46:17.287,950.8
2017-01-31 04:47:17.272,950.9
2017-01-31 04:48:17.273,950.9
2017-01-31 04:49:17.272,950.7
2017-01-31 04:50:17.284,950.8
2017-01-31 04:51:17.276,950.7
2017-01-31 04:52:17.281,950.7
2017-01-31 04:53:17.269,950.7
2017-01-31 04:54:17.272,950.8
2017-01-31 04:55:17.272,950.8
2017-01-31 04:56:17.276,950.8
2017-01-31 04:57:17.276,950.8
2017-01-31 04:58:17.286,950.8
2017-01-31 04:59:17.286,950.7
2017-01-31 05:00:17.284,950.7
2017-01-31 05:01:17.271,950.8
2017-01-31 05:02:17.270,950.8
2017-01-31 05:03:17.278,950.8
2017-01-31 05:04:17.264,950.9
2017-01-31 05:05:17.264,950.8
2017-01-31 05:06:17.283,950.8
2017-01-31 05:07:17.271,950.8
2017-01-31 05:08:17.264,950.8
2017-01-31 05:09:17.272,950.8
2017-01-31 05:10:17.271,950.8
2017-01-31 05:11:17.271,950.8
2017-01-31 05:12:17.272,950.8
2017-01-31 05:13:17.293,950.8
2017-01-31 05:14:17.277,950.8
2017-01-31 05:15:17.271,950.8
2017-01-31 05:16:17.282,950.8
2017-01-31 05:17:17.292,950.8
2017-01-31 05:18:17.283,950.8
2017-01-31 05:19:17.291,950.8
2017-01-31 05:20:17.275,950.8
2017-01-31 05:21:17.273,950.8
2017-01-31 05:22:17.278,950.8
2017-01-31 05:23:17.269,950.8
2017-01-31 05:24:17.278,950.8
2017-01-31 05:25:17.269,950.7
2017-01-31 05:26:17.271,950.8
2017-01-31 05:27:17.290,950.7
2017-01-31 05:28:17.273,950.7
2017-01-31 05:29:17.280,950.7
2017-01-31 05:30:17.276,950.7
2017-01-31 05:31:17.276,950.7
2017-01-31 05:32:17.272,950.7
2017-01-31 05:33:17.276,950.7
2017-01-31 05:34:17.264,950.8
2017-01-31 05:35:17.287,950.8
2017-01-31 05:36:17.281,950.8
2017-01-31 05:37:17.286,950.8
2017-01-31 05:38:17.279,950.8
2017-01-31 05:39:17.276,950.9
2017-01-31 05:40:17.275,950.8
2017-01-31 05:41:17.281,950.8
2017-01-31 05:42:17.280,950.8
2017-01-31 05:43:17.274,950.8
2017-01-31 05:44:17.273,950.9
2017-01-31 05:45:17.281,950.8
2017-01-31 05:46:17.272,950.9
2017-01-31 05:47:17.271,950.8
2017-01-31 05:48:17.272,950.9
2017-01-31 05:49:17.283,950.8
2017-01-31 05:50:17.273,950.8
2017-01-31 05:51:17.287,950.8
2017-01-31 05:52:17.275,950.9
2017-01-31 05:53:17.277,950.8
2017-01-31 05:54:17.269,950.8
2017-01-31 05:55:17.272,950.8
2017-01-31 05:56:17.273,950.8
2017-01-31 05:57:17.273,950.8
2017-01-31 05:58:17.282,950.8
2017-01-31 05:59:17.274,950.9
2017-01-31 06:00:17.270,951.0
2017-01-31 06:01:17.283,950.9
2017-01-31 06:02:17.272,951.0
2017-01-31 06:03:17.275,951.0
2017-01-31 06:04:17.276,950.9
2017-01-31 06:05:17.268,950.9
2017-01-31 06:06:17.286,950.8
2017-01-31 06:07:17.272,950.8
2017-01-31 06:08:17.278,950.8
2017-01-31 06:09:17.282,950.7
2017-01-31 06:10:17.271,950.7
2017-01-31 06:11:17.273,950.7
2017-01-31 06:12:17.283,950.7
2017-01-31 06:13:17.272,950.7
2017-01-31 06:14:17.283,950.7
2017-01-31 06:15:17.275,950.7
2017-01-31 06:16:17.281,950.7
2017-01-31 06:17:17.275,950.7
2017-01-31 06:18:17.268,950.7
2017-01-31 06:19:17.275,950.7
2017-01-31 06:20:17.280,950.7
2017-01-31 06:21:17.270,950.7
2017-01-31 06:22:17.275,950.7
2017-01-31 06:23:17.272,950.7
2017-01-31 06:24:17.282,950.7
2017-01-31 06:25:17.280,950.7
2017-01-31 06:26:17.271,950.7
2017-01-31 06:27:17.271,950.6
2017-01-31 06:28:17.274,950.7
2017-01-31 06:29:17.277,950.7
2017-01-31 06:30:17.290,950.7
2017-01-31 06:31:17.273,950.7
2017-01-31 06:32:17.279,950.7
2017-01-31 06:33:17.276,950.7
2017-01-31 06:34:17.275,950.7
2017-01-31 06:35:17.279,950.7
2017-01-31 06:36:17.270,950.7
2017-01-31 06:37:17.278,950.7
2017-01-31 06:38:17.275,950.8
2017-01-31 06:39:17.278,950.8
2017-01-31 06:40:17.273,950.8
2017-01-31 06:41:17.282,950.9
2017-01-31 06:42:17.281,950.8
2017-01-31 06:43:17.269,951.0
2017-01-31 06:44:17.270,951.0
2017-01-31 06:45:17.266,951.0
2017-01-31 06:46:17.296,951.0
2017-01-31 06:47:17.280,951.0
2017-01-31 06:48:17.274,951.1
2017-01-31 06:49:17.271,951.0
2017-01-31 06:50:17.283,951.0
2017-01-31 06:51:17.274,951.0
2017-01-31 06:52:17.273,951.0
2017-01-31 06:53:17.282,951.0
2017-01-31 06:54:17.275,951.0
2017-01-31 06:55:17.272,951.0
2017-01-31 06:56:17.282,951.0
2017-01-31 06:57:17.271,950.9
2017-01-31 06:58:17.283,950.9
2017-01-31 06:59:17.271,950.9
2017-01-31 07:00:17.276,950.9
2017-01-31 07:01:17.271,950.8
2017-01-31 07:02:17.270,950.9
2017-01-31 07:03:17.278,950.8
2017-01-31 07:04:17.274,950.8
2017-01-31 07:05:17.271,950.8
2017-01-31 07:06:17.275,950.8
2017-01-31 07:07:17.282,950.8
2017-01-31 07:08:17.272,950.8
2017-01-31 07:09:17.292,950.8
2017-01-31 07:10:17.272,950.8
2017-01-31 07:11:17.266,950.9
2017-01-31 07:12:17.274,950.8
2017-01-31 07:13:17.274,950.8
2017-01-31 07:14:17.275,950.9
2017-01-31 07:15:17.264,950.9
2017-01-31 07:16:17.274,950.8
2017-01-31 07:17:17.269,950.9
2017-01-31 07:18:17.270,950.9
2017-01-31 07:19:17.278,951.0
2017-01-31 07:20:17.282,951.0
2017-01-31 07:21:17.281,951.0
2017-01-31 07:22:17.272,951.0
2017-01-31 07:23:17.270,951.0
2017-01-31 07:24:17.278,951.0
2017-01-31 07:25:17.283,950.8
2017-01-31 07:26:17.277,950.9
2017-01-31 07:27:17.269,951.0
2017-01-31 07:28:17.278,950.9
2017-01-31 07:29:17.273,951.0
2017-01-31 07:30:17.284,950.9
2017-01-31 07:31:17.276,950.9
2017-01-31 07:32:17.279,950.9
2017-01-31 07:33:17.267,951.0
2017-01-31 07:34:17.274,950.9
2017-01-31 07:35:17.279,950.9
2017-01-31 07:36:17.283,950.9
2017-01-31 07:37:17.274,951.0
2017-01-31 07:38:17.273,951.0
2017-01-31 07:39:17.270,951.0
2017-01-31 07:40:17.266,950.9
2017-01-31 07:41:17.275,951.0
2017-01-31 07:42:17.276,951.0
2017-01-31 07:43:17.272,951.0
2017-01-31 07:44:17.270,951.0
2017-01-31 07:45:17.270,951.0
2017-01-31 07:46:17.270,951.0
2017-01-31 07:47:17.292,951.0
2017-01-31 07:48:17.273,951.0
2017-01-31 07:49:17.270,951.0
2017-01-31 07:50:17.282,951.1
2017-01-31 07:51:17.272,951.1
2017-01-31 07:52:17.274,951.1
2017-01-31 07:53:17.279,951.1
2017-01-31 07:54:17.279,951.2
2017-01-31 07:55:17.284,951.1
2017-01-31 07:56:17.295,951.2
2017-01-31 07:57:17.272,951.1
2017-01-31 07:58:17.274,951.2
2017-01-31 07:59:17.268,951.2
2017-01-31 08:00:17.275,951.2
2017-01-31 08:01:17.270,951.1
2017-01-31 08:02:17.283,951.1
2017-01-31 08:03:17.272,951.1
2017-01-31 08:04:17.281,951.1
2017-01-31 08:05:17.274,951.1
2017-01-31 08:06:17.285,951.1
2017-01-31 08:07:17.276,951.1
2017-01-31 08:08:17.280,951.0
2017-01-31 08:09:17.282,951.0
2017-01-31 08:10:17.278,951.0
2017-01-31 08:11:17.270,951.0
2017-01-31 08:12:17.281,951.1
2017-01-31 08:13:17.272,951.0
2017-01-31 08:14:17.276,951.0
2017-01-31 08:15:17.274,951.0
2017-01-31 08:16:17.279,951.0
2017-01-31 08:17:17.271,951.1
2017-01-31 08:18:17.287,951.0
2017-01-31 08:19:17.278,951.1
2017-01-31 08:20:17.270,951.0
2017-01-31 08:21:17.277,951.0
2017-01-31 08:22:17.271,951.1
2017-01-31 08:23:17.281,951.0
2017-01-31 08:24:17.280,951.0
2017-01-31 08:25:17.284,951.1
2017-01-31 08:26:17.277,951.1
2017-01-31 08:27:17.271,951.1
2017-01-31 08:28:17.286,951.0
2017-01-31 08:29:17.268,951.1
2017-01-31 08:30:17.285,951.0
2017-01-31 08:31:17.281,951.1
2017-01-31 08:32:17.280,951.1
2017-01-31 08:33:17.276,951.1
2017-01-31 08:34:17.272,951.1
2017-01-31 08:35:17.295,951.1
2017-01-31 08:36:17.283,951.1
2017-01-31 08:37:17.270,951.1
2017-01-31 08:38:17.278,951.1
2017-01-31 08:39:17.288,951.1
2017-01-31 08:40:17.275,951.1
2017-01-31 08:41:17.270,951.1
2017-01-31 08:42:17.271,951.1
2017-01-31 08:43:17.282,951.1
2017-01-31 08:44:17.274,951.1
2017-01-31 08:45:17.271,951.1
2017-01-31 08:46:17.280,951.2
2017-01-31 08:47:17.272,951.1
2017-01-31 08:48:17.281,951.2
2017-01-31 08:49:17.283,951.2
2017-01-31 08:50:17.292,951.2
2017-01-31 08:51:17.285,951.2
2017-01-31 08:52:17.279,951.2
2017-01-31 08:53:17.271,951.3
2017-01-31 08:54:17.274,951.2
2017-01-31 08:55:17.271,951.3
2017-01-31 08:56:17.275,951.3
2017-01-31 08:57:17.270,951.4
2017-01-31 08:58:17.272,951.3
2017-01-31 08:59:17.274,951.3
2017-01-31 09:00:17.272,951.3
2017-01-31 09:01:17.292,951.3
2017-01-31 09:02:17.283,951.3
2017-01-31 09:03:17.281,951.4
2017-01-31 09:04:17.273,951.4
2017-01-31 09:05:17.270,951.3
2017-01-31 09:06:17.278,951.4
2017-01-31 09:07:17.270,951.3
2017-01-31 09:08:17.286,951.3
2017-01-31 09:09:17.281,951.4
2017-01-31 09:10:17.272,951.4
2017-01-31 09:11:17.280,951.3
2017-01-31 09:12:17.270,951.4
2017-01-31 09:13:17.274,951.3
2017-01-31 09:14:17.278,951.4
2017-01-31 09:15:17.273,951.4
2017-01-31 09:16:17.278,951.4
2017-01-31 09:17:17.268,951.4
2017-01-31 09:18:17.268,951.4
2017-01-31 09:19:17.266,951.4
2017-01-31 09:20:17.272,951.5
2017-01-31 09:21:17.283,951.4
2017-01-31 09:22:17.272,951.4
2017-01-31 09:23:17.282,951.4
2017-01-31 09:24:17.278,951.4
2017-01-31 09:25:17.277,951.4
2017-01-31 09:26:17.277,951.4
2017-01-31 09:27:17.278,951.5
2017-01-31 09:28:17.282,951.5
2017-01-31 09:29:17.271,951.6
2017-01-31 09:30:17.299,951.5
2017-01-31 09:31:17.281,951.5
2017-01-31 09:32:17.283,951.5
2017-01-31 09:33:17.274,951.5
2017-01-31 09:34:17.277,951.5
2017-01-31 09:35:17.272,951.6
2017-01-31 09:36:17.271,951.6
2017-01-31 09:37:17.282,951.5
2017-01-31 09:38:17.281,951.6
2017-01-31 09:39:17.292,951.5
2017-01-31 09:40:17.278,951.6
2017-01-31 09:41:17.272,951.6
2017-01-31 09:42:17.281,951.5
2017-01-31 09:43:17.293,951.6
2017-01-31 09:44:17.270,951.6
2017-01-31 09:45:17.274,951.6
2017-01-31 09:46:17.283,951.6
2017-01-31 09:47:17.274,951.6
2017-01-31 09:48:17.278,951.7
2017-01-31 09:49:17.279,951.6
2017-01-31 09:50:17.274,951.6
2017-01-31 09:51:17.283,951.6
2017-01-31 09:52:17.278,951.6
2017-01-31 09:53:17.280,951.6
2017-01-31 09:54:17.276,951.6
2017-01-31 09:55:17.274,951.7
2017-01-31 09:56:17.273,951.6
2017-01-31 09:57:17.283,951.6
2017-01-31 09:58:17.286,951.6
2017-01-31 09:59:17.270,951.7
2017-01-31 10:00:17.278,951.7
2017-01-31 10:01:17.277,951.6
2017-01-31 10:02:17.278,951.6
2017-01-31 10:03:17.271,951.6
2017-01-31 10:04:17.271,951.7
2017-01-31 10:05:17.271,951.6
2017-01-31 10:06:17.272,951.7
2017-01-31 10:07:17.276,951.7
2017-01-31 10:08:17.271,951.7
2017-01-31 10:09:17.280,951.6
2017-01-31 10:10:17.268,951.7
2017-01-31 10:11:17.281,951.6
2017-01-31 10:12:17.283,951.7
2017-01-31 10:13:17.275,951.7
2017-01-31 10:14:17.282,951.6
2017-01-31 10:15:17.274,951.6
2017-01-31 10:16:17.266,951.7
2017-01-31 10:17:17.282,951.7
2017-01-31 10:18:17.266,951.6
2017-01-31 10:19:17.275,951.7
2017-01-31 10:20:17.275,951.7
2017-01-31 10:21:17.272,951.7
2017-01-31 10:22:17.280,951.7
2017-01-31 10:23:17.273,951.7
2017-01-31 10:24:17.269,951.8
2017-01-31 10:25:17.289,951.8
2017-01-31 10:26:17.275,951.8
2017-01-31 10:27:17.273,951.8
2017-01-31 10:28:17.275,951.8
2017-01-31 10:29:17.277,951.7
2017-01-31 10:30:17.291,951.7
2017-01-31 10:31:17.275,951.8
2017-01-31 10:32:17.271,951.7
2017-01-31 10:33:17.284,951.8
2017-01-31 10:34:17.272,951.8
2017-01-31 10:35:17.275,951.8
2017-01-31 10:36:17.281,951.8
2017-01-31 10:37:17.279,951.8
2017-01-31 10:38:17.281,951.8
2017-01-31 10:39:17.271,951.8
2017-01-31 10:40:17.292,951.8
2017-01-31 10:41:17.271,951.8
2017-01-31 10:42:17.283,951.8
2017-01-31 10:43:17.292,951.7
2017-01-31 10:44:17.280,951.7
2017-01-31 10:45:17.283,951.7
2017-01-31 10:46:17.276,951.7
2017-01-31 10:47:17.314,951.7
2017-01-31 10:48:17.272,951.7
2017-01-31 10:49:17.279,951.7
2017-01-31 10:50:17.273,951.7
2017-01-31 10:51:17.275,951.8
2017-01-31 10:52:17.271,951.8
2017-01-31 10:53:17.270,951.7
2017-01-31 10:54:17.280,951.7
2017-01-31 10:55:17.275,951.7
2017-01-31 10:56:17.277,951.7
2017-01-31 10:57:17.271,951.8
2017-01-31 10:58:17.283,951.7
2017-01-31 10:59:17.291,951.7
2017-01-31 11:00:17.278,951.7
2017-01-31 11:01:17.289,951.8
2017-01-31 11:02:17.283,951.6
2017-01-31 11:03:17.283,951.6
2017-01-31 11:04:17.291,951.6
2017-01-31 11:05:17.283,951.7
2017-01-31 11:06:17.277,951.6
2017-01-31 11:07:17.289,951.6
2017-01-31 11:08:17.275,951.6
2017-01-31 11:09:17.278,951.7
2017-01-31 11:10:17.275,951.6
2017-01-31 11:11:17.271,951.7
2017-01-31 11:12:17.277,951.6
2017-01-31 11:13:17.281,951.6
2017-01-31 11:14:17.272,951.6
2017-01-31 11:15:17.283,951.6
2017-01-31 11:16:17.270,951.6
2017-01-31 11:17:17.278,951.5
2017-01-31 11:18:17.268,951.5
2017-01-31 11:19:17.281,951.5
2017-01-31 11:20:17.270,951.5
2017-01-31 11:21:17.275,951.5
2017-01-31 11:22:17.269,951.4
2017-01-31 11:23:17.275,951.4
2017-01-31 11:24:17.282,951.4
2017-01-31 11:25:17.287,951.3
2017-01-31 11:26:17.265,951.3
2017-01-31 11:27:17.265,951.3
2017-01-31 11:28:17.271,951.3
2017-01-31 11:29:17.281,951.3
2017-01-31 11:30:17.283,951.3
2017-01-31 11:31:17.272,951.3
2017-01-31 11:32:17.280,951.3
2017-01-31 11:33:17.292,951.2
2017-01-31 11:34:17.269,951.3
2017-01-31 11:35:17.274,951.2
2017-01-31 11:36:17.293,951.3
2017-01-31 11:37:17.274,951.3
2017-01-31 11:38:17.280,951.3
2017-01-31 11:39:17.287,951.2
2017-01-31 11:40:17.265,951.3
2017-01-31 11:41:17.281,951.2
2017-01-31 11:42:17.272,951.2
2017-01-31 11:43:17.268,951.2
2017-01-31 11:44:17.279,951.2
2017-01-31 11:45:17.273,951.3
2017-01-31 11:46:17.273,951.2
2017-01-31 11:47:17.272,951.2
2017-01-31 11:48:17.285,951.2
2017-01-31 11:49:17.271,951.1
2017-01-31 11:50:17.278,951.2
2017-01-31 11:51:17.263,951.2
2017-01-31 11:52:17.275,951.2
2017-01-31 11:53:17.270,951.2
2017-01-31 11:54:17.280,951.2
2017-01-31 11:55:17.273,951.2
2017-01-31 11:56:17.274,951.1
2017-01-31 11:57:17.264,951.1
2017-01-31 11:58:17.271,951.2
2017-01-31 11:59:17.271,951.1
2017-01-31 12:00:17.270,951.1
2017-01-31 12:01:17.286,951.1
2017-01-31 12:02:17.280,951.1
2017-01-31 12:03:17.288,951.1
2017-01-31 12:04:17.272,951.1
2017-01-31 12:05:17.270,951.1
2017-01-31 12:06:17.283,951.1
2017-01-31 12:07:17.270,951.1
2017-01-31 12:08:17.282,951.1
2017-01-31 12:09:17.269,951.1
2017-01-31 12:10:17.266,951.1
2017-01-31 12:11:17.272,951.0
2017-01-31 12:12:17.287,951.0
2017-01-31 12:13:17.284,951.0
2017-01-31 12:14:17.267,951.0
2017-01-31 12:15:17.274,951.0
2017-01-31 12:16:17.286,951.0
2017-01-31 12:17:17.285,951.0
2017-01-31 12:18:17.270,950.9
2017-01-31 12:19:17.283,950.9
2017-01-31 12:20:17.264,950.9
2017-01-31 12:21:17.282,950.8
2017-01-31 12:22:17.271,950.8
2017-01-31 12:23:17.290,950.9
2017-01-31 12:24:17.266,950.8
2017-01-31 12:25:17.291,950.8
2017-01-31 12:26:17.287,950.9
2017-01-31 12:27:17.284,950.8
2017-01-31 12:28:17.280,950.8
2017-01-31 12:29:17.282,950.9
2017-01-31 12:30:17.279,950.8
2017-01-31 12:31:17.277,950.8
2017-01-31 12:32:17.281,950.7
2017-01-31 12:33:17.282,950.8
2017-01-31 12:34:17.264,950.8
2017-01-31 12:35:17.265,950.7
2017-01-31 12:36:17.275,950.7
2017-01-31 12:37:17.275,950.7
2017-01-31 12:38:17.264,950.7
2017-01-31 12:39:17.282,950.7
2017-01-31 12:40:17.284,950.7
2017-01-31 12:41:17.291,950.6
2017-01-31 12:42:17.267,950.6
2017-01-31 12:43:17.275,950.6
2017-01-31 12:44:17.284,950.6
2017-01-31 12:45:17.271,950.6
2017-01-31 12:46:17.265,950.6
2017-01-31 12:47:17.270,950.6
2017-01-31 12:48:17.274,950.5
2017-01-31 12:49:17.282,950.5
2017-01-31 12:50:17.267,950.6
2017-01-31 12:51:17.275,950.6
2017-01-31 12:52:17.270,950.6
2017-01-31 12:53:17.272,950.6
2017-01-31 12:54:17.265,950.6
2017-01-31 12:55:17.287,950.5
2017-01-31 12:56:17.270,950.5
2017-01-31 12:57:17.264,950.5
2017-01-31 12:58:17.274,950.5
2017-01-31 12:59:17.273,950.5
2017-01-31 13:00:17.283,950.6
2017-01-31 13:01:17.272,950.5
2017-01-31 13:02:17.304,950.5
2017-01-31 13:03:17.271,950.5
2017-01-31 13:04:17.267,950.5
2017-01-31 13:05:17.272,950.5
2017-01-31 13:06:17.275,950.5
2017-01-31 13:07:17.282,950.5
2017-01-31 13:08:17.285,950.5
2017-01-31 13:09:17.275,950.5
2017-01-31 13:10:17.273,950.5
2017-01-31 13:11:17.273,950.4
2017-01-31 13:12:17.271,950.5
2017-01-31 13:13:17.265,950.5
2017-01-31 13:14:17.272,950.5
2017-01-31 13:15:17.270,950.5
2017-01-31 13:16:17.274,950.4
2017-01-31 13:17:17.270,950.4
2017-01-31 13:18:17.276,950.5
2017-01-31 13:19:17.273,950.5
2017-01-31 13:20:17.279,950.5
2017-01-31 13:21:17.274,950.4
2017-01-31 13:22:17.282,950.5
2017-01-31 13:23:17.282,950.4
2017-01-31 13:24:17.275,950.5
2017-01-31 13:25:17.272,950.5
2017-01-31 13:26:17.288,950.4
2017-01-31 13:27:17.276,950.4
2017-01-31 13:28:17.270,950.4
2017-01-31 13:29:17.273,950.4
2017-01-31 13:30:17.276,950.4
2017-01-31 13:31:17.271,950.4
2017-01-31 13:32:17.282,950.4
2017-01-31 13:33:17.275,950.4
2017-01-31 13:34:17.275,950.4
2017-01-31 13:35:17.277,950.4
2017-01-31 13:36:17.278,950.4
2017-01-31 13:37:17.269,950.5
2017-01-31 13:38:17.286,950.4
2017-01-31 13:39:17.279,950.4
2017-01-31 13:40:17.265,950.3
2017-01-31 13:41:17.297,950.4
2017-01-31 13:42:17.278,950.3
2017-01-31 13:43:17.282,950.3
2017-01-31 13:44:17.270,950.4
2017-01-31 13:45:17.283,950.4
2017-01-31 13:46:17.271,950.4
2017-01-31 13:47:17.288,950.4
2017-01-31 13:48:17.286,950.3
2017-01-31 13:49:17.293,950.3
2017-01-31 13:50:17.272,950.3
2017-01-31 13:51:17.267,950.3
2017-01-31 13:52:17.283,950.4
2017-01-31 13:53:17.286,950.4
2017-01-31 13:54:17.277,950.4
2017-01-31 13:55:17.271,950.4
2017-01-31 13:56:17.282,950.5
2017-01-31 13:57:17.295,950.4
2017-01-31 13:58:17.274,950.4
2017-01-31 13:59:17.275,950.4
2017-01-31 14:00:17.265,950.5
2017-01-31 14:01:17.278,950.5
2017-01-31 14:02:17.277,950.4
2017-01-31 14:03:17.274,950.4
2017-01-31 14:04:17.282,950.4
2017-01-31 14:05:17.269,950.4
2017-01-31 14:06:17.276,950.4
2017-01-31 14:07:17.272,950.4
2017-01-31 14:08:17.272,950.4
2017-01-31 14:09:17.277,950.4
2017-01-31 14:10:17.286,950.5
2017-01-31 14:11:17.277,950.4
2017-01-31 14:12:17.272,950.5
2017-01-31 14:13:17.286,950.5
2017-01-31 14:14:17.282,950.5
2017-01-31 14:15:17.273,950.5
2017-01-31 14:16:17.280,950.5
2017-01-31 14:17:17.275,950.5
2017-01-31 14:18:17.275,950.5
2017-01-31 14:19:17.274,950.5
2017-01-31 14:20:17.267,950.5
2017-01-31 14:21:17.279,950.6
2017-01-31 14:22:17.273,950.6
2017-01-31 14:23:17.286,950.5
2017-01-31 14:24:17.274,950.6
2017-01-31 14:25:17.277,950.6
2017-01-31 14:26:17.274,950.6
2017-01-31 14:27:17.277,950.6
2017-01-31 14:28:17.282,950.6
2017-01-31 14:29:17.276,950.5
2017-01-31 14:30:17.273,950.5
2017-01-31 14:31:17.273,950.6
2017-01-31 14:32:17.273,950.6
2017-01-31 14:33:17.273,950.6
2017-01-31 14:34:17.288,950.5
2017-01-31 14:35:17.279,950.6
2017-01-31 14:36:17.272,950.6
2017-01-31 14:37:17.276,950.6
2017-01-31 14:38:17.287,950.5
2017-01-31 14:39:17.273,950.5
2017-01-31 14:40:17.283,950.5
2017-01-31 14:41:17.278,950.6
2017-01-31 14:42:17.272,950.5
2017-01-31 14:43:17.279,950.5
2017-01-31 14:44:17.305,950.5
2017-01-31 14:45:17.274,950.5
2017-01-31 14:46:17.274,950.6
2017-01-31 14:47:17.301,950.5
2017-01-31 14:48:17.271,950.5
2017-01-31 14:49:17.287,950.5
2017-01-31 14:50:17.274,950.5
2017-01-31 14:51:17.280,950.5
2017-01-31 14:52:17.300,950.5
2017-01-31 14:53:17.271,950.4
2017-01-31 14:54:17.279,950.6
2017-01-31 14:55:17.283,950.6
2017-01-31 14:56:17.283,950.6
2017-01-31 14:57:17.273,950.6
2017-01-31 14:58:17.283,950.5
2017-01-31 14:59:17.274,950.5
2017-01-31 15:00:17.272,950.6
2017-01-31 15:01:17.272,950.5
2017-01-31 15:02:17.272,950.6
2017-01-31 15:03:17.281,950.5
2017-01-31 15:04:17.271,950.5
2017-01-31 15:05:17.282,950.6
2017-01-31 15:06:17.264,950.6
2017-01-31 15:07:17.270,950.5
2017-01-31 15:08:17.292,950.5
2017-01-31 15:09:17.277,950.5
2017-01-31 15:10:17.279,950.6
2017-01-31 15:11:17.270,950.5
2017-01-31 15:12:17.275,950.5
2017-01-31 15:13:17.276,950.5
2017-01-31 15:14:17.266,950.6
2017-01-31 15:15:17.280,950.5
2017-01-31 15:16:17.290,950.5
2017-01-31 15:17:17.273,950.6
2017-01-31 15:18:17.275,950.6
2017-01-31 15:19:17.269,950.6
2017-01-31 15:20:17.270,950.6
2017-01-31 15:21:17.284,950.6
2017-01-31 15:22:17.377,950.6
2017-01-31 15:23:17.275,950.6
2017-01-31 15:24:17.270,950.6
2017-01-31 15:25:17.265,950.6
2017-01-31 15:26:17.288,950.5
2017-01-31 15:27:17.282,950.6
2017-01-31 15:28:17.272,950.6
2017-01-31 15:29:17.272,950.6
2017-01-31 15:30:17.271,950.7
2017-01-31 15:31:17.268,950.7
2017-01-31 15:32:17.271,950.6
2017-01-31 15:33:17.275,950.5
2017-01-31 15:34:17.274,950.6
2017-01-31 15:35:17.276,950.6
2017-01-31 15:36:17.283,950.6
2017-01-31 15:37:17.275,950.6
2017-01-31 15:38:17.270,950.6
2017-01-31 15:39:17.276,950.6
2017-01-31 15:40:17.284,950.6
2017-01-31 15:41:17.277,950.6
2017-01-31 15:42:17.275,950.5
2017-01-31 15:43:17.271,950.6
2017-01-31 15:44:17.278,950.6
2017-01-31 15:45:17.276,950.6
2017-01-31 15:46:17.278,950.7
2017-01-31 15:47:17.293,950.7
2017-01-31 15:48:17.284,950.7
2017-01-31 15:49:17.280,950.6
2017-01-31 15:50:17.272,950.6
2017-01-31 15:51:17.282,950.6
2017-01-31 15:52:17.279,950.6
2017-01-31 15:53:17.278,950.6
2017-01-31 15:54:17.273,950.6
2017-01-31 15:55:17.377,950.7
2017-01-31 15:56:17.277,950.6
2017-01-31 15:57:17.273,950.6
2017-01-31 15:58:17.280,950.6
2017-01-31 15:59:17.271,950.6
2017-01-31 16:00:17.269,950.5
2017-01-31 16:01:17.271,950.6
2017-01-31 16:02:17.281,950.6
2017-01-31 16:03:17.268,950.5
2017-01-31 16:04:17.273,950.5
2017-01-31 16:05:17.271,950.6
2017-01-31 16:06:17.272,950.5
2017-01-31 16:07:17.285,950.5
2017-01-31 16:08:17.265,950.5
2017-01-31 16:09:17.297,950.5
2017-01-31 16:10:17.277,950.5
2017-01-31 16:11:17.272,950.5
2017-01-31 16:12:17.280,950.5
2017-01-31 16:13:17.282,950.5
2017-01-31 16:14:17.274,950.5
2017-01-31 16:15:17.279,950.5
2017-01-31 16:16:17.281,950.5
2017-01-31 16:17:17.271,950.6
2017-01-31 16:18:17.271,950.6
2017-01-31 16:19:17.277,950.6
2017-01-31 16:20:17.268,950.5
2017-01-31 16:21:17.275,950.5
2017-01-31 16:22:17.276,950.5
2017-01-31 16:23:17.272,950.6
2017-01-31 16:24:17.272,950.5
2017-01-31 16:25:17.272,950.5
2017-01-31 16:26:17.269,950.5
2017-01-31 16:27:17.274,950.6
2017-01-31 16:28:17.274,950.6
2017-01-31 16:29:17.278,950.5
2017-01-31 16:30:17.276,950.5
2017-01-31 16:31:17.271,950.6
2017-01-31 16:32:17.283,950.6
2017-01-31 16:33:17.278,950.5
2017-01-31 16:34:17.304,950.6
2017-01-31 16:35:17.273,950.6
2017-01-31 16:36:17.273,950.6
2017-01-31 16:37:17.273,950.5
2017-01-31 16:38:17.274,950.6
2017-01-31 16:39:17.282,950.6
2017-01-31 16:40:17.292,950.6
2017-01-31 16:41:17.263,950.7
2017-01-31 16:42:17.299,950.7
2017-01-31 16:43:17.270,950.7
2017-01-31 16:44:17.271,950.7
2017-01-31 16:45:17.278,950.7
2017-01-31 16:46:17.271,950.7
2017-01-31 16:47:17.273,950.7
2017-01-31 16:48:17.279,950.7
2017-01-31 16:49:17.277,950.7
2017-01-31 16:50:17.292,950.6
2017-01-31 16:51:17.283,950.7
2017-01-31 16:52:17.280,950.6
2017-01-31 16:53:17.279,950.7
2017-01-31 16:54:17.275,950.7
2017-01-31 16:55:17.271,950.7
2017-01-31 16:56:17.278,950.7
2017-01-31 16:57:17.281,950.7
2017-01-31 16:58:17.282,950.7
2017-01-31 16:59:17.291,950.8
2017-01-31 17:00:17.276,950.8
2017-01-31 17:01:17.272,950.8
2017-01-31 17:02:17.278,950.8
2017-01-31 17:03:17.274,950.8
2017-01-31 17:04:17.274,950.8
2017-01-31 17:05:17.274,950.7
2017-01-31 17:06:17.285,950.8
2017-01-31 17:07:17.271,950.9
2017-01-31 17:08:17.281,950.8
2017-01-31 17:09:17.276,950.8
2017-01-31 17:10:17.275,950.9
2017-01-31 17:11:17.272,950.8
2017-01-31 17:12:17.281,950.8
2017-01-31 17:13:17.281,950.7
2017-01-31 17:14:17.278,950.8
2017-01-31 17:15:17.271,950.8
2017-01-31 17:16:17.264,950.7
2017-01-31 17:17:17.271,950.7
2017-01-31 17:18:17.273,950.7
2017-01-31 17:19:17.273,950.7
2017-01-31 17:20:17.281,950.8
2017-01-31 17:21:17.302,950.7
2017-01-31 17:22:17.284,950.7
2017-01-31 17:23:17.274,950.8
2017-01-31 17:24:17.275,950.7
2017-01-31 17:25:17.271,950.7
2017-01-31 17:26:17.274,950.7
2017-01-31 17:27:17.278,950.7
2017-01-31 17:28:17.278,950.7
2017-01-31 17:29:17.275,950.8
2017-01-31 17:30:17.276,950.7
2017-01-31 17:31:17.282,950.8
2017-01-31 17:32:17.263,950.7
2017-01-31 17:33:17.271,950.7
2017-01-31 17:34:17.271,950.8
2017-01-31 17:35:17.276,950.8
2017-01-31 17:36:17.275,950.8
2017-01-31 17:37:17.280,950.7
2017-01-31 17:38:17.277,950.8
2017-01-31 17:39:17.281,950.8
2017-01-31 17:40:17.273,950.8
2017-01-31 17:41:17.283,950.8
2017-01-31 17:42:17.271,950.9
2017-01-31 17:43:17.273,950.8
2017-01-31 17:44:17.289,950.9
2017-01-31 17:45:17.288,950.9
2017-01-31 17:46:17.279,951.0
2017-01-31 17:47:17.268,951.0
2017-01-31 17:48:17.279,950.9
2017-01-31 17:49:17.275,950.9
2017-01-31 17:50:17.271,950.9
2017-01-31 17:51:17.272,951.0
2017-01-31 17:52:17.276,951.0
2017-01-31 17:53:17.284,951.0
2017-01-31 17:54:17.264,951.0
2017-01-31 17:55:17.278,950.9
2017-01-31 17:56:17.270,950.8
2017-01-31 17:57:17.271,950.9
2017-01-31 17:58:17.276,950.8
2017-01-31 17:59:17.279,950.8
2017-01-31 18:00:17.279,950.8
2017-01-31 18:01:17.267,950.8
2017-01-31 18:02:17.270,950.8
2017-01-31 18:03:17.267,950.8
2017-01-31 18:04:17.279,950.8
2017-01-31 18:05:17.271,950.9
2017-01-31 18:06:17.265,950.8
2017-01-31 18:07:17.278,950.7
2017-01-31 18:08:17.278,950.7
2017-01-31 18:09:17.281,950.8
2017-01-31 18:10:17.271,950.8
2017-01-31 18:11:17.283,950.8
2017-01-31 18:12:17.277,950.8
2017-01-31 18:13:17.276,950.8
2017-01-31 18:14:17.278,950.7
2017-01-31 18:15:17.279,950.8
2017-01-31 18:16:17.286,950.9
2017-01-31 18:17:17.274,950.8
2017-01-31 18:18:17.277,950.9
2017-01-31 18:19:17.273,950.8
2017-01-31 18:20:17.278,950.8
2017-01-31 18:21:17.272,950.8
2017-01-31 18:22:17.275,950.8
2017-01-31 18:23:17.271,950.8
2017-01-31 18:24:17.280,950.7
2017-01-31 18:25:17.270,950.9
2017-01-31 18:26:17.272,950.8
2017-01-31 18:27:17.269,950.8
2017-01-31 18:28:17.268,950.8
2017-01-31 18:29:17.273,950.8
2017-01-31 18:30:17.292,950.8
2017-01-31 18:31:17.278,950.8
2017-01-31 18:32:17.274,950.8
2017-01-31 18:33:17.277,950.8
2017-01-31 18:34:17.273,950.8
2017-01-31 18:35:17.283,950.9
2017-01-31 18:36:17.270,950.8
2017-01-31 18:37:17.272,950.9
2017-01-31 18:38:17.265,950.8
2017-01-31 18:39:17.274,950.8
2017-01-31 18:40:17.282,950.8
2017-01-31 18:41:17.273,950.8
2017-01-31 18:42:17.273,950.8
2017-01-31 18:43:17.287,950.8
2017-01-31 18:44:17.286,950.9
2017-01-31 18:45:17.276,950.8
2017-01-31 18:46:17.280,950.9
2017-01-31 18:47:17.271,950.8
2017-01-31 18:48:17.296,950.8
2017-01-31 18:49:17.277,950.8
2017-01-31 18:50:17.275,950.8
2017-01-31 18:51:17.281,950.8
2017-01-31 18:52:17.270,950.8
2017-01-31 18:53:17.277,950.7
2017-01-31 18:54:17.275,950.7
2017-01-31 18:55:17.272,950.7
2017-01-31 18:56:17.281,950.8
2017-01-31 18:57:17.277,950.8
2017-01-31 18:58:17.274,950.8
2017-01-31 18:59:17.277,950.8
2017-01-31 19:00:17.274,950.7
2017-01-31 19:01:17.272,950.8
2017-01-31 19:02:17.274,950.7
2017-01-31 19:03:17.281,950.7
2017-01-31 19:04:17.271,950.8
2017-01-31 19:05:17.272,950.8
2017-01-31 19:06:17.272,950.8
2017-01-31 19:07:17.264,950.8
2017-01-31 19:08:17.269,950.8
2017-01-31 19:09:17.274,950.8
2017-01-31 19:10:17.274,950.8
2017-01-31 19:11:17.273,950.7
2017-01-31 19:12:17.272,950.8
2017-01-31 19:13:17.270,950.8
2017-01-31 19:14:17.269,950.8
2017-01-31 19:15:17.271,950.8
2017-01-31 19:16:17.275,950.8
2017-01-31 19:17:17.271,950.8
2017-01-31 19:18:17.272,950.7
2017-01-31 19:19:17.277,950.8
2017-01-31 19:20:17.271,950.8
2017-01-31 19:21:17.275,950.8
2017-01-31 19:22:17.272,950.9
2017-01-31 19:23:17.271,950.9
2017-01-31 19:24:17.273,950.9
2017-01-31 19:25:17.271,950.9
2017-01-31 19:26:17.274,950.9
2017-01-31 19:27:17.273,950.9
2017-01-31 19:28:17.272,950.9
2017-01-31 19:29:17.273,950.8
2017-01-31 19:30:17.270,950.9
2017-01-31 19:31:17.273,950.8
2017-01-31 19:32:17.266,950.9
2017-01-31 19:33:17.269,950.8
2017-01-31 19:34:17.278,950.8
2017-01-31 19:35:17.278,950.8
2017-01-31 19:36:17.273,950.8
2017-01-31 19:37:17.272,950.9
2017-01-31 19:38:17.262,950.9
2017-01-31 19:39:17.270,950.8
2017-01-31 19:40:17.277,950.8
2017-01-31 19:41:17.270,950.9
2017-01-31 19:42:17.277,950.8
2017-01-31 19:43:17.285,950.8
2017-01-31 19:44:17.273,950.9
2017-01-31 19:45:17.277,950.9
2017-01-31 19:46:17.273,950.9
2017-01-31 19:47:17.272,950.9
2017-01-31 19:48:17.274,951.0
2017-01-31 19:49:17.272,950.9
2017-01-31 19:50:17.283,951.0
2017-01-31 19:51:17.279,950.9
2017-01-31 19:52:17.278,950.9
2017-01-31 19:53:17.270,950.9
2017-01-31 19:54:17.272,951.0
2017-01-31 19:55:17.277,951.0
2017-01-31 19:56:17.272,951.0
2017-01-31 19:57:17.271,951.0
2017-01-31 19:58:17.271,950.9
2017-01-31 19:59:17.276,950.8
2017-01-31 20:00:17.264,950.8
2017-01-31 20:01:17.274,950.9
2017-01-31 20:02:17.272,951.0
2017-01-31 20:03:17.291,951.0
2017-01-31 20:04:17.274,951.0
2017-01-31 20:05:17.269,951.0
2017-01-31 20:06:17.274,950.9
2017-01-31 20:07:17.270,951.0
2017-01-31 20:08:17.276,951.0
2017-01-31 20:09:17.276,951.0
2017-01-31 20:10:17.278,951.0
2017-01-31 20:11:17.275,951.0
2017-01-31 20:12:17.271,951.0
2017-01-31 20:13:17.273,951.0
2017-01-31 20:14:17.271,950.9
2017-01-31 20:15:17.271,950.9
2017-01-31 20:16:17.285,951.0
2017-01-31 20:17:17.272,950.9
2017-01-31 20:18:17.277,950.9
2017-01-31 20:19:17.273,950.8
2017-01-31 20:20:17.278,951.0
2017-01-31 20:21:17.276,950.8
2017-01-31 20:22:17.282,950.9
2017-01-31 20:23:17.282,950.9
2017-01-31 20:24:17.270,950.9
2017-01-31 20:25:17.269,950.9
2017-01-31 20:26:17.282,950.9
2017-01-31 20:27:17.270,950.9
2017-01-31 20:28:17.267,950.9
2017-01-31 20:29:17.298,950.9
2017-01-31 20:30:17.269,950.9
2017-01-31 20:31:17.272,951.0
2017-01-31 20:32:17.271,950.9
2017-01-31 20:33:17.271,950.8
2017-01-31 20:34:17.271,950.9
2017-01-31 20:35:17.269,951.0
2017-01-31 20:36:17.264,950.9
2017-01-31 20:37:17.269,951.0
2017-01-31 20:38:17.280,951.0
2017-01-31 20:39:17.271,951.0
2017-01-31 20:40:17.271,950.9
2017-01-31 20:41:17.272,951.0
2017-01-31 20:42:17.265,950.9
2017-01-31 20:43:17.277,950.9
2017-01-31 20:44:17.272,950.8
2017-01-31 20:45:17.271,950.8
2017-01-31 20:46:17.269,950.9
2017-01-31 20:47:17.272,950.8
2017-01-31 20:48:17.274,950.8
2017-01-31 20:49:17.264,950.8
2017-01-31 20:50:17.287,950.8
2017-01-31 20:51:17.277,950.8
2017-01-31 20:52:17.273,950.8
2017-01-31 20:53:17.270,950.8
2017-01-31 20:54:17.268,950.8
2017-01-31 20:55:17.278,950.8
2017-01-31 20:56:17.273,950.8
2017-01-31 20:57:17.269,950.8
2017-01-31 20:58:17.271,950.8
2017-01-31 20:59:17.264,950.8
2017-01-31 21:00:17.276,950.9
2017-01-31 21:01:17.270,950.9
2017-01-31 21:02:17.271,950.9
2017-01-31 21:03:17.269,950.8
2017-01-31 21:04:17.269,951.0
2017-01-31 21:05:17.274,950.9
2017-01-31 21:06:17.269,950.9
2017-01-31 21:07:17.272,950.9
2017-01-31 21:08:17.271,950.9
2017-01-31 21:09:17.281,950.9
2017-01-31 21:10:17.271,950.9
2017-01-31 21:11:17.280,950.8
2017-01-31 21:12:17.274,950.8
2017-01-31 21:13:17.272,950.8
2017-01-31 21:14:17.269,950.9
2017-01-31 21:15:17.271,950.8
2017-01-31 21:16:17.274,950.8
2017-01-31 21:17:17.284,950.8
2017-01-31 21:18:17.270,950.9
2017-01-31 21:19:17.272,950.9
2017-01-31 21:20:17.273,950.8
2017-01-31 21:21:17.298,950.9
2017-01-31 21:22:17.274,950.8
2017-01-31 21:23:17.282,950.8
2017-01-31 21:24:17.274,950.8
2017-01-31 21:25:17.272,950.8
2017-01-31 21:26:17.271,950.8
2017-01-31 21:27:17.265,950.8
2017-01-31 21:28:17.272,950.8
2017-01-31 21:29:17.272,950.8
2017-01-31 21:30:17.270,950.8
2017-01-31 21:31:17.272,950.8
2017-01-31 21:32:17.271,950.8
2017-01-31 21:33:17.277,950.8
2017-01-31 21:34:17.271,950.8
2017-01-31 21:35:17.275,950.8
2017-01-31 21:36:17.273,950.8
2017-01-31 21:37:17.272,950.8
2017-01-31 21:38:17.268,950.8
2017-01-31 21:39:17.270,950.8
2017-01-31 21:40:17.294,950.8
2017-01-31 21:41:17.274,950.7
2017-01-31 21:42:17.273,950.8
2017-01-31 21:43:17.264,950.8
2017-01-31 21:44:17.272,950.9
2017-01-31 21:45:17.271,950.9
2017-01-31 21:46:17.273,950.8
2017-01-31 21:47:17.273,950.8
2017-01-31 21:48:17.281,950.8
2017-01-31 21:49:17.270,950.8
2017-01-31 21:50:17.270,950.8
2017-01-31 21:51:17.282,950.8
2017-01-31 21:52:17.269,950.8
2017-01-31 21:53:17.274,950.8
2017-01-31 21:54:17.278,950.8
2017-01-31 21:55:17.279,950.8
2017-01-31 21:56:17.277,950.8
2017-01-31 21:57:17.274,950.8
2017-01-31 21:58:17.273,950.8
2017-01-31 21:59:17.277,950.7
2017-01-31 22:00:17.273,950.7
2017-01-31 22:01:17.274,950.8
2017-01-31 22:02:17.273,950.7
2017-01-31 22:03:17.282,950.8
2017-01-31 22:04:17.271,950.7
2017-01-31 22:05:17.268,950.7
2017-01-31 22:06:17.271,950.8
2017-01-31 22:07:17.273,950.8
2017-01-31 22:08:17.273,950.7
2017-01-31 22:09:17.275,950.7
2017-01-31 22:10:17.269,950.7
2017-01-31 22:11:17.274,950.7
2017-01-31 22:12:17.269,950.7
2017-01-31 22:13:17.278,950.7
2017-01-31 22:14:17.272,950.7
2017-01-31 22:15:17.273,950.7
2017-01-31 22:16:17.273,950.7
2017-01-31 22:17:17.274,950.8
2017-01-31 22:18:17.272,950.7
2017-01-31 22:19:17.282,950.8
2017-01-31 22:20:17.272,950.8
2017-01-31 22:21:17.273,950.8
2017-01-31 22:22:17.278,950.7
2017-01-31 22:23:17.274,950.8
2017-01-31 22:24:17.275,950.7
2017-01-31 22:25:17.271,950.7
2017-01-31 22:26:17.270,950.6
2017-01-31 22:27:17.272,950.6
2017-01-31 22:28:17.273,950.6
2017-01-31 22:29:17.284,950.7
2017-01-31 22:30:17.284,950.7
2017-01-31 22:31:17.282,950.6
2017-01-31 22:32:17.270,950.6
2017-01-31 22:33:17.273,950.7
2017-01-31 22:34:17.273,950.6
2017-01-31 22:35:17.283,950.6
2017-01-31 22:36:17.269,950.7
2017-01-31 22:37:17.272,950.6
2017-01-31 22:38:17.275,950.6
2017-01-31 22:39:17.274,950.6
2017-01-31 22:40:17.281,950.6
2017-01-31 22:41:17.272,950.6
2017-01-31 22:42:17.274,950.6
2017-01-31 22:43:17.274,950.6
2017-01-31 22:44:17.272,950.6
2017-01-31 22:45:17.279,950.6
2017-01-31 22:46:17.273,950.7
2017-01-31 22:47:17.275,950.6
2017-01-31 22:48:17.267,950.6
2017-01-31 22:49:17.272,950.6
2017-01-31 22:50:17.272,950.6
2017-01-31 22:51:17.291,950.6
2017-01-31 22:52:17.273,950.6
2017-01-31 22:53:17.270,950.7
2017-01-31 22:54:17.272,950.7
2017-01-31 22:55:17.272,950.6
2017-01-31 22:56:17.270,950.7
2017-01-31 22:57:17.274,950.7
2017-01-31 22:58:17.271,950.7
2017-01-31 22:59:17.271,950.7
