date and time,Technique-Electrique_Résistance ECS_Power3[W]
2017-01-31 18:56:35.119,0
2017-01-31 18:57:20.101,0
2017-01-31 18:58:20.101,0
2017-01-31 18:59:20.099,0
2017-01-31 19:00:20.101,0
2017-01-31 19:01:20.098,0
2017-01-31 19:02:20.099,1
2017-01-31 19:03:20.099,0
2017-01-31 19:04:20.100,0
2017-01-31 19:05:20.101,0
2017-01-31 19:06:20.101,0
2017-01-31 19:07:20.101,0
2017-01-31 19:08:20.100,0
2017-01-31 19:09:20.102,0
2017-01-31 19:10:20.101,0
2017-01-31 19:11:20.100,0
2017-01-31 19:12:20.099,0
2017-01-31 19:13:20.099,0
2017-01-31 19:14:20.099,0
2017-01-31 19:15:20.101,0
2017-01-31 19:16:20.101,0
2017-01-31 19:17:20.101,0
2017-01-31 19:18:20.101,0
2017-01-31 19:19:20.101,0
2017-01-31 19:20:20.101,0
2017-01-31 19:21:20.100,0
2017-01-31 19:22:20.099,0
2017-01-31 19:23:20.100,0
2017-01-31 19:24:20.100,0
2017-01-31 19:25:20.101,0
2017-01-31 19:26:20.099,0
2017-01-31 19:27:20.099,0
2017-01-31 19:28:20.099,0
2017-01-31 19:29:20.099,0
2017-01-31 19:30:20.100,0
2017-01-31 19:31:20.099,1
2017-01-31 19:32:20.098,0
2017-01-31 19:33:20.101,0
2017-01-31 19:34:20.101,0
2017-01-31 19:35:20.099,0
2017-01-31 19:36:20.101,0
2017-01-31 19:37:20.099,0
2017-01-31 19:38:20.101,0
2017-01-31 19:39:20.098,0
2017-01-31 19:40:20.099,0
2017-01-31 19:41:20.100,0
2017-01-31 19:42:20.099,0
2017-01-31 19:43:20.101,1
2017-01-31 19:44:20.100,0
2017-01-31 19:45:20.100,0
2017-01-31 19:46:20.101,0
2017-01-31 19:47:20.100,0
2017-01-31 19:48:20.101,0
2017-01-31 19:49:20.099,0
2017-01-31 19:50:20.101,0
2017-01-31 19:51:20.101,0
2017-01-31 19:52:20.099,0
2017-01-31 19:53:20.100,0
2017-01-31 19:54:20.101,0
2017-01-31 19:55:20.101,0
2017-01-31 19:56:20.099,0
2017-01-31 19:57:20.101,0
2017-01-31 19:58:20.101,0
2017-01-31 19:59:20.098,0
2017-01-31 20:00:20.101,0
2017-01-31 20:01:20.101,0
2017-01-31 20:02:20.100,0
2017-01-31 20:03:20.101,0
2017-01-31 20:04:20.099,0
2017-01-31 20:05:20.100,0
2017-01-31 20:06:20.101,0
2017-01-31 20:07:20.101,0
2017-01-31 20:08:20.099,1
2017-01-31 20:09:20.100,0
2017-01-31 20:10:20.101,0
2017-01-31 20:11:20.101,0
2017-01-31 20:12:20.101,0
2017-01-31 20:13:20.100,0
2017-01-31 20:14:20.100,0
2017-01-31 20:15:20.101,0
2017-01-31 20:16:20.101,0
2017-01-31 20:17:20.101,0
2017-01-31 20:18:20.100,0
2017-01-31 20:19:20.102,0
2017-01-31 20:20:20.101,0
2017-01-31 20:21:20.102,0
2017-01-31 20:22:20.101,0
2017-01-31 20:23:20.101,0
2017-01-31 20:24:20.098,0
2017-01-31 20:25:20.101,0
2017-01-31 20:26:20.100,0
2017-01-31 20:27:20.101,0
2017-01-31 20:28:20.101,0
2017-01-31 20:29:20.098,0
2017-01-31 20:30:20.099,0
2017-01-31 20:31:20.101,0
2017-01-31 20:32:20.099,0
2017-01-31 20:33:20.101,0
2017-01-31 20:34:20.101,0
2017-01-31 20:35:20.100,0
2017-01-31 20:36:20.101,0
2017-01-31 20:37:20.101,0
2017-01-31 20:38:20.101,0
2017-01-31 20:39:20.099,0
2017-01-31 20:40:20.101,0
2017-01-31 20:41:20.100,0
2017-01-31 20:42:20.101,0
2017-01-31 20:43:20.100,0
2017-01-31 20:44:20.099,0
2017-01-31 20:45:20.101,0
2017-01-31 20:46:20.100,0
2017-01-31 20:47:20.101,0
2017-01-31 20:48:20.101,0
2017-01-31 20:49:20.099,0
2017-01-31 20:50:20.101,0
2017-01-31 20:51:20.100,0
2017-01-31 20:52:20.099,0
2017-01-31 20:53:20.099,0
2017-01-31 20:54:20.101,0
2017-01-31 20:55:20.101,0
2017-01-31 20:56:20.099,0
2017-01-31 20:57:20.101,0
2017-01-31 20:58:20.101,0
2017-01-31 20:59:20.101,0
2017-01-31 21:00:20.098,0
2017-01-31 21:01:20.101,0
2017-01-31 21:02:20.099,0
2017-01-31 21:03:20.100,0
2017-01-31 21:04:20.100,0
2017-01-31 21:05:20.101,0
2017-01-31 21:06:20.099,0
2017-01-31 21:07:20.100,0
2017-01-31 21:08:20.100,0
2017-01-31 21:09:20.100,0
2017-01-31 21:10:20.100,0
2017-01-31 21:11:20.099,0
2017-01-31 21:12:20.099,0
2017-01-31 21:13:20.101,0
2017-01-31 21:14:20.101,0
2017-01-31 21:15:20.101,0
2017-01-31 21:16:20.100,0
2017-01-31 21:17:20.099,0
2017-01-31 21:18:20.099,0
2017-01-31 21:19:20.099,0
2017-01-31 21:20:20.098,0
2017-01-31 21:21:20.101,0
2017-01-31 21:22:20.101,0
2017-01-31 21:23:20.101,0
2017-01-31 21:24:20.103,0
2017-01-31 21:25:20.101,0
2017-01-31 21:26:20.100,0
2017-01-31 21:27:20.101,0
2017-01-31 21:28:20.101,0
2017-01-31 21:29:20.101,0
2017-01-31 21:30:20.101,0
2017-01-31 21:31:20.099,0
2017-01-31 21:32:20.101,0
2017-01-31 21:33:20.099,0
2017-01-31 21:34:20.101,0
2017-01-31 21:35:20.101,0
2017-01-31 21:36:20.101,0
2017-01-31 21:37:20.101,0
2017-01-31 21:38:20.101,0
2017-01-31 21:39:20.101,0
2017-01-31 21:40:20.100,0
2017-01-31 21:41:20.100,0
2017-01-31 21:42:20.100,0
2017-01-31 21:43:20.099,0
2017-01-31 21:44:20.100,0
2017-01-31 21:45:20.099,0
2017-01-31 21:46:20.101,0
2017-01-31 21:47:20.101,0
2017-01-31 21:48:20.101,0
2017-01-31 21:49:20.101,0
2017-01-31 21:50:20.101,0
2017-01-31 21:51:20.101,0
2017-01-31 21:52:20.101,0
2017-01-31 21:53:20.100,1
2017-01-31 21:54:20.100,0
2017-01-31 21:55:20.101,0
2017-01-31 21:56:20.103,0
2017-01-31 21:57:20.101,0
2017-01-31 21:58:20.099,0
2017-01-31 21:59:20.101,0
2017-01-31 22:00:20.100,0
2017-01-31 22:01:20.099,0
2017-01-31 22:02:20.099,0
2017-01-31 22:03:20.098,0
2017-01-31 22:04:20.100,0
2017-01-31 22:05:20.101,0
2017-01-31 22:06:20.101,0
2017-01-31 22:07:20.099,0
2017-01-31 22:08:20.100,0
2017-01-31 22:09:20.099,0
2017-01-31 22:10:20.101,0
2017-01-31 22:11:20.101,0
2017-01-31 22:12:20.101,0
2017-01-31 22:13:20.101,0
2017-01-31 22:14:20.101,0
2017-01-31 22:15:20.101,0
2017-01-31 22:16:20.101,0
2017-01-31 22:17:20.099,0
2017-01-31 22:18:20.099,0
2017-01-31 22:19:20.100,0
2017-01-31 22:20:20.101,0
2017-01-31 22:21:20.100,0
2017-01-31 22:22:20.101,0
2017-01-31 22:23:20.100,0
2017-01-31 22:24:20.100,0
2017-01-31 22:25:20.101,0
2017-01-31 22:26:20.101,0
2017-01-31 22:27:20.099,0
2017-01-31 22:28:20.099,0
2017-01-31 22:29:20.099,0
2017-01-31 22:30:20.100,0
2017-01-31 22:31:20.101,0
2017-01-31 22:32:20.101,0
2017-01-31 22:33:20.102,0
2017-01-31 22:34:20.101,0
2017-01-31 22:35:20.109,0
2017-01-31 22:36:20.101,0
2017-01-31 22:37:20.100,0
2017-01-31 22:38:20.100,0
2017-01-31 22:39:20.100,0
2017-01-31 22:40:20.100,0
2017-01-31 22:41:20.100,0
2017-01-31 22:42:20.101,0
2017-01-31 22:43:20.100,0
2017-01-31 22:44:20.101,0
2017-01-31 22:45:20.101,0
2017-01-31 22:46:20.101,0
2017-01-31 22:47:20.101,0
2017-01-31 22:48:20.097,0
2017-01-31 22:49:20.100,0
2017-01-31 22:50:20.101,0
2017-01-31 22:51:20.101,0
2017-01-31 22:52:20.100,0
2017-01-31 22:53:20.101,0
2017-01-31 22:54:20.101,0
2017-01-31 22:55:20.099,0
2017-01-31 22:56:20.101,0
2017-01-31 22:57:20.100,0
2017-01-31 22:58:20.101,0
2017-01-31 22:59:20.101,0
