date and time,Technique-Electrique_Electroménager_Power3[W]
2017-01-30 09:31:53.470,0
2017-01-30 09:32:53.468,0
2017-01-30 09:33:53.469,0
2017-01-30 09:34:53.469,0
2017-01-30 09:35:53.469,0
2017-01-30 09:36:53.467,0
2017-01-30 09:37:53.468,0
2017-01-30 09:38:53.470,0
2017-01-30 09:39:53.469,0
2017-01-30 09:40:53.468,0
2017-01-30 09:41:53.469,2
2017-01-30 09:42:53.468,0
2017-01-30 09:43:53.468,0
2017-01-30 09:44:53.492,0
2017-01-30 09:45:53.490,0
2017-01-30 09:46:53.467,2
2017-01-30 09:47:53.492,0
2017-01-30 09:48:53.472,2
2017-01-30 09:49:53.468,0
2017-01-30 09:50:53.468,0
2017-01-30 09:51:53.468,0
2017-01-30 09:52:53.483,0
2017-01-30 11:21:05.095,0
2017-01-30 11:22:05.093,0
2017-01-30 11:23:05.093,0
2017-01-30 11:24:05.093,0
2017-01-30 11:25:05.093,0
2017-01-30 11:26:05.094,0
2017-01-30 11:27:05.093,0
2017-01-30 11:28:05.093,0
2017-01-30 11:29:05.094,0
2017-01-30 11:30:05.094,0
2017-01-30 11:31:05.094,0
2017-01-30 11:32:05.094,0
2017-01-30 11:33:05.111,0
2017-01-30 12:05:51.233,0
2017-01-30 12:06:15.578,0
2017-01-30 12:07:15.478,0
2017-01-30 12:08:18.930,0
2017-01-30 12:09:17.107,0
2017-01-30 12:10:17.101,0
2017-01-30 12:11:17.101,2
2017-01-30 12:12:17.100,16
2017-01-30 12:13:17.102,35
2017-01-30 12:14:17.106,2289
2017-01-30 12:15:17.101,2212
2017-01-30 12:16:17.101,2220
2017-01-30 12:17:17.101,2199
2017-01-30 12:18:17.103,2173
2017-01-30 12:19:17.101,2186
2017-01-30 12:20:17.101,2132
2017-01-30 12:21:17.106,2192
2017-01-30 12:22:17.104,23
2017-01-30 12:23:17.100,23
2017-01-30 12:24:17.104,24
2017-01-30 12:25:17.106,39
2017-01-30 12:26:17.105,28
2017-01-30 12:27:17.100,24
2017-01-30 12:28:17.105,39
2017-01-30 12:29:17.099,23
2017-01-30 12:30:17.102,39
2017-01-30 12:31:17.099,24
2017-01-30 12:32:17.100,39
2017-01-30 12:33:17.099,23
2017-01-30 12:34:17.100,33
2017-01-30 12:35:17.100,23
2017-01-30 12:36:17.100,2197
2017-01-30 12:37:17.099,2203
2017-01-30 12:38:17.101,2183
2017-01-30 12:39:17.105,57
2017-01-30 12:40:17.102,47
2017-01-30 12:41:17.100,47
2017-01-30 12:42:17.105,58
2017-01-30 12:43:17.102,57
2017-01-30 12:44:17.104,48
2017-01-30 12:45:17.127,47
2017-01-30 12:46:17.104,56
2017-01-30 12:47:17.102,58
2017-01-30 12:48:17.101,35
2017-01-30 12:49:17.102,44
2017-01-30 12:50:17.100,43
2017-01-30 12:51:17.103,58
2017-01-30 12:52:17.102,58
2017-01-30 12:53:17.107,57
2017-01-30 12:54:17.103,47
2017-01-30 12:55:17.099,47
2017-01-30 12:56:17.099,58
2017-01-30 12:57:17.104,56
2017-01-30 12:58:17.101,27
2017-01-30 12:59:17.100,12
2017-01-30 13:00:17.102,22
2017-01-30 13:01:17.104,22
2017-01-30 13:02:17.102,40
2017-01-30 13:03:17.100,10
2017-01-30 13:04:17.103,9
2017-01-30 13:05:17.103,36
2017-01-30 13:06:17.102,29
2017-01-30 13:07:17.102,39
2017-01-30 13:08:17.099,24
2017-01-30 13:09:17.108,39
2017-01-30 13:10:17.100,28
2017-01-30 13:11:17.100,35
2017-01-30 13:12:17.099,16
2017-01-30 13:13:17.099,15
2017-01-30 13:14:17.101,2280
2017-01-30 13:15:17.103,2213
2017-01-30 13:16:17.100,2228
2017-01-30 13:17:17.102,2239
2017-01-30 13:18:17.100,2220
2017-01-30 13:19:17.104,2186
2017-01-30 13:20:17.100,2160
2017-01-30 13:21:17.100,2197
2017-01-30 13:22:17.102,2160
2017-01-30 13:23:17.100,2144
2017-01-30 13:24:17.103,2146
2017-01-30 13:25:17.106,2097
2017-01-30 13:26:17.103,2135
2017-01-30 13:27:17.104,2109
2017-01-30 13:28:17.100,2105
2017-01-30 13:29:17.100,2094
2017-01-30 13:30:17.100,24
2017-01-30 13:31:17.103,32
2017-01-30 13:32:17.100,3
2017-01-30 13:33:17.101,0
2017-01-30 13:34:17.105,3
2017-01-30 13:35:17.099,11
2017-01-30 13:36:17.104,6
2017-01-30 13:37:17.105,4
2017-01-30 13:38:17.100,5
2017-01-30 13:39:17.099,4
2017-01-30 13:40:17.099,5
2017-01-30 13:41:17.100,5
2017-01-30 13:42:17.105,5
2017-01-30 13:43:17.103,5
2017-01-30 13:44:17.100,4
2017-01-30 13:45:17.104,5
2017-01-30 13:46:17.106,5
2017-01-30 13:47:17.099,0
2017-01-30 13:48:17.102,5
2017-01-30 13:49:17.099,5
2017-01-30 13:50:17.106,4
2017-01-30 13:51:17.100,5
2017-01-30 13:52:17.103,5
2017-01-30 13:53:17.101,5
2017-01-30 13:54:17.098,5
2017-01-30 13:55:17.105,5
2017-01-30 13:56:17.098,5
2017-01-30 13:57:17.105,4
2017-01-30 13:58:17.106,4
2017-01-30 13:59:17.099,5
2017-01-30 14:00:17.099,3
2017-01-30 14:01:17.102,0
2017-01-30 14:02:17.098,5
2017-01-30 14:03:17.103,5
2017-01-30 14:04:17.098,5
2017-01-30 14:05:17.099,16
2017-01-30 14:06:17.099,0
2017-01-30 14:07:17.099,0
2017-01-30 14:08:17.100,0
2017-01-30 14:09:17.105,0
2017-01-30 14:10:17.099,0
2017-01-30 14:11:17.101,0
2017-01-30 14:12:17.100,0
2017-01-30 14:13:17.103,0
2017-01-30 14:14:17.098,2
2017-01-30 14:15:17.099,0
2017-01-30 14:16:17.102,0
2017-01-30 14:17:17.105,2
2017-01-30 14:18:17.101,0
2017-01-30 14:19:17.103,2
2017-01-30 14:20:17.100,0
2017-01-30 14:21:17.108,0
2017-01-30 14:22:17.098,0
2017-01-30 14:23:17.102,0
2017-01-30 14:24:17.101,2
2017-01-30 14:25:17.100,0
2017-01-30 14:26:17.104,2
2017-01-30 14:27:17.104,0
2017-01-30 14:28:17.099,0
2017-01-30 14:29:17.103,2
2017-01-30 14:30:17.103,0
2017-01-30 14:31:17.103,2
2017-01-30 14:32:17.101,0
2017-01-30 14:33:17.100,0
2017-01-30 14:34:17.105,0
2017-01-30 14:35:17.102,0
2017-01-30 14:36:17.104,0
2017-01-30 14:37:17.101,0
2017-01-30 14:38:17.099,2
2017-01-30 14:39:17.103,0
2017-01-30 14:40:17.099,2
2017-01-30 14:41:17.105,0
2017-01-30 14:42:17.105,0
2017-01-30 14:43:17.099,0
2017-01-30 14:44:17.102,0
2017-01-30 14:45:17.104,0
2017-01-30 14:46:17.103,0
2017-01-30 14:47:17.104,0
2017-01-30 14:48:17.100,0
2017-01-30 14:49:17.101,0
2017-01-30 14:50:17.100,2
2017-01-30 14:51:17.099,0
2017-01-30 14:52:17.099,0
2017-01-30 14:53:17.100,0
2017-01-30 14:54:17.099,0
2017-01-30 14:55:17.100,1
2017-01-30 14:56:17.100,1
2017-01-30 14:57:17.100,0
2017-01-30 14:58:17.101,0
2017-01-30 14:59:17.099,0
2017-01-30 15:00:17.100,2
2017-01-30 15:01:17.101,0
2017-01-30 15:02:17.102,2
2017-01-30 15:03:17.100,0
2017-01-30 15:04:17.104,0
2017-01-30 15:05:17.101,0
2017-01-30 15:06:17.104,2
2017-01-30 15:07:17.105,0
2017-01-30 15:08:17.103,0
2017-01-30 15:09:17.101,0
2017-01-30 15:10:17.099,2
2017-01-30 15:11:17.104,2
2017-01-30 15:12:17.103,0
2017-01-30 15:13:17.100,2
2017-01-30 15:14:17.104,0
2017-01-30 15:15:17.104,0
2017-01-30 15:16:17.104,0
2017-01-30 15:17:17.100,0
2017-01-30 15:18:17.103,0
2017-01-30 15:19:17.126,0
2017-01-30 15:20:17.102,0
2017-01-30 15:21:17.108,2
2017-01-30 15:22:17.100,0
2017-01-30 15:23:17.097,0
2017-01-30 15:24:17.102,0
2017-01-30 15:25:17.102,0
2017-01-30 15:26:17.101,2
2017-01-30 15:27:17.101,0
2017-01-30 15:28:17.099,0
2017-01-30 15:29:17.101,0
2017-01-30 15:30:17.098,1
2017-01-30 15:31:17.103,0
2017-01-30 15:32:17.103,0
2017-01-30 15:33:17.099,0
2017-01-30 15:34:17.102,0
2017-01-30 15:35:17.104,2
2017-01-30 15:36:17.099,0
2017-01-30 15:37:17.098,0
2017-01-30 15:38:17.103,0
2017-01-30 15:39:17.099,0
2017-01-30 15:40:17.099,0
2017-01-30 15:41:17.100,0
2017-01-30 15:42:17.100,0
2017-01-30 15:43:17.099,1
2017-01-30 15:44:17.102,0
2017-01-30 15:45:17.100,0
2017-01-30 15:46:17.101,0
2017-01-30 15:47:17.105,0
2017-01-30 15:48:17.103,1
2017-01-30 15:49:17.100,0
2017-01-30 15:50:17.102,0
2017-01-30 15:51:17.102,0
2017-01-30 15:52:17.104,0
2017-01-30 15:53:17.105,0
2017-01-30 15:54:17.104,0
2017-01-30 15:55:17.104,0
2017-01-30 15:56:17.105,0
2017-01-30 15:57:17.100,1
2017-01-30 15:58:17.103,0
2017-01-30 15:59:17.102,0
2017-01-30 16:00:17.106,0
2017-01-30 16:01:17.101,0
2017-01-30 16:02:17.101,0
2017-01-30 16:03:17.102,0
2017-01-30 16:04:17.101,1
2017-01-30 16:05:17.101,0
2017-01-30 16:06:17.101,0
2017-01-30 16:07:17.102,1
2017-01-30 16:08:17.099,0
2017-01-30 16:09:17.100,0
2017-01-30 16:10:17.100,0
2017-01-30 16:11:17.104,0
2017-01-30 16:12:17.099,0
2017-01-30 16:13:17.100,0
2017-01-30 16:14:17.099,0
2017-01-30 16:15:17.102,0
2017-01-30 16:16:17.099,0
2017-01-30 16:17:17.104,0
2017-01-30 16:18:17.100,0
2017-01-30 16:19:17.101,0
2017-01-30 16:20:17.101,0
2017-01-30 16:21:17.099,0
2017-01-30 16:22:17.103,0
2017-01-30 16:23:17.104,0
2017-01-30 16:24:17.104,0
2017-01-30 16:25:17.100,0
2017-01-30 16:26:17.103,0
2017-01-30 16:27:17.099,0
2017-01-30 16:28:17.099,0
2017-01-30 16:29:17.100,0
2017-01-30 16:30:17.104,0
2017-01-30 16:31:17.103,0
2017-01-30 16:32:17.101,0
2017-01-30 16:33:17.103,0
2017-01-30 16:34:17.099,0
2017-01-30 16:35:17.101,2
2017-01-30 16:36:17.100,0
2017-01-30 16:37:17.102,0
2017-01-30 16:38:17.100,0
2017-01-30 16:39:17.101,0
2017-01-30 16:40:17.104,0
2017-01-30 16:41:17.100,0
2017-01-30 16:42:17.100,0
2017-01-30 16:43:17.104,0
2017-01-30 16:44:17.100,0
2017-01-30 16:45:17.100,0
2017-01-30 16:46:17.103,0
2017-01-30 16:47:17.100,2
2017-01-30 16:48:17.100,1
2017-01-30 16:49:17.099,0
2017-01-30 16:50:17.107,2
2017-01-30 16:51:17.104,0
2017-01-30 16:52:17.100,0
2017-01-30 16:53:17.101,0
2017-01-30 16:54:17.102,0
2017-01-30 16:55:17.104,2
2017-01-30 16:56:17.102,0
2017-01-30 16:57:17.103,0
2017-01-30 16:58:17.104,0
2017-01-30 16:59:17.099,0
2017-01-30 17:00:17.102,0
2017-01-30 17:01:17.098,0
2017-01-30 17:02:17.123,1
2017-01-30 17:03:17.099,0
2017-01-30 17:04:17.099,0
2017-01-30 17:05:17.102,0
2017-01-30 17:06:17.099,0
2017-01-30 17:07:17.100,0
2017-01-30 17:08:17.100,0
2017-01-30 17:09:17.102,0
2017-01-30 17:10:17.100,0
2017-01-30 17:11:17.099,0
2017-01-30 17:12:17.104,0
2017-01-30 17:13:17.103,2
2017-01-30 17:14:17.102,0
2017-01-30 17:15:17.103,0
2017-01-30 17:16:17.101,0
2017-01-30 17:17:17.100,0
2017-01-30 17:18:17.101,0
2017-01-30 17:19:17.100,0
2017-01-30 17:20:17.099,0
2017-01-30 17:21:17.101,0
2017-01-30 17:22:17.101,0
2017-01-30 17:23:17.101,0
2017-01-30 17:24:17.103,2
2017-01-30 17:25:17.104,2
2017-01-30 17:26:17.099,0
2017-01-30 17:27:17.099,0
2017-01-30 17:28:17.100,0
2017-01-30 17:29:17.105,0
2017-01-30 17:30:17.103,2
2017-01-30 17:31:17.099,2
2017-01-30 17:32:17.103,0
2017-01-30 17:33:17.098,0
2017-01-30 17:34:17.100,0
2017-01-30 17:35:17.101,2
2017-01-30 17:36:17.101,2
2017-01-30 17:37:17.099,0
2017-01-30 17:38:17.099,0
2017-01-30 17:39:17.102,2
2017-01-30 17:40:17.099,0
2017-01-30 17:41:17.103,0
2017-01-30 17:42:17.098,0
2017-01-30 17:43:17.103,0
2017-01-30 17:44:17.100,0
2017-01-30 17:45:17.099,506
2017-01-30 17:46:17.103,505
2017-01-30 17:47:17.105,505
2017-01-30 17:48:17.102,813
2017-01-30 17:49:17.101,811
2017-01-30 17:50:17.100,723
2017-01-30 17:51:17.098,504
2017-01-30 17:52:17.099,505
2017-01-30 17:53:17.103,506
2017-01-30 17:54:17.102,505
2017-01-30 17:55:17.102,507
2017-01-30 17:56:17.100,505
2017-01-30 17:57:17.104,507
2017-01-30 17:58:17.105,1309
2017-01-30 17:59:17.103,1309
2017-01-30 18:00:17.102,1297
2017-01-30 18:01:17.100,1295
2017-01-30 18:02:17.100,1286
2017-01-30 18:03:17.100,1296
2017-01-30 18:04:17.103,1292
2017-01-30 18:05:17.100,1287
2017-01-30 18:06:17.102,1299
2017-01-30 18:07:17.100,747
2017-01-30 18:08:17.104,1154
2017-01-30 18:09:17.102,1295
2017-01-30 18:10:17.104,1306
2017-01-30 18:11:17.100,1305
2017-01-30 18:12:17.102,1291
2017-01-30 18:13:17.099,846
2017-01-30 18:14:17.103,843
2017-01-30 18:15:17.100,692
2017-01-30 18:16:17.100,694
2017-01-30 18:17:17.099,696
2017-01-30 18:18:17.102,695
2017-01-30 18:19:17.102,698
2017-01-30 18:20:17.099,694
2017-01-30 18:21:17.105,694
2017-01-30 18:22:17.101,59
2017-01-30 18:23:17.099,59
2017-01-30 18:24:17.102,59
2017-01-30 18:25:17.103,75
2017-01-30 18:26:17.105,60
2017-01-30 18:27:17.105,6
2017-01-30 18:28:17.098,6
2017-01-30 18:29:17.099,7
2017-01-30 18:30:17.103,6
2017-01-30 18:31:17.103,7
2017-01-30 18:32:17.099,7
2017-01-30 18:33:17.101,6
2017-01-30 18:34:17.101,5
2017-01-30 18:35:17.097,6
2017-01-30 18:36:17.106,6
2017-01-30 18:37:17.105,7
2017-01-30 18:38:17.103,4
2017-01-30 18:39:17.098,4
2017-01-30 18:40:17.101,0
2017-01-30 18:41:17.099,0
2017-01-30 18:42:17.101,6
2017-01-30 18:43:17.102,7
2017-01-30 18:44:17.104,7
2017-01-30 18:45:17.102,7
2017-01-30 18:46:17.100,7
2017-01-30 18:47:17.100,7
2017-01-30 18:48:17.105,0
2017-01-30 18:49:17.100,0
2017-01-30 18:50:17.103,0
2017-01-30 18:51:17.104,0
2017-01-30 18:52:17.102,0
2017-01-30 18:53:17.101,0
2017-01-30 18:54:17.101,0
2017-01-30 18:55:17.098,0
2017-01-30 18:56:17.101,0
2017-01-30 18:57:17.100,0
2017-01-30 18:58:17.101,0
2017-01-30 18:59:17.099,0
2017-01-30 19:00:17.102,0
2017-01-30 19:01:17.100,0
2017-01-30 19:02:17.103,0
2017-01-30 19:03:17.102,0
2017-01-30 19:04:17.100,0
2017-01-30 19:05:17.100,0
2017-01-30 19:06:17.098,0
2017-01-30 19:07:17.105,0
2017-01-30 19:08:17.104,0
2017-01-30 19:09:17.102,0
2017-01-30 19:10:17.098,0
2017-01-30 19:11:17.101,2
2017-01-30 19:12:17.099,0
2017-01-30 19:13:17.106,2
2017-01-30 19:14:17.107,0
2017-01-30 19:15:17.105,2
2017-01-30 19:16:17.099,0
2017-01-30 19:17:17.099,0
2017-01-30 19:18:17.106,0
2017-01-30 19:19:17.106,0
2017-01-30 19:20:17.126,0
2017-01-30 19:21:17.101,2
2017-01-30 19:22:17.107,0
2017-01-30 19:23:17.105,2
2017-01-30 19:24:17.098,0
2017-01-30 19:25:17.100,0
2017-01-30 19:26:17.100,0
2017-01-30 19:27:17.100,0
2017-01-30 19:28:17.102,0
2017-01-30 19:29:17.098,0
2017-01-30 19:30:17.099,1
2017-01-30 19:31:17.100,0
2017-01-30 19:32:17.099,0
2017-01-30 19:33:17.101,1
2017-01-30 19:34:17.099,0
2017-01-30 19:35:17.099,0
2017-01-30 19:36:17.104,0
2017-01-30 19:37:17.099,0
2017-01-30 19:38:17.105,0
2017-01-30 19:39:17.102,0
2017-01-30 19:40:17.102,0
2017-01-30 19:41:17.101,0
2017-01-30 19:42:17.103,2
2017-01-30 19:43:17.098,0
2017-01-30 19:44:17.102,0
2017-01-30 19:45:17.103,0
2017-01-30 19:46:17.110,0
2017-01-30 19:47:17.101,0
2017-01-30 19:48:17.105,0
2017-01-30 19:49:17.099,2
2017-01-30 19:50:17.098,0
2017-01-30 19:51:17.105,2
2017-01-30 19:52:17.100,0
2017-01-30 19:53:17.100,0
2017-01-30 19:54:17.099,1
2017-01-30 19:55:17.101,0
2017-01-30 19:56:17.105,0
2017-01-30 19:57:17.102,0
2017-01-30 19:58:17.099,0
2017-01-30 19:59:17.100,0
2017-01-30 20:00:17.099,0
2017-01-30 20:01:17.105,0
2017-01-30 20:02:17.099,0
2017-01-30 20:03:17.100,0
2017-01-30 20:04:17.100,0
2017-01-30 20:05:17.102,0
2017-01-30 20:06:17.102,0
2017-01-30 20:07:17.104,0
2017-01-30 20:08:17.103,0
2017-01-30 20:09:17.101,0
2017-01-30 20:10:17.099,0
2017-01-30 20:11:17.100,0
2017-01-30 20:12:17.099,0
2017-01-30 20:13:17.101,0
2017-01-30 20:14:17.100,0
2017-01-30 20:15:17.103,2
2017-01-30 20:16:17.104,0
2017-01-30 20:17:17.100,2
2017-01-30 20:18:17.104,0
2017-01-30 20:19:17.104,2
2017-01-30 20:20:17.100,0
2017-01-30 20:21:17.099,0
2017-01-30 20:22:17.100,0
2017-01-30 20:23:17.101,0
2017-01-30 20:24:17.099,0
2017-01-30 20:25:17.105,0
2017-01-30 20:26:17.099,1
2017-01-30 20:27:17.104,0
2017-01-30 20:28:17.101,0
2017-01-30 20:29:17.098,2
2017-01-30 20:30:17.103,0
2017-01-30 20:31:17.100,0
2017-01-30 20:32:17.105,1
2017-01-30 20:33:17.098,0
2017-01-30 20:34:17.099,0
2017-01-30 20:35:17.100,0
2017-01-30 20:36:17.104,0
2017-01-30 20:37:17.101,1
2017-01-30 20:38:17.100,0
2017-01-30 20:39:17.100,0
2017-01-30 20:40:17.105,0
2017-01-30 20:41:17.100,0
2017-01-30 20:42:17.104,0
2017-01-30 20:43:17.099,0
2017-01-30 20:44:17.100,0
2017-01-30 20:45:17.104,0
2017-01-30 20:46:17.104,1
2017-01-30 20:47:17.104,0
2017-01-30 20:48:17.101,0
2017-01-30 20:49:17.101,0
2017-01-30 20:50:17.102,0
2017-01-30 20:51:17.101,0
2017-01-30 20:52:17.102,0
2017-01-30 20:53:17.101,0
2017-01-30 20:54:17.104,0
2017-01-30 20:55:17.101,0
2017-01-30 20:56:17.099,0
2017-01-30 20:57:17.103,0
2017-01-30 20:58:17.105,0
2017-01-30 20:59:17.103,0
2017-01-30 21:00:17.103,0
2017-01-30 21:01:17.103,0
2017-01-30 21:02:17.104,0
2017-01-30 21:03:17.100,0
2017-01-30 21:04:17.100,0
2017-01-30 21:05:17.102,0
2017-01-30 21:06:17.102,0
2017-01-30 21:07:17.102,0
2017-01-30 21:08:17.102,0
2017-01-30 21:09:17.104,2
2017-01-30 21:10:17.100,0
2017-01-30 21:11:17.100,0
2017-01-30 21:12:17.100,0
2017-01-30 21:13:17.098,0
2017-01-30 21:14:17.099,0
2017-01-30 21:15:17.102,0
2017-01-30 21:16:17.100,0
2017-01-30 21:17:17.100,0
2017-01-30 21:18:17.099,0
2017-01-30 21:19:17.104,0
2017-01-30 21:20:17.105,0
2017-01-30 21:21:17.099,0
2017-01-30 21:22:17.100,0
2017-01-30 21:23:17.100,0
2017-01-30 21:24:17.102,1
2017-01-30 21:25:17.099,0
2017-01-30 21:26:17.103,0
2017-01-30 21:27:17.101,0
2017-01-30 21:28:17.098,0
2017-01-30 21:29:17.099,0
2017-01-30 21:30:17.103,0
2017-01-30 21:31:17.100,0
2017-01-30 21:32:17.098,0
2017-01-30 21:33:17.100,0
2017-01-30 21:34:17.100,0
2017-01-30 21:35:17.098,0
2017-01-30 21:36:17.100,0
2017-01-30 21:37:17.099,0
2017-01-30 21:38:17.103,0
2017-01-30 21:39:17.098,0
2017-01-30 21:40:17.099,0
2017-01-30 21:41:17.100,0
2017-01-30 21:42:17.100,0
2017-01-30 21:43:17.102,3
2017-01-30 21:44:17.101,1
2017-01-30 21:45:17.103,0
2017-01-30 21:46:17.101,0
2017-01-30 21:47:17.099,0
2017-01-30 21:48:17.098,0
2017-01-30 21:49:17.102,1
2017-01-30 21:50:17.100,1
2017-01-30 21:51:17.099,0
2017-01-30 21:52:17.102,0
2017-01-30 21:53:17.104,0
2017-01-30 21:54:17.101,0
2017-01-30 21:55:17.099,0
2017-01-30 21:56:17.104,0
2017-01-30 21:57:17.101,0
2017-01-30 21:58:17.101,0
2017-01-30 21:59:17.104,0
2017-01-30 22:00:17.099,0
2017-01-30 22:01:17.103,0
2017-01-30 22:02:17.104,0
2017-01-30 22:03:17.102,0
2017-01-30 22:04:17.100,0
2017-01-30 22:05:17.100,0
2017-01-30 22:06:17.099,0
2017-01-30 22:07:17.099,0
2017-01-30 22:08:17.099,0
2017-01-30 22:09:17.098,2
2017-01-30 22:10:17.099,0
2017-01-30 22:11:17.103,0
2017-01-30 22:12:17.129,0
2017-01-30 22:13:17.106,0
2017-01-30 22:14:17.099,1
2017-01-30 22:15:17.104,0
2017-01-30 22:16:17.101,0
2017-01-30 22:17:17.100,0
2017-01-30 22:18:17.099,0
2017-01-30 22:19:17.099,0
2017-01-30 22:20:17.103,2
2017-01-30 22:21:17.104,0
2017-01-30 22:22:17.104,2
2017-01-30 22:23:17.103,0
2017-01-30 22:24:17.106,0
2017-01-30 22:25:17.103,0
2017-01-30 22:26:17.101,0
2017-01-30 22:27:17.100,2
2017-01-30 22:28:17.101,0
2017-01-30 22:29:17.099,0
2017-01-30 22:30:17.101,0
2017-01-30 22:31:17.101,0
2017-01-30 22:32:17.102,0
2017-01-30 22:33:17.104,0
2017-01-30 22:34:17.098,0
2017-01-30 22:35:17.100,0
2017-01-30 22:36:17.101,0
2017-01-30 22:37:17.099,0
2017-01-30 22:38:17.099,0
2017-01-30 22:39:17.100,0
2017-01-30 22:40:17.104,0
2017-01-30 22:41:17.102,0
2017-01-30 22:42:17.103,0
2017-01-30 22:43:17.105,0
2017-01-30 22:44:17.099,0
2017-01-30 22:45:17.103,0
2017-01-30 22:46:17.099,0
2017-01-30 22:47:17.104,2
2017-01-30 22:48:17.102,0
2017-01-30 22:49:17.104,0
2017-01-30 22:50:17.099,0
2017-01-30 22:51:17.098,0
2017-01-30 22:52:17.103,0
2017-01-30 22:53:17.100,0
2017-01-30 22:54:17.102,0
2017-01-30 22:55:17.101,0
2017-01-30 22:56:17.104,0
2017-01-30 22:57:17.105,0
2017-01-30 22:58:17.099,1
2017-01-30 22:59:17.099,0
2017-01-30 23:00:17.100,0
2017-01-30 23:01:17.101,0
2017-01-30 23:02:17.098,0
2017-01-30 23:03:17.100,2
2017-01-30 23:04:17.100,0
2017-01-30 23:05:17.099,0
2017-01-30 23:06:17.105,0
2017-01-30 23:07:17.100,0
2017-01-30 23:08:17.098,0
2017-01-30 23:09:17.100,2
2017-01-30 23:10:17.101,0
2017-01-30 23:11:17.102,0
2017-01-30 23:12:17.103,0
2017-01-30 23:13:17.099,0
2017-01-30 23:14:17.102,1
2017-01-30 23:15:17.104,0
2017-01-30 23:16:17.103,2
2017-01-30 23:17:17.102,1
2017-01-30 23:18:17.102,0
2017-01-30 23:19:17.104,0
2017-01-30 23:20:17.103,0
2017-01-30 23:21:17.103,0
2017-01-30 23:22:17.100,0
2017-01-30 23:23:17.105,2
2017-01-30 23:24:17.101,0
2017-01-30 23:25:17.100,2
2017-01-30 23:26:17.101,0
2017-01-30 23:27:17.100,0
2017-01-30 23:28:17.099,0
2017-01-30 23:29:17.099,2
2017-01-30 23:30:17.100,0
2017-01-30 23:31:17.101,0
2017-01-30 23:32:17.105,2
2017-01-30 23:33:17.105,0
2017-01-30 23:34:17.100,0
2017-01-30 23:35:17.103,2
2017-01-30 23:36:17.105,0
2017-01-30 23:37:17.099,2
2017-01-30 23:38:17.103,1
2017-01-30 23:39:17.102,0
2017-01-30 23:40:17.099,0
2017-01-30 23:41:17.102,0
2017-01-30 23:42:17.100,0
2017-01-30 23:43:17.102,0
2017-01-30 23:44:17.105,0
2017-01-30 23:45:17.103,0
2017-01-30 23:46:17.103,0
2017-01-30 23:47:17.100,0
2017-01-30 23:48:17.099,0
2017-01-30 23:49:17.104,0
2017-01-30 23:50:17.102,2
2017-01-30 23:51:17.099,0
2017-01-30 23:52:17.099,0
2017-01-30 23:53:17.103,0
2017-01-30 23:54:17.099,0
2017-01-30 23:55:17.128,0
2017-01-30 23:56:17.101,2
2017-01-30 23:57:17.100,0
2017-01-30 23:58:17.100,2
2017-01-30 23:59:17.104,0
2017-01-31 00:00:17.104,2
2017-01-31 00:01:17.101,0
2017-01-31 00:02:17.102,0
2017-01-31 00:03:17.099,0
2017-01-31 00:04:17.103,0
2017-01-31 00:05:17.099,0
2017-01-31 00:06:17.099,0
2017-01-31 00:07:17.108,0
2017-01-31 00:08:17.101,0
2017-01-31 00:09:17.099,2
2017-01-31 00:10:17.103,0
2017-01-31 00:11:17.099,2
2017-01-31 00:12:17.131,0
2017-01-31 00:13:17.102,0
2017-01-31 00:14:17.102,2
2017-01-31 00:15:17.100,0
2017-01-31 00:16:17.100,0
2017-01-31 00:17:17.102,0
2017-01-31 00:18:17.098,2
2017-01-31 00:19:17.100,1
2017-01-31 00:20:17.099,0
2017-01-31 00:21:17.103,0
2017-01-31 00:22:17.103,0
2017-01-31 00:23:17.099,0
2017-01-31 00:24:17.098,0
2017-01-31 00:25:17.101,0
2017-01-31 00:26:17.100,0
2017-01-31 00:27:17.102,0
2017-01-31 00:28:17.100,0
2017-01-31 00:29:17.107,0
2017-01-31 00:30:17.106,0
2017-01-31 00:31:17.102,0
2017-01-31 00:32:17.099,0
2017-01-31 00:33:17.099,0
2017-01-31 00:34:17.101,0
2017-01-31 00:35:17.099,0
2017-01-31 00:36:17.103,0
2017-01-31 00:37:17.099,0
2017-01-31 00:38:17.099,0
2017-01-31 00:39:17.100,0
2017-01-31 00:40:17.100,2
2017-01-31 00:41:17.106,0
2017-01-31 00:42:17.102,0
2017-01-31 00:43:17.104,0
2017-01-31 00:44:17.100,0
2017-01-31 00:45:17.100,2
2017-01-31 00:46:17.099,0
2017-01-31 00:47:17.102,0
2017-01-31 00:48:17.100,0
2017-01-31 00:49:17.099,0
2017-01-31 00:50:17.103,0
2017-01-31 00:51:17.101,0
2017-01-31 00:52:17.102,0
2017-01-31 00:53:17.101,2
2017-01-31 00:54:17.103,0
2017-01-31 00:55:17.098,0
2017-01-31 00:56:17.098,0
2017-01-31 00:57:17.099,2
2017-01-31 00:58:17.099,0
2017-01-31 00:59:17.103,3
2017-01-31 01:00:17.102,2
2017-01-31 01:01:17.101,3
2017-01-31 01:02:17.099,0
2017-01-31 01:03:17.100,0
2017-01-31 01:04:17.099,0
2017-01-31 01:05:17.103,0
2017-01-31 01:06:17.099,2
2017-01-31 01:07:17.100,0
2017-01-31 01:08:17.099,0
2017-01-31 01:09:17.103,1
2017-01-31 01:10:17.099,0
2017-01-31 01:11:17.106,0
2017-01-31 01:12:17.099,1
2017-01-31 01:13:17.101,0
2017-01-31 01:14:17.101,0
2017-01-31 01:15:17.103,0
2017-01-31 01:16:17.102,0
2017-01-31 01:17:17.100,0
2017-01-31 01:18:17.099,0
2017-01-31 01:19:17.104,0
2017-01-31 01:20:17.104,2
2017-01-31 01:21:17.100,2
2017-01-31 01:22:17.104,3
2017-01-31 01:23:17.101,0
2017-01-31 01:24:17.105,3
2017-01-31 01:25:17.101,0
2017-01-31 01:26:17.098,0
2017-01-31 01:27:17.100,0
2017-01-31 01:28:17.099,0
2017-01-31 01:29:17.099,0
2017-01-31 01:30:17.100,0
2017-01-31 01:31:17.099,0
2017-01-31 01:32:17.102,0
2017-01-31 01:33:17.100,0
2017-01-31 01:34:17.103,0
2017-01-31 01:35:17.108,0
2017-01-31 01:36:17.104,0
2017-01-31 01:37:17.110,0
2017-01-31 01:38:17.099,0
2017-01-31 01:39:17.099,2
2017-01-31 01:40:17.102,0
2017-01-31 01:41:17.105,0
2017-01-31 01:42:17.102,0
2017-01-31 01:43:17.101,0
2017-01-31 01:44:17.099,2
2017-01-31 01:45:17.100,0
2017-01-31 01:46:17.101,0
2017-01-31 01:47:17.103,0
2017-01-31 01:48:17.099,0
2017-01-31 01:49:17.100,0
2017-01-31 01:50:17.102,1
2017-01-31 01:51:17.099,0
2017-01-31 01:52:17.099,0
2017-01-31 01:53:17.104,0
2017-01-31 01:54:17.100,0
2017-01-31 01:55:17.099,0
2017-01-31 01:56:17.105,0
2017-01-31 01:57:17.104,2
2017-01-31 01:58:17.100,0
2017-01-31 01:59:17.104,2
2017-01-31 02:00:17.098,0
2017-01-31 02:01:17.102,0
2017-01-31 02:02:17.099,0
2017-01-31 02:03:17.100,0
2017-01-31 02:04:17.102,1
2017-01-31 02:05:17.101,0
2017-01-31 02:06:17.099,0
2017-01-31 02:07:17.103,0
2017-01-31 02:08:17.099,0
2017-01-31 02:09:17.101,0
2017-01-31 02:10:17.099,2
2017-01-31 02:11:17.103,0
2017-01-31 02:12:17.099,2
2017-01-31 02:13:17.102,0
2017-01-31 02:14:17.099,0
2017-01-31 02:15:17.103,0
2017-01-31 02:16:17.101,0
2017-01-31 02:17:17.100,0
2017-01-31 02:18:17.099,0
2017-01-31 02:19:17.099,0
2017-01-31 02:20:17.103,0
2017-01-31 02:21:17.102,0
2017-01-31 02:22:17.103,0
2017-01-31 02:23:17.104,0
2017-01-31 02:24:17.103,0
2017-01-31 02:25:17.103,2
2017-01-31 02:26:17.104,1
2017-01-31 02:27:17.104,0
2017-01-31 02:28:17.100,0
2017-01-31 02:29:17.115,0
2017-01-31 02:30:17.099,0
2017-01-31 02:31:17.102,2
2017-01-31 02:32:17.100,0
2017-01-31 02:33:17.102,2
2017-01-31 02:34:17.099,0
2017-01-31 02:35:17.105,2
2017-01-31 02:36:17.099,0
2017-01-31 02:37:17.099,0
2017-01-31 02:38:17.100,0
2017-01-31 02:39:17.102,2
2017-01-31 02:40:17.106,0
2017-01-31 02:41:17.101,0
2017-01-31 02:42:17.104,0
2017-01-31 02:43:17.104,0
2017-01-31 02:44:17.105,0
2017-01-31 02:45:17.102,0
2017-01-31 02:46:17.104,0
2017-01-31 02:47:17.105,0
2017-01-31 02:48:17.104,0
2017-01-31 02:49:17.099,0
2017-01-31 02:50:17.100,0
2017-01-31 02:51:17.102,0
2017-01-31 02:52:17.102,0
2017-01-31 02:53:17.099,0
2017-01-31 02:54:17.106,3
2017-01-31 02:55:17.104,0
2017-01-31 02:56:17.099,0
2017-01-31 02:57:17.105,0
2017-01-31 02:58:17.099,0
2017-01-31 02:59:17.100,0
2017-01-31 03:00:17.098,0
2017-01-31 03:01:17.102,0
2017-01-31 03:02:17.105,0
2017-01-31 03:03:17.099,1
2017-01-31 03:04:17.103,0
2017-01-31 03:05:17.099,0
2017-01-31 03:06:17.105,0
2017-01-31 03:07:17.100,0
2017-01-31 03:08:17.103,0
2017-01-31 03:09:17.101,0
2017-01-31 03:10:17.100,0
2017-01-31 03:11:17.102,0
2017-01-31 03:12:17.099,0
2017-01-31 03:13:17.099,0
2017-01-31 03:14:17.104,0
2017-01-31 03:15:17.098,0
2017-01-31 03:16:17.100,0
2017-01-31 03:17:17.099,0
2017-01-31 03:18:17.104,0
2017-01-31 03:19:17.100,2
2017-01-31 03:20:17.103,0
2017-01-31 03:21:17.099,0
2017-01-31 03:22:17.102,0
2017-01-31 03:23:17.101,0
2017-01-31 03:24:17.100,0
2017-01-31 03:25:17.101,0
2017-01-31 03:26:17.101,0
2017-01-31 03:27:17.098,1
2017-01-31 03:28:17.100,1
2017-01-31 03:29:17.100,0
2017-01-31 03:30:17.099,1
2017-01-31 03:31:17.102,0
2017-01-31 03:32:17.103,1
2017-01-31 03:33:17.098,0
2017-01-31 03:34:17.105,2
2017-01-31 03:35:17.099,0
2017-01-31 03:36:17.102,0
2017-01-31 03:37:17.101,0
2017-01-31 03:38:17.102,0
2017-01-31 03:39:17.102,0
2017-01-31 03:40:17.099,0
2017-01-31 03:41:17.100,0
2017-01-31 03:42:17.099,0
2017-01-31 03:43:17.104,0
2017-01-31 03:44:17.100,1
2017-01-31 03:45:17.100,0
2017-01-31 03:46:17.100,2
2017-01-31 03:47:17.100,0
2017-01-31 03:48:17.100,0
2017-01-31 03:49:17.103,2
2017-01-31 03:50:17.101,0
2017-01-31 03:51:17.099,0
2017-01-31 03:52:17.103,2
2017-01-31 03:53:17.101,0
2017-01-31 03:54:17.106,2
2017-01-31 03:55:17.102,0
2017-01-31 03:56:17.098,2
2017-01-31 03:57:17.102,0
2017-01-31 03:58:17.098,0
2017-01-31 03:59:17.103,0
2017-01-31 04:00:17.102,0
2017-01-31 04:01:17.101,1
2017-01-31 04:02:17.100,0
2017-01-31 04:03:17.103,0
2017-01-31 04:04:17.098,0
2017-01-31 04:05:17.100,2
2017-01-31 04:06:17.104,0
2017-01-31 04:07:17.103,2
2017-01-31 04:08:17.100,0
2017-01-31 04:09:17.105,0
2017-01-31 04:10:17.099,0
2017-01-31 04:11:17.100,1
2017-01-31 04:12:17.130,0
2017-01-31 04:13:17.103,1
2017-01-31 04:14:17.103,0
2017-01-31 04:15:17.100,0
2017-01-31 04:16:17.099,0
2017-01-31 04:17:17.103,0
2017-01-31 04:18:17.099,0
2017-01-31 04:19:17.099,0
2017-01-31 04:20:17.104,0
2017-01-31 04:21:17.100,0
2017-01-31 04:22:17.105,0
2017-01-31 04:23:17.100,0
2017-01-31 04:24:17.103,0
2017-01-31 04:25:17.102,0
2017-01-31 04:26:17.101,0
2017-01-31 04:27:17.102,0
2017-01-31 04:28:17.101,1
2017-01-31 04:29:17.102,0
2017-01-31 04:30:17.101,0
2017-01-31 04:31:17.104,0
2017-01-31 04:32:17.103,0
2017-01-31 04:33:17.102,0
2017-01-31 04:34:17.101,1
2017-01-31 04:35:17.100,0
2017-01-31 04:36:17.103,0
2017-01-31 04:37:17.103,0
2017-01-31 04:38:17.100,0
2017-01-31 04:39:17.105,0
2017-01-31 04:40:17.102,0
2017-01-31 04:41:17.099,0
2017-01-31 04:42:17.100,0
2017-01-31 04:43:17.102,0
2017-01-31 04:44:17.105,0
2017-01-31 04:45:17.102,0
2017-01-31 04:46:17.100,0
2017-01-31 04:47:17.098,0
2017-01-31 04:48:17.103,1
2017-01-31 04:49:17.102,0
2017-01-31 04:50:17.099,0
2017-01-31 04:51:17.105,0
2017-01-31 04:52:17.100,0
2017-01-31 04:53:17.104,0
2017-01-31 04:54:17.099,0
2017-01-31 04:55:17.102,0
2017-01-31 04:56:17.101,0
2017-01-31 04:57:17.105,0
2017-01-31 04:58:17.102,0
2017-01-31 04:59:17.100,0
2017-01-31 05:00:17.104,0
2017-01-31 05:01:17.098,0
2017-01-31 05:02:17.103,0
2017-01-31 05:03:17.100,0
2017-01-31 05:04:17.098,0
2017-01-31 05:05:17.100,0
2017-01-31 05:06:17.106,0
2017-01-31 05:07:17.100,0
2017-01-31 05:08:17.098,0
2017-01-31 05:09:17.099,0
2017-01-31 05:10:17.098,0
2017-01-31 05:11:17.097,0
2017-01-31 05:12:17.104,1
2017-01-31 05:13:17.100,0
2017-01-31 05:14:17.105,0
2017-01-31 05:15:17.105,0
2017-01-31 05:16:17.100,0
2017-01-31 05:17:17.099,0
2017-01-31 05:18:17.102,0
2017-01-31 05:19:17.103,0
2017-01-31 05:20:17.100,0
2017-01-31 05:21:17.098,0
2017-01-31 05:22:17.100,0
2017-01-31 05:23:17.097,0
2017-01-31 05:24:17.102,0
2017-01-31 05:25:17.098,0
2017-01-31 05:26:17.102,0
2017-01-31 05:27:17.105,0
2017-01-31 05:28:17.101,0
2017-01-31 05:29:17.100,0
2017-01-31 05:30:17.105,0
2017-01-31 05:31:17.100,0
2017-01-31 05:32:17.101,0
2017-01-31 05:33:17.099,0
2017-01-31 05:34:17.097,0
2017-01-31 05:35:17.103,0
2017-01-31 05:36:17.099,0
2017-01-31 05:37:17.100,0
2017-01-31 05:38:17.100,2
2017-01-31 05:39:17.099,0
2017-01-31 05:40:17.100,0
2017-01-31 05:41:17.100,0
2017-01-31 05:42:17.100,0
2017-01-31 05:43:17.100,0
2017-01-31 05:44:17.103,0
2017-01-31 05:45:17.101,0
2017-01-31 05:46:17.101,0
2017-01-31 05:47:17.103,0
2017-01-31 05:48:17.104,0
2017-01-31 05:49:17.100,0
2017-01-31 05:50:17.104,0
2017-01-31 05:51:17.106,0
2017-01-31 05:52:17.099,0
2017-01-31 05:53:17.100,0
2017-01-31 05:54:17.099,0
2017-01-31 05:55:17.101,0
2017-01-31 05:56:17.100,2
2017-01-31 05:57:17.099,0
2017-01-31 05:58:17.099,0
2017-01-31 05:59:17.104,0
2017-01-31 06:00:17.101,0
2017-01-31 06:01:17.099,2
2017-01-31 06:02:17.100,0
2017-01-31 06:03:17.102,0
2017-01-31 06:04:17.100,0
2017-01-31 06:05:17.104,0
2017-01-31 06:06:17.102,0
2017-01-31 06:07:17.104,0
2017-01-31 06:08:17.100,0
2017-01-31 06:09:17.098,0
2017-01-31 06:10:17.100,0
2017-01-31 06:11:17.102,0
2017-01-31 06:12:17.102,0
2017-01-31 06:13:17.102,0
2017-01-31 06:14:17.101,0
2017-01-31 06:15:17.103,0
2017-01-31 06:16:17.101,0
2017-01-31 06:17:17.101,0
2017-01-31 06:18:17.099,0
2017-01-31 06:19:17.099,3
2017-01-31 06:20:17.100,0
2017-01-31 06:21:17.101,0
2017-01-31 06:22:17.105,0
2017-01-31 06:23:17.101,2
2017-01-31 06:24:17.100,3
2017-01-31 06:25:17.099,3
2017-01-31 06:26:17.100,0
2017-01-31 06:27:17.102,0
2017-01-31 06:28:17.102,2
2017-01-31 06:29:17.099,0
2017-01-31 06:30:17.101,0
2017-01-31 06:31:17.103,3
2017-01-31 06:32:17.104,0
2017-01-31 06:33:17.104,0
2017-01-31 06:34:17.100,1
2017-01-31 06:35:17.102,0
2017-01-31 06:36:17.104,0
2017-01-31 06:37:17.099,2
2017-01-31 06:38:17.103,0
2017-01-31 06:39:17.098,0
2017-01-31 06:40:17.100,0
2017-01-31 06:41:17.102,0
2017-01-31 06:42:17.103,0
2017-01-31 06:43:17.103,0
2017-01-31 06:44:17.099,0
2017-01-31 06:45:17.098,0
2017-01-31 06:46:17.099,0
2017-01-31 06:47:17.099,0
2017-01-31 06:48:17.103,0
2017-01-31 06:49:17.099,0
2017-01-31 06:50:17.103,0
2017-01-31 06:51:17.100,0
2017-01-31 06:52:17.101,0
2017-01-31 06:53:17.102,0
2017-01-31 06:54:17.100,0
2017-01-31 06:55:17.103,0
2017-01-31 06:56:17.104,0
2017-01-31 06:57:17.100,0
2017-01-31 06:58:17.099,0
2017-01-31 06:59:17.100,0
2017-01-31 07:00:17.101,0
2017-01-31 07:01:17.102,0
2017-01-31 07:02:17.098,0
2017-01-31 07:03:17.099,0
2017-01-31 07:04:17.102,0
2017-01-31 07:05:17.102,3
2017-01-31 07:06:17.100,0
2017-01-31 07:07:17.099,0
2017-01-31 07:08:17.105,0
2017-01-31 07:09:17.102,0
2017-01-31 07:10:17.100,0
2017-01-31 07:11:17.098,0
2017-01-31 07:12:17.103,0
2017-01-31 07:13:17.098,0
2017-01-31 07:14:17.103,2
2017-01-31 07:15:17.098,0
2017-01-31 07:16:17.099,0
2017-01-31 07:17:17.101,0
2017-01-31 07:18:17.101,0
2017-01-31 07:19:17.099,0
2017-01-31 07:20:17.101,0
2017-01-31 07:21:17.101,0
2017-01-31 07:22:17.100,0
2017-01-31 07:23:17.100,0
2017-01-31 07:24:17.102,0
2017-01-31 07:25:17.099,0
2017-01-31 07:26:17.100,0
2017-01-31 07:27:17.102,0
2017-01-31 07:28:17.102,2
2017-01-31 07:29:17.104,0
2017-01-31 07:30:17.103,0
2017-01-31 07:31:17.104,0
2017-01-31 07:32:17.104,3
2017-01-31 07:33:17.098,2
2017-01-31 07:34:17.100,0
2017-01-31 07:35:17.102,0
2017-01-31 07:36:17.102,0
2017-01-31 07:37:17.101,0
2017-01-31 07:38:17.129,0
2017-01-31 07:39:17.102,0
2017-01-31 07:40:17.099,0
2017-01-31 07:41:17.102,1
2017-01-31 07:42:17.099,0
2017-01-31 07:43:17.106,0
2017-01-31 07:44:17.102,0
2017-01-31 07:45:17.104,0
2017-01-31 07:46:17.104,0
2017-01-31 07:47:17.104,0
2017-01-31 07:48:17.104,0
2017-01-31 07:49:17.099,0
2017-01-31 07:50:17.099,0
2017-01-31 07:51:17.106,1
2017-01-31 07:52:17.099,0
2017-01-31 07:53:17.103,0
2017-01-31 07:54:17.098,0
2017-01-31 07:55:17.128,0
2017-01-31 07:56:17.103,0
2017-01-31 07:57:17.099,0
2017-01-31 07:58:17.099,1
2017-01-31 07:59:17.101,0
2017-01-31 08:00:17.100,2
2017-01-31 08:01:17.101,0
2017-01-31 08:02:17.099,0
2017-01-31 08:03:17.101,0
2017-01-31 08:04:17.100,0
2017-01-31 08:05:17.105,0
2017-01-31 08:06:17.103,0
2017-01-31 08:07:17.107,0
2017-01-31 08:08:17.100,1
2017-01-31 08:09:17.102,0
2017-01-31 08:10:17.099,0
2017-01-31 08:11:17.101,0
2017-01-31 08:12:17.102,0
2017-01-31 08:13:17.103,0
2017-01-31 08:14:17.101,0
2017-01-31 08:15:17.103,0
2017-01-31 08:16:17.104,0
2017-01-31 08:17:17.100,0
2017-01-31 08:18:17.104,0
2017-01-31 08:19:17.100,1
2017-01-31 08:20:17.104,0
2017-01-31 08:21:17.100,0
2017-01-31 08:22:17.101,1
2017-01-31 08:23:17.101,0
2017-01-31 08:24:17.101,0
2017-01-31 08:25:17.100,0
2017-01-31 08:26:17.100,0
2017-01-31 08:27:17.103,0
2017-01-31 08:28:17.104,0
2017-01-31 08:29:17.105,0
2017-01-31 08:30:17.099,0
2017-01-31 08:31:17.101,0
2017-01-31 08:32:17.100,0
2017-01-31 08:33:17.100,0
2017-01-31 08:34:17.101,0
2017-01-31 08:35:17.100,0
2017-01-31 08:36:17.102,0
2017-01-31 08:37:17.102,0
2017-01-31 08:38:17.102,2
2017-01-31 08:39:17.100,0
2017-01-31 08:40:17.104,3
2017-01-31 08:41:17.102,0
2017-01-31 08:42:17.100,0
2017-01-31 08:43:17.101,0
2017-01-31 08:44:17.099,0
2017-01-31 08:45:17.099,0
2017-01-31 08:46:17.103,0
2017-01-31 08:47:17.101,1
2017-01-31 08:48:17.102,1
2017-01-31 08:49:17.101,0
2017-01-31 08:50:17.100,0
2017-01-31 08:51:17.107,0
2017-01-31 08:52:17.100,0
2017-01-31 08:53:17.099,0
2017-01-31 08:54:17.102,0
2017-01-31 08:55:17.104,2
2017-01-31 08:56:17.104,2
2017-01-31 08:57:17.102,1
2017-01-31 08:58:17.103,0
2017-01-31 08:59:17.101,0
2017-01-31 09:00:17.101,0
2017-01-31 09:01:17.101,0
2017-01-31 09:02:17.100,0
2017-01-31 09:03:17.101,0
2017-01-31 09:04:17.104,0
2017-01-31 09:05:17.105,0
2017-01-31 09:06:17.101,0
2017-01-31 09:07:17.104,0
2017-01-31 09:08:17.105,0
2017-01-31 09:09:17.101,1
2017-01-31 09:10:17.103,0
2017-01-31 09:11:17.102,0
2017-01-31 09:12:17.100,0
2017-01-31 09:13:17.100,0
2017-01-31 09:14:17.103,0
2017-01-31 09:15:17.103,0
2017-01-31 09:16:17.103,0
2017-01-31 09:17:17.098,0
2017-01-31 09:18:17.099,0
2017-01-31 09:19:17.099,0
2017-01-31 09:20:17.101,0
2017-01-31 09:21:17.104,0
2017-01-31 09:22:17.104,0
2017-01-31 09:23:17.100,0
2017-01-31 09:24:17.100,0
2017-01-31 09:25:17.100,0
2017-01-31 09:26:17.101,0
2017-01-31 09:27:17.104,0
2017-01-31 09:28:17.100,0
2017-01-31 09:29:17.099,0
2017-01-31 09:30:17.099,0
2017-01-31 09:31:17.102,0
2017-01-31 09:32:17.100,0
2017-01-31 09:33:17.105,1
2017-01-31 09:34:17.106,0
2017-01-31 09:35:17.102,1
2017-01-31 09:36:17.103,0
2017-01-31 09:37:17.100,0
2017-01-31 09:38:17.102,0
2017-01-31 09:39:17.101,0
2017-01-31 09:40:17.103,0
2017-01-31 09:41:17.101,0
2017-01-31 09:42:17.099,0
2017-01-31 09:43:17.102,0
2017-01-31 09:44:17.103,0
2017-01-31 09:45:17.104,0
2017-01-31 09:46:17.100,0
2017-01-31 09:47:17.100,0
2017-01-31 09:48:17.100,0
2017-01-31 09:49:17.104,3
2017-01-31 09:50:17.103,0
2017-01-31 09:51:17.102,1
2017-01-31 09:52:17.099,0
2017-01-31 09:53:17.102,0
2017-01-31 09:54:17.103,0
2017-01-31 09:55:17.134,0
2017-01-31 09:56:17.101,0
2017-01-31 09:57:17.102,0
2017-01-31 09:58:17.101,0
2017-01-31 09:59:17.103,0
2017-01-31 10:00:17.101,0
2017-01-31 10:01:17.100,0
2017-01-31 10:02:17.104,0
2017-01-31 10:03:17.101,0
2017-01-31 10:04:17.100,0
2017-01-31 10:05:17.105,0
2017-01-31 10:06:17.101,0
2017-01-31 10:07:17.098,0
2017-01-31 10:08:17.101,0
2017-01-31 10:09:17.099,0
2017-01-31 10:10:17.102,0
2017-01-31 10:11:17.100,0
2017-01-31 10:12:17.105,0
2017-01-31 10:13:17.105,0
2017-01-31 10:14:17.102,0
2017-01-31 10:15:17.100,0
2017-01-31 10:16:17.098,2
2017-01-31 10:17:17.098,0
2017-01-31 10:18:17.098,0
2017-01-31 10:19:17.103,0
2017-01-31 10:20:17.102,0
2017-01-31 10:21:17.105,0
2017-01-31 10:22:17.100,0
2017-01-31 10:23:17.098,0
2017-01-31 10:24:17.101,0
2017-01-31 10:25:17.098,0
2017-01-31 10:26:17.104,0
2017-01-31 10:27:17.105,0
2017-01-31 10:28:17.098,0
2017-01-31 10:29:17.105,0
2017-01-31 10:30:17.101,0
2017-01-31 10:31:17.100,0
2017-01-31 10:32:17.101,0
2017-01-31 10:33:17.099,0
2017-01-31 10:34:17.100,1
2017-01-31 10:35:17.099,0
2017-01-31 10:36:17.100,0
2017-01-31 10:37:17.100,0
2017-01-31 10:38:17.106,0
2017-01-31 10:39:17.101,0
2017-01-31 10:40:17.098,0
2017-01-31 10:41:17.103,0
2017-01-31 10:42:17.103,0
2017-01-31 10:43:17.103,0
2017-01-31 10:44:17.099,0
2017-01-31 10:45:17.104,0
2017-01-31 10:46:17.099,0
2017-01-31 10:47:17.128,0
2017-01-31 10:48:17.102,0
2017-01-31 10:49:17.104,0
2017-01-31 10:50:17.101,1
2017-01-31 10:51:17.102,0
2017-01-31 10:52:17.099,1
2017-01-31 10:53:17.100,0
2017-01-31 10:54:17.102,0
2017-01-31 10:55:17.102,2
2017-01-31 10:56:17.105,0
2017-01-31 10:57:17.104,0
2017-01-31 10:58:17.102,2
2017-01-31 10:59:17.099,0
2017-01-31 11:00:17.099,0
2017-01-31 11:01:17.104,0
2017-01-31 11:02:17.100,0
2017-01-31 11:03:17.100,2
2017-01-31 11:04:17.099,0
2017-01-31 11:05:17.104,0
2017-01-31 11:06:17.100,0
2017-01-31 11:07:17.102,0
2017-01-31 11:08:17.098,0
2017-01-31 11:09:17.099,0
2017-01-31 11:10:17.105,0
2017-01-31 11:11:17.100,0
2017-01-31 11:12:17.099,1
2017-01-31 11:13:17.100,0
2017-01-31 11:14:17.103,0
2017-01-31 11:15:17.100,2
2017-01-31 11:16:17.104,3
2017-01-31 11:17:17.104,0
2017-01-31 11:18:17.100,0
2017-01-31 11:19:17.102,0
2017-01-31 11:20:17.101,0
2017-01-31 11:21:17.099,0
2017-01-31 11:22:17.102,0
2017-01-31 11:23:17.102,0
2017-01-31 11:24:17.100,0
2017-01-31 11:25:17.101,0
2017-01-31 11:26:17.098,0
2017-01-31 11:27:17.099,3
2017-01-31 11:28:17.102,3
2017-01-31 11:29:17.102,2
2017-01-31 11:30:17.101,0
2017-01-31 11:31:17.097,0
2017-01-31 11:32:17.100,0
2017-01-31 11:33:17.099,0
2017-01-31 11:34:17.100,0
2017-01-31 11:35:17.100,0
2017-01-31 11:36:17.105,0
2017-01-31 11:37:17.104,0
2017-01-31 11:38:17.103,0
2017-01-31 11:39:17.100,0
2017-01-31 11:40:17.098,0
2017-01-31 11:41:17.099,0
2017-01-31 11:42:17.101,0
2017-01-31 11:43:17.097,0
2017-01-31 11:44:17.100,0
2017-01-31 11:45:17.103,0
2017-01-31 11:46:17.099,0
2017-01-31 11:47:17.100,0
2017-01-31 11:48:17.104,0
2017-01-31 11:49:17.099,0
2017-01-31 11:50:17.099,0
2017-01-31 11:51:17.099,0
2017-01-31 11:52:17.097,0
2017-01-31 11:53:17.103,0
2017-01-31 11:54:17.101,2
2017-01-31 11:55:17.099,0
2017-01-31 11:56:17.103,0
2017-01-31 11:57:17.100,0
2017-01-31 11:58:17.103,0
2017-01-31 11:59:17.099,0
2017-01-31 12:00:17.098,0
2017-01-31 12:01:17.098,1
2017-01-31 12:02:17.102,0
2017-01-31 12:03:17.100,0
2017-01-31 12:04:17.104,0
2017-01-31 12:05:17.102,0
2017-01-31 12:06:17.102,0
2017-01-31 12:07:17.103,0
2017-01-31 12:08:17.102,0
2017-01-31 12:09:17.104,0
2017-01-31 12:10:17.098,0
2017-01-31 12:11:17.102,0
2017-01-31 12:12:17.102,0
2017-01-31 12:13:17.103,0
2017-01-31 12:14:17.099,0
2017-01-31 12:15:17.100,1
2017-01-31 12:16:17.105,1
2017-01-31 12:17:17.101,0
2017-01-31 12:18:17.098,2
2017-01-31 12:19:17.101,0
2017-01-31 12:20:17.102,0
2017-01-31 12:21:17.100,0
2017-01-31 12:22:17.101,0
2017-01-31 12:23:17.100,0
2017-01-31 12:24:17.097,0
2017-01-31 12:25:17.099,0
2017-01-31 12:26:17.105,2
2017-01-31 12:27:17.102,0
2017-01-31 12:28:17.101,0
2017-01-31 12:29:17.103,0
2017-01-31 12:30:17.099,0
2017-01-31 12:31:17.099,0
2017-01-31 12:32:17.100,0
2017-01-31 12:33:17.101,0
2017-01-31 12:34:17.100,0
2017-01-31 12:35:17.098,0
2017-01-31 12:36:17.103,0
2017-01-31 12:37:17.098,0
2017-01-31 12:38:17.099,0
2017-01-31 12:39:17.101,0
2017-01-31 12:40:17.099,0
2017-01-31 12:41:17.100,0
2017-01-31 12:42:17.098,0
2017-01-31 12:43:17.102,0
2017-01-31 12:44:17.104,0
2017-01-31 12:45:17.105,0
2017-01-31 12:46:17.099,0
2017-01-31 12:47:17.098,0
2017-01-31 12:48:17.102,0
2017-01-31 12:49:17.104,0
2017-01-31 12:50:17.098,0
2017-01-31 12:51:17.101,0
2017-01-31 12:52:17.105,0
2017-01-31 12:53:17.103,0
2017-01-31 12:54:17.099,0
2017-01-31 12:55:17.102,0
2017-01-31 12:56:17.098,0
2017-01-31 12:57:17.098,0
2017-01-31 12:58:17.100,0
2017-01-31 12:59:17.101,0
2017-01-31 13:00:17.103,2
2017-01-31 13:01:17.099,0
2017-01-31 13:02:17.099,2
2017-01-31 13:03:17.101,0
2017-01-31 13:04:17.098,0
2017-01-31 13:05:17.100,2
2017-01-31 13:06:17.099,0
2017-01-31 13:07:17.099,0
2017-01-31 13:08:17.103,0
2017-01-31 13:09:17.106,1
2017-01-31 13:10:17.105,0
2017-01-31 13:11:17.100,0
2017-01-31 13:12:17.106,0
2017-01-31 13:13:17.099,0
2017-01-31 13:14:17.100,0
2017-01-31 13:15:17.100,2
2017-01-31 13:16:17.098,0
2017-01-31 13:17:17.104,2
2017-01-31 13:18:17.103,0
2017-01-31 13:19:17.106,0
2017-01-31 13:20:17.106,0
2017-01-31 13:21:17.134,2
2017-01-31 13:22:17.100,0
2017-01-31 13:23:17.101,0
2017-01-31 13:24:17.100,0
2017-01-31 13:25:17.106,0
2017-01-31 13:26:17.099,0
2017-01-31 13:27:17.099,0
2017-01-31 13:28:17.100,0
2017-01-31 13:29:17.098,0
2017-01-31 13:30:17.100,0
2017-01-31 13:31:17.099,0
2017-01-31 13:32:17.100,0
2017-01-31 13:33:17.099,0
2017-01-31 13:34:17.099,0
2017-01-31 13:35:17.099,0
2017-01-31 13:36:17.099,0
2017-01-31 13:37:17.099,0
2017-01-31 13:38:17.099,2
2017-01-31 13:39:17.100,0
2017-01-31 13:40:17.099,0
2017-01-31 13:41:17.099,0
2017-01-31 13:42:17.099,0
2017-01-31 13:43:17.099,0
2017-01-31 13:44:17.099,0
2017-01-31 13:45:17.100,0
2017-01-31 13:46:17.102,0
2017-01-31 13:47:17.100,0
2017-01-31 13:48:17.099,0
2017-01-31 13:49:17.099,0
2017-01-31 13:50:17.100,0
2017-01-31 13:51:17.098,0
2017-01-31 13:52:17.103,0
2017-01-31 13:53:17.101,0
2017-01-31 13:54:17.102,0
2017-01-31 13:55:17.101,2
2017-01-31 13:56:17.100,0
2017-01-31 13:57:17.100,0
2017-01-31 13:58:17.101,0
2017-01-31 13:59:17.100,0
2017-01-31 14:00:17.098,0
2017-01-31 14:01:17.100,0
2017-01-31 14:02:17.101,0
2017-01-31 14:03:17.099,0
2017-01-31 14:04:17.100,0
2017-01-31 14:05:17.103,0
2017-01-31 14:06:17.103,0
2017-01-31 14:07:17.103,0
2017-01-31 14:08:17.100,0
2017-01-31 14:09:17.106,0
2017-01-31 14:10:17.099,0
2017-01-31 14:11:17.100,0
2017-01-31 14:12:17.103,0
2017-01-31 14:13:17.104,0
2017-01-31 14:14:17.101,2
2017-01-31 14:15:17.104,0
2017-01-31 14:16:17.103,0
2017-01-31 14:17:17.106,0
2017-01-31 14:18:17.107,1
2017-01-31 14:19:17.101,0
2017-01-31 14:20:17.098,0
2017-01-31 14:21:17.098,0
2017-01-31 14:22:17.101,0
2017-01-31 14:23:17.107,0
2017-01-31 14:24:17.106,0
2017-01-31 14:25:17.102,0
2017-01-31 14:26:17.102,0
2017-01-31 14:27:17.101,0
2017-01-31 14:28:17.099,0
2017-01-31 14:29:17.100,0
2017-01-31 14:30:17.100,0
2017-01-31 14:31:17.103,0
2017-01-31 14:32:17.099,0
2017-01-31 14:33:17.100,0
2017-01-31 14:34:17.100,0
2017-01-31 14:35:17.100,0
2017-01-31 14:36:17.102,0
2017-01-31 14:37:17.102,0
2017-01-31 14:38:17.106,0
2017-01-31 14:39:17.100,0
2017-01-31 14:40:17.102,0
2017-01-31 14:41:17.099,0
2017-01-31 14:42:17.108,0
2017-01-31 14:43:17.105,0
2017-01-31 14:44:17.101,0
2017-01-31 14:45:17.100,0
2017-01-31 14:46:17.104,0
2017-01-31 14:47:17.116,0
2017-01-31 14:48:17.100,0
2017-01-31 14:49:17.099,0
2017-01-31 14:50:17.099,1
2017-01-31 14:51:17.100,0
2017-01-31 14:52:17.103,0
2017-01-31 14:53:17.099,0
2017-01-31 14:54:17.100,0
2017-01-31 14:55:17.100,0
2017-01-31 14:56:17.101,1
2017-01-31 14:57:17.104,0
2017-01-31 14:58:17.102,0
2017-01-31 14:59:17.104,0
2017-01-31 15:00:17.099,0
2017-01-31 15:01:17.099,0
2017-01-31 15:02:17.103,0
2017-01-31 15:03:17.100,0
2017-01-31 15:04:17.101,0
2017-01-31 15:05:17.099,0
2017-01-31 15:06:17.099,0
2017-01-31 15:07:17.099,0
2017-01-31 15:08:17.102,0
2017-01-31 15:09:17.099,0
2017-01-31 15:10:17.102,2
2017-01-31 15:11:17.102,0
2017-01-31 15:12:17.101,1
2017-01-31 15:13:17.105,0
2017-01-31 15:14:17.098,0
2017-01-31 15:15:17.103,0
2017-01-31 15:16:17.103,0
2017-01-31 15:17:17.100,0
2017-01-31 15:18:17.103,3
2017-01-31 15:19:17.103,0
2017-01-31 15:20:17.099,0
2017-01-31 15:21:17.104,0
2017-01-31 15:22:17.105,0
2017-01-31 15:23:17.099,0
2017-01-31 15:24:17.104,2
2017-01-31 15:25:17.099,0
2017-01-31 15:26:17.100,2
2017-01-31 15:27:17.102,0
2017-01-31 15:28:17.100,0
2017-01-31 15:29:17.099,2
2017-01-31 15:30:17.101,0
2017-01-31 15:31:17.099,0
2017-01-31 15:32:17.099,0
2017-01-31 15:33:17.100,0
2017-01-31 15:34:17.100,0
2017-01-31 15:35:17.101,0
2017-01-31 15:36:17.102,0
2017-01-31 15:37:17.100,0
2017-01-31 15:38:17.102,0
2017-01-31 15:39:17.099,0
2017-01-31 15:40:17.101,0
2017-01-31 15:41:17.100,0
2017-01-31 15:42:17.100,0
2017-01-31 15:43:17.105,0
2017-01-31 15:44:17.099,0
2017-01-31 15:45:17.100,0
2017-01-31 15:46:17.100,0
2017-01-31 15:47:17.099,1
2017-01-31 15:48:17.103,0
2017-01-31 15:49:17.099,2
2017-01-31 15:50:17.104,0
2017-01-31 15:51:17.100,0
2017-01-31 15:52:17.099,0
2017-01-31 15:53:17.101,0
2017-01-31 15:54:17.104,0
2017-01-31 15:55:17.142,0
2017-01-31 15:56:17.100,3
2017-01-31 15:57:17.101,4
2017-01-31 15:58:17.099,0
2017-01-31 15:59:17.100,4
2017-01-31 16:00:17.100,4
2017-01-31 16:01:17.099,2
2017-01-31 16:02:17.100,3
2017-01-31 16:03:17.099,0
2017-01-31 16:04:17.101,2
2017-01-31 16:05:17.101,0
2017-01-31 16:06:17.104,3
2017-01-31 16:07:17.099,2
2017-01-31 16:08:17.098,3
2017-01-31 16:09:17.100,0
2017-01-31 16:10:17.099,0
2017-01-31 16:11:17.101,0
2017-01-31 16:12:17.099,0
2017-01-31 16:13:17.099,0
2017-01-31 16:14:17.098,4
2017-01-31 16:15:17.104,4
2017-01-31 16:16:17.099,0
2017-01-31 16:17:17.102,4
2017-01-31 16:18:17.100,0
2017-01-31 16:19:17.099,4
2017-01-31 16:20:17.103,0
2017-01-31 16:21:17.100,0
2017-01-31 16:22:17.102,4
2017-01-31 16:23:17.101,0
2017-01-31 16:24:17.104,4
2017-01-31 16:25:17.100,2
2017-01-31 16:26:17.105,3
2017-01-31 16:27:17.102,3
2017-01-31 16:28:17.099,0
2017-01-31 16:29:17.098,4
2017-01-31 16:30:17.101,0
2017-01-31 16:31:17.098,0
2017-01-31 16:32:17.100,3
2017-01-31 16:33:17.104,2
2017-01-31 16:34:17.099,0
2017-01-31 16:35:17.101,0
2017-01-31 16:36:17.104,0
2017-01-31 16:37:17.100,2
2017-01-31 16:38:17.102,0
2017-01-31 16:39:17.102,3
2017-01-31 16:40:17.104,0
2017-01-31 16:41:17.098,0
2017-01-31 16:42:17.101,0
2017-01-31 16:43:17.102,0
2017-01-31 16:44:17.102,0
2017-01-31 16:45:17.100,0
2017-01-31 16:46:17.101,0
2017-01-31 16:47:17.102,0
2017-01-31 16:48:17.104,0
2017-01-31 16:49:17.099,0
2017-01-31 16:50:17.099,0
2017-01-31 16:51:17.100,1
2017-01-31 16:52:17.104,0
2017-01-31 16:53:17.105,0
2017-01-31 16:54:17.103,2
2017-01-31 16:55:17.102,0
2017-01-31 16:56:17.105,0
2017-01-31 16:57:17.101,0
2017-01-31 16:58:17.104,0
2017-01-31 16:59:17.099,0
2017-01-31 17:00:17.103,0
2017-01-31 17:01:17.102,0
2017-01-31 17:02:17.099,0
2017-01-31 17:03:17.100,0
2017-01-31 17:04:17.105,3
2017-01-31 17:05:17.104,0
2017-01-31 17:06:17.102,0
2017-01-31 17:07:17.103,0
2017-01-31 17:08:17.099,0
2017-01-31 17:09:17.102,0
2017-01-31 17:10:17.101,0
2017-01-31 17:11:17.100,0
2017-01-31 17:12:17.100,0
2017-01-31 17:13:17.102,0
2017-01-31 17:14:17.100,0
2017-01-31 17:15:17.100,0
2017-01-31 17:16:17.100,0
2017-01-31 17:17:17.100,0
2017-01-31 17:18:17.101,0
2017-01-31 17:19:17.103,1
2017-01-31 17:20:17.100,0
2017-01-31 17:21:17.118,0
2017-01-31 17:22:17.099,0
2017-01-31 17:23:17.099,0
2017-01-31 17:24:17.102,14
2017-01-31 17:25:17.102,14
2017-01-31 17:26:17.104,1998
2017-01-31 17:27:17.105,2132
2017-01-31 17:28:17.100,1925
2017-01-31 17:29:17.100,1976
2017-01-31 17:30:17.103,2143
2017-01-31 17:31:17.100,1930
2017-01-31 17:32:17.100,2076
2017-01-31 17:33:17.101,1988
2017-01-31 17:34:17.101,1940
2017-01-31 17:35:17.100,2149
2017-01-31 17:36:17.099,2021
2017-01-31 17:37:17.103,1993
2017-01-31 17:38:17.104,2142
2017-01-31 17:39:17.100,1908
2017-01-31 17:40:17.102,1967
2017-01-31 17:41:17.100,2297
2017-01-31 17:42:17.102,1961
2017-01-31 17:43:17.102,252
2017-01-31 17:44:17.102,24
2017-01-31 17:45:17.100,9
2017-01-31 17:46:17.100,252
2017-01-31 17:47:17.102,194
2017-01-31 17:48:17.100,10
2017-01-31 17:49:17.100,37
2017-01-31 17:50:17.102,20
2017-01-31 17:51:17.100,13
2017-01-31 17:52:17.100,14
2017-01-31 17:53:17.100,9
2017-01-31 17:54:17.098,253
2017-01-31 17:55:17.101,30
2017-01-31 17:56:17.102,10
2017-01-31 17:57:17.098,231
2017-01-31 17:58:17.100,25
2017-01-31 17:59:17.102,23
2017-01-31 18:00:17.100,21
2017-01-31 18:01:17.102,13
2017-01-31 18:02:17.104,224
2017-01-31 18:03:17.098,11
2017-01-31 18:04:17.100,303
2017-01-31 18:05:17.100,197
2017-01-31 18:06:17.099,658
2017-01-31 18:07:17.099,658
2017-01-31 18:08:17.102,671
2017-01-31 18:09:17.102,671
2017-01-31 18:10:17.102,412
2017-01-31 18:11:17.104,409
2017-01-31 18:12:17.102,413
2017-01-31 18:13:17.099,407
2017-01-31 18:14:17.100,655
2017-01-31 18:15:17.100,853
2017-01-31 18:16:17.100,658
2017-01-31 18:17:17.102,669
2017-01-31 18:18:17.100,671
2017-01-31 18:19:17.101,736
2017-01-31 18:20:17.101,695
2017-01-31 18:21:17.101,165
2017-01-31 18:22:17.103,25
2017-01-31 18:23:17.102,27
2017-01-31 18:24:17.102,28
2017-01-31 18:25:17.101,27
2017-01-31 18:26:17.102,25
2017-01-31 18:27:17.102,4
2017-01-31 18:28:17.098,0
2017-01-31 18:29:17.099,4
2017-01-31 18:30:17.100,0
2017-01-31 18:31:17.100,5
2017-01-31 18:32:17.100,6
2017-01-31 18:33:17.100,6
2017-01-31 18:34:17.101,7
2017-01-31 18:35:17.101,7
2017-01-31 18:36:17.105,7
2017-01-31 18:37:17.105,6
2017-01-31 18:38:17.099,2
2017-01-31 18:39:17.104,0
2017-01-31 18:40:17.106,2
2017-01-31 18:41:17.106,0
2017-01-31 18:42:17.104,0
2017-01-31 18:43:17.101,0
2017-01-31 18:44:17.100,0
2017-01-31 18:45:17.101,0
2017-01-31 18:46:17.100,0
2017-01-31 18:47:17.103,0
2017-01-31 18:48:17.099,1
2017-01-31 18:49:17.100,0
2017-01-31 18:50:17.101,0
2017-01-31 18:51:17.099,2
2017-01-31 18:52:17.103,0
2017-01-31 18:53:17.098,0
2017-01-31 18:54:17.099,0
2017-01-31 18:55:17.105,0
