date and time,Technique-Meteo_Elevation soleil_Sun position Elevation[rad]
2017-01-30 12:08:17.398,27.3
2017-01-30 12:09:17.298,27.3
2017-01-30 12:10:17.287,27.3
2017-01-30 12:11:17.304,27.3
2017-01-30 12:12:17.286,27.3
2017-01-30 12:13:17.317,27.3
2017-01-30 12:14:17.289,27.2
2017-01-30 12:15:17.319,27.2
2017-01-30 12:16:17.291,27.2
2017-01-30 12:17:17.292,27.2
2017-01-30 12:18:17.295,27.2
2017-01-30 12:19:17.300,27.1
2017-01-30 12:20:17.289,27.1
2017-01-30 12:21:17.287,27.1
2017-01-30 12:22:17.280,27.1
2017-01-30 12:23:17.272,27.1
2017-01-30 12:24:17.283,27.0
2017-01-30 12:25:17.275,27.0
2017-01-30 12:26:17.275,27.0
2017-01-30 12:27:17.281,26.9
2017-01-30 12:28:17.277,26.9
2017-01-30 12:29:17.269,26.9
2017-01-30 12:30:17.275,26.9
2017-01-30 12:31:17.274,26.8
2017-01-30 12:32:17.311,26.8
2017-01-30 12:33:17.276,26.8
2017-01-30 12:34:17.288,26.7
2017-01-30 12:35:17.281,26.7
2017-01-30 12:36:17.282,26.7
2017-01-30 12:37:17.277,26.6
2017-01-30 12:38:17.274,26.6
2017-01-30 12:39:17.279,26.6
2017-01-30 12:40:17.281,26.5
2017-01-30 12:41:17.274,26.5
2017-01-30 12:42:17.275,26.4
2017-01-30 12:43:17.286,26.4
2017-01-30 12:44:17.286,26.4
2017-01-30 12:45:17.318,26.3
2017-01-30 12:46:17.284,26.3
2017-01-30 12:47:17.271,26.2
2017-01-30 12:48:17.284,26.2
2017-01-30 12:49:17.293,26.2
2017-01-30 12:50:17.286,26.1
2017-01-30 12:51:17.283,26.1
2017-01-30 12:52:17.280,26.0
2017-01-30 12:53:17.275,26.0
2017-01-30 12:54:17.273,25.9
2017-01-30 12:55:17.280,25.9
2017-01-30 12:56:17.294,25.8
2017-01-30 12:57:17.281,25.8
2017-01-30 12:58:17.272,25.7
2017-01-30 12:59:17.277,25.7
2017-01-30 13:00:17.278,25.6
2017-01-30 13:01:17.273,25.6
2017-01-30 13:02:17.283,25.5
2017-01-30 13:03:17.275,25.4
2017-01-30 13:04:17.294,25.4
2017-01-30 13:05:17.283,25.3
2017-01-30 13:06:17.286,25.3
2017-01-30 13:07:17.277,25.2
2017-01-30 13:08:17.282,25.1
2017-01-30 13:09:17.278,25.1
2017-01-30 13:10:17.277,25.0
2017-01-30 13:11:17.277,25.0
2017-01-30 13:12:17.271,24.9
2017-01-30 13:13:17.269,24.8
2017-01-30 13:14:17.272,24.8
2017-01-30 13:15:17.270,24.7
2017-01-30 13:16:17.272,24.6
2017-01-30 13:17:17.281,24.6
2017-01-30 13:18:17.266,24.5
2017-01-30 13:19:17.281,24.4
2017-01-30 13:20:17.283,24.4
2017-01-30 13:21:17.278,24.3
2017-01-30 13:22:17.281,24.2
2017-01-30 13:23:17.275,24.2
2017-01-30 13:24:17.276,24.1
2017-01-30 13:25:17.272,24.0
2017-01-30 13:26:17.277,24.0
2017-01-30 13:27:17.284,23.9
2017-01-30 13:28:17.279,23.8
2017-01-30 13:29:17.265,23.7
2017-01-30 13:30:17.275,23.7
2017-01-30 13:31:17.270,23.6
2017-01-30 13:32:17.278,23.5
2017-01-30 13:33:17.278,23.4
2017-01-30 13:34:17.293,23.4
2017-01-30 13:35:17.283,23.3
2017-01-30 13:36:17.291,23.2
2017-01-30 13:37:17.285,23.1
2017-01-30 13:38:17.284,23.0
2017-01-30 13:39:17.275,23.0
2017-01-30 13:40:17.271,22.9
2017-01-30 13:41:17.275,22.8
2017-01-30 13:42:17.277,22.7
2017-01-30 13:43:17.282,22.6
2017-01-30 13:44:17.286,22.5
2017-01-30 13:45:17.282,22.4
2017-01-30 13:46:17.276,22.3
2017-01-30 13:47:17.267,22.3
2017-01-30 13:48:17.273,22.2
2017-01-30 13:49:17.268,22.1
2017-01-30 13:50:17.277,22.0
2017-01-30 13:51:17.291,21.9
2017-01-30 13:52:17.274,21.8
2017-01-30 13:53:17.275,21.7
2017-01-30 13:54:17.266,21.6
2017-01-30 13:55:17.272,21.6
2017-01-30 13:56:17.266,21.5
2017-01-30 13:57:17.270,21.4
2017-01-30 13:58:17.274,21.3
2017-01-30 13:59:17.294,21.2
2017-01-30 14:00:17.285,21.1
2017-01-30 14:01:17.276,21.0
2017-01-30 14:02:17.278,20.9
2017-01-30 14:03:17.269,20.8
2017-01-30 14:04:17.268,20.7
2017-01-30 14:05:17.282,20.6
2017-01-30 14:06:17.270,20.5
2017-01-30 14:07:17.270,20.4
2017-01-30 14:08:17.270,20.3
2017-01-30 14:09:17.275,20.2
2017-01-30 14:10:17.283,20.1
2017-01-30 14:11:17.278,20.0
2017-01-30 14:12:17.272,19.9
2017-01-30 14:13:17.281,19.8
2017-01-30 14:14:17.280,19.7
2017-01-30 14:15:17.274,19.6
2017-01-30 14:16:17.276,19.5
2017-01-30 14:17:17.285,19.4
2017-01-30 14:18:17.273,19.3
2017-01-30 14:19:17.274,19.1
2017-01-30 14:20:17.281,19.1
2017-01-30 14:21:17.273,19.0
2017-01-30 14:22:17.282,18.8
2017-01-30 14:23:17.281,18.7
2017-01-30 14:24:17.272,18.6
2017-01-30 14:25:17.270,18.5
2017-01-30 14:26:17.273,18.4
2017-01-30 14:27:17.268,18.3
2017-01-30 14:28:17.274,18.2
2017-01-30 14:29:17.278,18.1
2017-01-30 14:30:17.290,18.0
2017-01-30 14:31:17.269,17.8
2017-01-30 14:32:17.283,17.7
2017-01-30 14:33:17.281,17.6
2017-01-30 14:34:17.282,17.5
2017-01-30 14:35:17.281,17.4
2017-01-30 14:36:17.273,17.2
2017-01-30 14:37:17.274,17.2
2017-01-30 14:38:17.285,17.0
2017-01-30 14:39:17.281,16.9
2017-01-30 14:40:17.271,16.8
2017-01-30 14:41:17.284,16.7
2017-01-30 14:42:17.276,16.6
2017-01-30 14:43:17.281,16.4
2017-01-30 14:44:17.270,16.3
2017-01-30 14:45:17.271,16.2
2017-01-30 14:46:17.276,16.1
2017-01-30 14:47:17.269,16.0
2017-01-30 14:48:17.277,15.8
2017-01-30 14:49:17.277,15.8
2017-01-30 14:50:17.277,15.6
2017-01-30 14:51:17.282,15.5
2017-01-30 14:52:17.287,15.3
2017-01-30 14:53:17.293,15.3
2017-01-30 14:54:17.271,15.1
2017-01-30 14:55:17.282,15.0
2017-01-30 14:56:17.270,14.8
2017-01-30 14:57:17.275,14.7
2017-01-30 14:58:17.281,14.6
2017-01-30 14:59:17.285,14.5
2017-01-30 15:00:17.273,14.5
2017-01-30 15:01:17.274,14.4
2017-01-30 15:02:17.285,14.3
2017-01-30 15:03:17.272,14.2
2017-01-30 15:04:17.292,14.0
2017-01-30 15:05:17.282,13.9
2017-01-30 15:06:17.276,13.8
2017-01-30 15:07:17.271,13.7
2017-01-30 15:08:17.281,13.5
2017-01-30 15:09:17.282,13.4
2017-01-30 15:10:17.281,13.3
2017-01-30 15:11:17.277,13.1
2017-01-30 15:12:17.276,13.0
2017-01-30 15:13:17.272,12.8
2017-01-30 15:14:17.284,12.8
2017-01-30 15:15:17.287,12.6
2017-01-30 15:16:17.282,12.5
2017-01-30 15:17:17.280,12.3
2017-01-30 15:18:17.275,12.2
2017-01-30 15:19:17.275,12.1
2017-01-30 15:20:17.272,11.9
2017-01-30 15:21:17.288,11.8
2017-01-30 15:22:17.276,11.6
2017-01-30 15:23:17.273,11.5
2017-01-30 15:24:17.285,11.4
2017-01-30 15:25:17.286,11.2
2017-01-30 15:26:17.293,11.1
2017-01-30 15:27:17.281,11.0
2017-01-30 15:28:17.279,10.8
2017-01-30 15:29:17.284,10.7
2017-01-30 15:30:17.270,10.5
2017-01-30 15:31:17.280,10.4
2017-01-30 15:32:17.272,10.3
2017-01-30 15:33:17.301,10.1
2017-01-30 15:34:17.272,10.0
2017-01-30 15:35:17.272,9.9
2017-01-30 15:36:17.277,9.7
2017-01-30 15:37:17.263,9.6
2017-01-30 15:38:17.268,9.4
2017-01-30 15:39:17.271,9.3
2017-01-30 15:40:17.275,9.1
2017-01-30 15:41:17.284,9.0
2017-01-30 15:42:17.279,8.8
2017-01-30 15:43:17.278,8.7
2017-01-30 15:44:17.272,8.6
2017-01-30 15:45:17.284,8.4
2017-01-30 15:46:17.272,8.2
2017-01-30 15:47:17.291,8.2
2017-01-30 15:48:17.271,8.0
2017-01-30 15:49:17.282,7.8
2017-01-30 15:50:17.276,7.7
2017-01-30 15:51:17.271,7.5
2017-01-30 15:52:17.270,7.4
2017-01-30 15:53:17.279,7.2
2017-01-30 15:54:17.280,7.1
2017-01-30 15:55:17.268,6.9
2017-01-30 15:56:17.273,6.8
2017-01-30 15:57:17.282,6.7
2017-01-30 15:58:17.269,6.5
2017-01-30 15:59:17.282,6.3
2017-01-30 16:00:17.274,6.2
2017-01-30 16:01:17.281,6.1
2017-01-30 16:02:17.275,5.9
2017-01-30 16:03:17.279,5.7
2017-01-30 16:04:17.272,5.6
2017-01-30 16:05:17.277,5.5
2017-01-30 16:06:17.278,5.3
2017-01-30 16:07:17.281,5.1
2017-01-30 16:08:17.276,5.0
2017-01-30 16:09:17.282,4.9
2017-01-30 16:10:17.270,4.7
2017-01-30 16:11:17.282,4.5
2017-01-30 16:12:17.271,4.4
2017-01-30 16:13:17.272,4.3
2017-01-30 16:14:17.283,4.1
2017-01-30 16:15:17.276,3.9
2017-01-30 16:16:17.283,3.7
2017-01-30 16:17:17.278,3.6
2017-01-30 16:18:17.282,3.5
2017-01-30 16:19:17.293,3.3
2017-01-30 16:20:17.281,3.1
2017-01-30 16:21:17.272,3.0
2017-01-30 16:22:17.275,2.9
2017-01-30 16:23:17.280,2.7
2017-01-30 16:24:17.287,2.5
2017-01-30 16:25:17.271,2.4
2017-01-30 16:26:17.282,2.2
2017-01-30 16:27:17.282,2.0
2017-01-30 16:28:17.283,1.9
2017-01-30 16:29:17.270,1.8
2017-01-30 16:30:17.283,1.6
2017-01-30 16:31:17.271,1.4
2017-01-30 16:32:17.271,1.2
2017-01-30 16:33:17.273,1.2
2017-01-30 16:34:17.278,1.0
2017-01-30 16:35:17.275,0.8
2017-01-30 16:36:17.288,0.6
2017-01-30 16:37:17.273,0.5
2017-01-30 16:38:17.269,0.3
2017-01-30 16:39:17.277,0.2
2017-01-30 16:40:17.282,0.0
2017-01-30 16:41:17.272,-0.1
2017-01-30 16:42:17.281,-0.2
2017-01-30 16:43:17.283,-0.4
2017-01-30 16:44:17.282,-0.6
2017-01-30 16:45:17.269,-0.8
2017-01-30 16:46:17.270,-0.8
2017-01-30 16:47:17.280,-1.0
2017-01-30 16:48:17.281,-1.2
2017-01-30 16:49:17.270,-1.4
2017-01-30 16:50:17.273,-1.5
2017-01-30 16:51:17.275,-1.7
2017-01-30 16:52:17.280,-1.9
2017-01-30 16:53:17.275,-2.0
2017-01-30 16:54:17.275,-2.1
2017-01-30 16:55:17.271,-2.3
2017-01-30 16:56:17.278,-2.5
2017-01-30 16:57:17.282,-2.7
2017-01-30 16:58:17.269,-2.8
2017-01-30 16:59:17.270,-3.0
2017-01-30 17:00:17.276,-3.2
2017-01-30 17:01:17.283,-3.4
2017-01-30 17:02:17.297,-3.4
2017-01-30 17:03:17.279,-3.6
2017-01-30 17:04:17.271,-3.8
2017-01-30 17:05:17.272,-4.0
2017-01-30 17:06:17.266,-4.1
2017-01-30 17:07:17.285,-4.3
2017-01-30 17:08:17.279,-4.5
2017-01-30 17:09:17.283,-4.7
2017-01-30 17:10:17.283,-4.9
2017-01-30 17:11:17.272,-5.0
2017-01-30 17:12:17.277,-5.1
2017-01-30 17:13:17.293,-5.3
2017-01-30 17:14:17.274,-5.5
2017-01-30 17:15:17.272,-5.6
2017-01-30 17:16:17.274,-5.8
2017-01-30 17:17:17.281,-6.0
2017-01-30 17:18:17.288,-6.2
2017-01-30 17:19:17.278,-6.3
2017-01-30 17:20:17.283,-6.5
2017-01-30 17:21:17.281,-6.7
2017-01-30 17:22:17.276,-6.9
2017-01-30 17:23:17.279,-7.0
2017-01-30 17:24:17.274,-7.2
2017-01-30 17:25:17.279,-7.3
2017-01-30 17:26:17.276,-7.5
2017-01-30 17:27:17.281,-7.6
2017-01-30 17:28:17.277,-7.8
2017-01-30 17:29:17.275,-8.0
2017-01-30 17:30:17.272,-8.2
2017-01-30 17:31:17.287,-8.3
2017-01-30 17:32:17.277,-8.5
2017-01-30 17:33:17.268,-8.7
2017-01-30 17:34:17.291,-8.9
2017-01-30 17:35:17.280,-9.1
2017-01-30 17:36:17.287,-9.2
2017-01-30 17:37:17.273,-9.4
2017-01-30 17:38:17.272,-9.6
2017-01-30 17:39:17.269,-9.8
2017-01-30 17:40:17.283,-9.9
2017-01-30 17:41:17.279,-10.1
2017-01-30 17:42:17.280,-10.3
2017-01-30 17:43:17.286,-10.4
2017-01-30 17:44:17.279,-10.5
2017-01-30 17:45:17.275,-10.7
2017-01-30 17:46:17.272,-10.9
2017-01-30 17:47:17.276,-11.1
2017-01-30 17:48:17.275,-11.2
2017-01-30 17:49:17.271,-11.4
2017-01-30 17:50:17.272,-11.6
2017-01-30 17:51:17.264,-11.8
2017-01-30 17:52:17.278,-11.9
2017-01-30 17:53:17.277,-12.1
2017-01-30 17:54:17.285,-12.3
2017-01-30 17:55:17.272,-12.5
2017-01-30 17:56:17.272,-12.6
2017-01-30 17:57:17.270,-12.8
2017-01-30 17:58:17.286,-13.0
2017-01-30 17:59:17.280,-13.2
2017-01-30 18:00:17.278,-13.3
2017-01-30 18:01:17.283,-13.5
2017-01-30 18:02:17.278,-13.7
2017-01-30 18:03:17.294,-13.9
2017-01-30 18:04:17.282,-14.1
2017-01-30 18:05:17.275,-14.2
2017-01-30 18:06:17.271,-14.4
2017-01-30 18:07:17.279,-14.6
2017-01-30 18:08:17.274,-14.8
2017-01-30 18:09:17.284,-14.9
2017-01-30 18:10:17.272,-15.1
2017-01-30 18:11:17.281,-15.3
2017-01-30 18:12:17.282,-15.5
2017-01-30 18:13:17.275,-15.6
2017-01-30 18:14:17.283,-15.8
2017-01-30 18:15:17.278,-16.0
2017-01-30 18:16:17.281,-16.2
2017-01-30 18:17:17.275,-16.3
2017-01-30 18:18:17.271,-16.5
2017-01-30 18:19:17.273,-16.7
2017-01-30 18:20:17.282,-16.9
2017-01-30 18:21:17.274,-17.0
2017-01-30 18:22:17.281,-17.2
2017-01-30 18:23:17.270,-17.4
2017-01-30 18:24:17.270,-17.6
2017-01-30 18:25:17.272,-17.7
2017-01-30 18:26:17.291,-17.9
2017-01-30 18:27:17.275,-18.1
2017-01-30 18:28:17.268,-18.3
2017-01-30 18:29:17.283,-18.5
2017-01-30 18:30:17.286,-18.6
2017-01-30 18:31:17.278,-18.8
2017-01-30 18:32:17.291,-19.0
2017-01-30 18:33:17.278,-19.2
2017-01-30 18:34:17.279,-19.3
2017-01-30 18:35:17.266,-19.5
2017-01-30 18:36:17.278,-19.7
2017-01-30 18:37:17.283,-19.9
2017-01-30 18:38:17.278,-20.0
2017-01-30 18:39:17.267,-20.2
2017-01-30 18:40:17.283,-20.4
2017-01-30 18:41:17.286,-20.6
2017-01-30 18:42:17.270,-20.7
2017-01-30 18:43:17.278,-20.9
2017-01-30 18:44:17.285,-21.1
2017-01-30 18:45:17.284,-21.3
2017-01-30 18:46:17.271,-21.4
2017-01-30 18:47:17.284,-21.6
2017-01-30 18:48:17.282,-21.8
2017-01-30 18:49:17.287,-22.0
2017-01-30 18:50:17.292,-22.1
2017-01-30 18:51:17.273,-22.3
2017-01-30 18:52:17.283,-22.5
2017-01-30 18:53:17.279,-22.7
2017-01-30 18:54:17.273,-22.9
2017-01-30 18:55:17.265,-23.0
2017-01-30 18:56:17.280,-23.2
2017-01-30 18:57:17.272,-23.4
2017-01-30 18:58:17.284,-23.6
2017-01-30 18:59:17.277,-23.7
2017-01-30 19:00:17.271,-23.9
2017-01-30 19:01:17.279,-24.1
2017-01-30 19:02:17.285,-24.3
2017-01-30 19:03:17.274,-24.4
2017-01-30 19:04:17.283,-24.6
2017-01-30 19:05:17.274,-24.8
2017-01-30 19:06:17.277,-25.0
2017-01-30 19:07:17.273,-25.1
2017-01-30 19:08:17.273,-25.3
2017-01-30 19:09:17.269,-25.5
2017-01-30 19:10:17.282,-25.7
2017-01-30 19:11:17.285,-25.8
2017-01-30 19:12:17.276,-26.0
2017-01-30 19:13:17.272,-26.2
2017-01-30 19:14:17.285,-26.4
2017-01-30 19:15:17.280,-26.5
2017-01-30 19:16:17.282,-26.7
2017-01-30 19:17:17.274,-26.9
2017-01-30 19:18:17.274,-27.1
2017-01-30 19:19:17.276,-27.2
2017-01-30 19:20:17.304,-27.4
2017-01-30 19:21:17.286,-27.6
2017-01-30 19:22:17.276,-27.8
2017-01-30 19:23:17.274,-28.0
2017-01-30 19:24:17.266,-28.1
2017-01-30 19:25:17.278,-28.3
2017-01-30 19:26:17.285,-28.5
2017-01-30 19:27:17.274,-28.7
2017-01-30 19:28:17.276,-28.8
2017-01-30 19:29:17.296,-29.0
2017-01-30 19:30:17.281,-29.2
2017-01-30 19:31:17.277,-29.4
2017-01-30 19:32:17.274,-29.5
2017-01-30 19:33:17.281,-29.7
2017-01-30 19:34:17.278,-29.9
2017-01-30 19:35:17.283,-30.1
2017-01-30 19:36:17.284,-30.2
2017-01-30 19:37:17.283,-30.4
2017-01-30 19:38:17.276,-30.6
2017-01-30 19:39:17.286,-30.8
2017-01-30 19:40:17.275,-30.9
2017-01-30 19:41:17.273,-31.1
2017-01-30 19:42:17.281,-31.3
2017-01-30 19:43:17.275,-31.5
2017-01-30 19:44:17.276,-31.6
2017-01-30 19:45:17.275,-31.8
2017-01-30 19:46:17.280,-32.0
2017-01-30 19:47:17.272,-32.2
2017-01-30 19:48:17.282,-32.4
2017-01-30 19:49:17.293,-32.5
2017-01-30 19:50:17.267,-32.7
2017-01-30 19:51:17.271,-32.9
2017-01-30 19:52:17.272,-33.1
2017-01-30 19:53:17.280,-33.2
2017-01-30 19:54:17.270,-33.4
2017-01-30 19:55:17.273,-33.6
2017-01-30 19:56:17.272,-33.8
2017-01-30 19:57:17.273,-33.9
2017-01-30 19:58:17.275,-34.1
2017-01-30 19:59:17.275,-34.3
2017-01-30 20:00:17.271,-34.5
2017-01-30 20:01:17.276,-34.6
2017-01-30 20:02:17.275,-34.8
2017-01-30 20:03:17.277,-35.0
2017-01-30 20:04:17.273,-35.2
2017-01-30 20:05:17.266,-35.3
2017-01-30 20:06:17.272,-35.5
2017-01-30 20:07:17.270,-35.7
2017-01-30 20:08:17.269,-35.9
2017-01-30 20:09:17.273,-36.0
2017-01-30 20:10:17.280,-36.2
2017-01-30 20:11:17.272,-36.4
2017-01-30 20:12:17.269,-36.6
2017-01-30 20:13:17.278,-36.7
2017-01-30 20:14:17.270,-36.9
2017-01-30 20:15:17.275,-37.1
2017-01-30 20:16:17.283,-37.3
2017-01-30 20:17:17.279,-37.5
2017-01-30 20:18:17.278,-37.6
2017-01-30 20:19:17.271,-37.8
2017-01-30 20:20:17.275,-38.0
2017-01-30 20:21:17.266,-38.2
2017-01-30 20:22:17.271,-38.3
2017-01-30 20:23:17.274,-38.5
2017-01-30 20:24:17.277,-38.7
2017-01-30 20:25:17.291,-38.9
2017-01-30 20:26:17.264,-38.9
2017-01-30 20:27:17.272,-39.1
2017-01-30 20:28:17.270,-39.3
2017-01-30 20:29:17.267,-39.5
2017-01-30 20:30:17.271,-39.6
2017-01-30 20:31:17.279,-39.8
2017-01-30 20:32:17.275,-40.0
2017-01-30 20:33:17.275,-40.2
2017-01-30 20:34:17.287,-40.3
2017-01-30 20:35:17.290,-40.5
2017-01-30 20:36:17.269,-40.7
2017-01-30 20:37:17.268,-40.9
2017-01-30 20:38:17.271,-41.0
2017-01-30 20:39:17.274,-41.2
2017-01-30 20:40:17.287,-41.4
2017-01-30 20:41:17.278,-41.5
2017-01-30 20:42:17.290,-41.7
2017-01-30 20:43:17.282,-41.8
2017-01-30 20:44:17.279,-42.0
2017-01-30 20:45:17.271,-42.2
2017-01-30 20:46:17.268,-42.4
2017-01-30 20:47:17.281,-42.5
2017-01-30 20:48:17.284,-42.7
2017-01-30 20:49:17.279,-42.9
2017-01-30 20:50:17.271,-43.1
2017-01-30 20:51:17.272,-43.2
2017-01-30 20:52:17.295,-43.3
2017-01-30 20:53:17.274,-43.5
2017-01-30 20:54:17.275,-43.7
2017-01-30 20:55:17.273,-43.8
2017-01-30 20:56:17.280,-44.0
2017-01-30 20:57:17.285,-44.2
2017-01-30 20:58:17.288,-44.4
2017-01-30 20:59:17.283,-44.5
2017-01-30 21:00:17.270,-44.7
2017-01-30 21:01:17.281,-44.6
2017-01-30 21:02:17.274,-44.8
2017-01-30 21:03:17.271,-44.9
2017-01-30 21:04:17.274,-45.1
2017-01-30 21:05:17.280,-45.3
2017-01-30 21:06:17.273,-45.5
2017-01-30 21:07:17.274,-45.6
2017-01-30 21:08:17.272,-45.7
2017-01-30 21:09:17.275,-45.9
2017-01-30 21:10:17.270,-46.1
2017-01-30 21:11:17.278,-46.3
2017-01-30 21:12:17.281,-46.4
2017-01-30 21:13:17.271,-46.5
2017-01-30 21:14:17.274,-46.7
2017-01-30 21:15:17.271,-46.9
2017-01-30 21:16:17.274,-47.0
2017-01-30 21:17:17.282,-47.2
2017-01-30 21:18:17.273,-47.4
2017-01-30 21:19:17.273,-47.5
2017-01-30 21:20:17.295,-47.6
2017-01-30 21:21:17.279,-47.8
2017-01-30 21:22:17.278,-48.0
2017-01-30 21:23:17.273,-48.2
2017-01-30 21:24:17.273,-48.2
2017-01-30 21:25:17.274,-48.4
2017-01-30 21:26:17.275,-48.6
2017-01-30 21:27:17.272,-48.8
2017-01-30 21:28:17.279,-48.9
2017-01-30 21:29:17.275,-49.0
2017-01-30 21:30:17.281,-49.2
2017-01-30 21:31:17.272,-49.4
2017-01-30 21:32:17.270,-49.5
2017-01-30 21:33:17.270,-49.6
2017-01-30 21:34:17.275,-49.8
2017-01-30 21:35:17.283,-50.0
2017-01-30 21:36:17.270,-50.1
2017-01-30 21:37:17.282,-50.2
2017-01-30 21:38:17.281,-50.4
2017-01-30 21:39:17.263,-50.6
2017-01-30 21:40:17.269,-50.7
2017-01-30 21:41:17.280,-50.8
2017-01-30 21:42:17.285,-51.0
2017-01-30 21:43:17.288,-51.1
2017-01-30 21:44:17.282,-51.3
2017-01-30 21:45:17.270,-51.4
2017-01-30 21:46:17.279,-51.6
2017-01-30 21:47:17.269,-51.7
2017-01-30 21:48:17.263,-51.9
2017-01-30 21:49:17.282,-52.0
2017-01-30 21:50:17.273,-52.1
2017-01-30 21:51:17.277,-52.3
2017-01-30 21:52:17.273,-52.5
2017-01-30 21:53:17.276,-52.5
2017-01-30 21:54:17.281,-52.7
2017-01-30 21:55:17.285,-52.8
2017-01-30 21:56:17.269,-53.0
2017-01-30 21:57:17.281,-53.1
2017-01-30 21:58:17.275,-53.2
2017-01-30 21:59:17.273,-53.4
2017-01-30 22:00:17.279,-53.5
2017-01-30 22:01:17.273,-53.7
2017-01-30 22:02:17.270,-53.8
2017-01-30 22:03:17.272,-53.9
2017-01-30 22:04:17.284,-54.1
2017-01-30 22:05:17.281,-54.2
2017-01-30 22:06:17.274,-54.3
2017-01-30 22:07:17.275,-54.5
2017-01-30 22:08:17.279,-54.6
2017-01-30 22:09:17.264,-54.8
2017-01-30 22:10:17.281,-54.8
2017-01-30 22:11:17.282,-55.0
2017-01-30 22:12:17.315,-55.1
2017-01-30 22:13:17.272,-55.3
2017-01-30 22:14:17.269,-55.3
2017-01-30 22:15:17.284,-55.5
2017-01-30 22:16:17.280,-55.6
2017-01-30 22:17:17.277,-55.8
2017-01-30 22:18:17.277,-55.8
2017-01-30 22:19:17.276,-56.0
2017-01-30 22:20:17.275,-56.1
2017-01-30 22:21:17.273,-56.2
2017-01-30 22:22:17.285,-56.3
2017-01-30 22:23:17.284,-56.4
2017-01-30 22:24:17.274,-56.6
2017-01-30 22:25:17.274,-56.7
2017-01-30 22:26:17.268,-56.8
2017-01-30 22:27:17.283,-56.9
2017-01-30 22:28:17.283,-57.0
2017-01-30 22:29:17.285,-57.2
2017-01-30 22:30:17.271,-57.3
2017-01-30 22:31:17.269,-57.4
2017-01-30 22:32:17.271,-57.5
2017-01-30 22:33:17.271,-57.6
2017-01-30 22:34:17.269,-57.7
2017-01-30 22:35:17.281,-57.8
2017-01-30 22:36:17.285,-57.9
2017-01-30 22:37:17.284,-58.0
2017-01-30 22:38:17.280,-58.1
2017-01-30 22:39:17.297,-58.2
2017-01-30 22:40:17.273,-58.3
2017-01-30 22:41:17.281,-58.4
2017-01-30 22:42:17.282,-58.6
2017-01-30 22:43:17.283,-58.6
2017-01-30 22:44:17.279,-58.7
2017-01-30 22:45:17.270,-58.8
2017-01-30 22:46:17.278,-58.9
2017-01-30 22:47:17.285,-59.0
2017-01-30 22:48:17.272,-59.1
2017-01-30 22:49:17.275,-59.2
2017-01-30 22:50:17.274,-59.3
2017-01-30 22:51:17.276,-59.4
2017-01-30 22:52:17.285,-59.5
2017-01-30 22:53:17.270,-59.6
2017-01-30 22:54:17.273,-59.7
2017-01-30 22:55:17.270,-59.8
2017-01-30 22:56:17.275,-59.8
2017-01-30 22:57:17.273,-59.9
2017-01-30 22:58:17.275,-60.0
2017-01-30 22:59:17.271,-60.1
2017-01-30 23:00:17.279,-60.1
2017-01-30 23:01:17.271,-60.2
2017-01-30 23:02:17.276,-60.3
2017-01-30 23:03:17.274,-60.4
2017-01-30 23:04:17.282,-60.4
2017-01-30 23:05:17.277,-60.5
2017-01-30 23:06:17.275,-60.6
2017-01-30 23:07:17.279,-60.7
2017-01-30 23:08:17.274,-60.7
2017-01-30 23:09:17.272,-60.8
2017-01-30 23:10:17.287,-60.9
2017-01-30 23:11:17.270,-60.9
2017-01-30 23:12:17.271,-61.0
2017-01-30 23:13:17.271,-61.1
2017-01-30 23:14:17.273,-61.1
2017-01-30 23:15:17.270,-61.2
2017-01-30 23:16:17.288,-61.2
2017-01-30 23:17:17.279,-61.3
2017-01-30 23:18:17.277,-61.4
2017-01-30 23:19:17.288,-61.4
2017-01-30 23:20:17.269,-61.5
2017-01-30 23:21:17.271,-61.5
2017-01-30 23:22:17.270,-61.6
2017-01-30 23:23:17.276,-61.6
2017-01-30 23:24:17.279,-61.7
2017-01-30 23:25:17.283,-61.7
2017-01-30 23:26:17.286,-61.7
2017-01-30 23:27:17.283,-61.8
2017-01-30 23:28:17.278,-61.8
2017-01-30 23:29:17.280,-61.9
2017-01-30 23:30:17.274,-61.9
2017-01-30 23:31:17.281,-61.9
2017-01-30 23:32:17.283,-62.0
2017-01-30 23:33:17.272,-62.0
2017-01-30 23:34:17.270,-62.0
2017-01-30 23:35:17.275,-62.1
2017-01-30 23:36:17.293,-62.1
2017-01-30 23:37:17.286,-62.1
2017-01-30 23:38:17.270,-62.1
2017-01-30 23:39:17.281,-62.2
2017-01-30 23:40:17.280,-62.2
2017-01-30 23:41:17.274,-62.2
2017-01-30 23:42:17.282,-62.2
2017-01-30 23:43:17.271,-62.3
2017-01-30 23:44:17.271,-62.3
2017-01-30 23:45:17.269,-62.3
2017-01-30 23:46:17.272,-62.3
2017-01-30 23:47:17.275,-62.3
2017-01-30 23:48:17.286,-62.3
2017-01-30 23:49:17.279,-62.3
2017-01-30 23:50:17.275,-62.3
2017-01-30 23:51:17.278,-62.3
2017-01-30 23:52:17.274,-62.3
2017-01-30 23:53:17.276,-62.3
2017-01-30 23:54:17.277,-62.3
2017-01-30 23:55:17.302,-62.3
2017-01-30 23:56:17.273,-62.3
2017-01-30 23:57:17.276,-62.3
2017-01-30 23:58:17.274,-62.3
2017-01-30 23:59:17.275,-62.3
2017-01-31 00:00:17.284,-62.3
2017-01-31 00:01:17.292,-62.3
2017-01-31 00:02:17.272,-62.3
2017-01-31 00:03:17.277,-62.3
2017-01-31 00:04:17.270,-62.2
2017-01-31 00:05:17.297,-62.2
2017-01-31 00:06:17.286,-62.2
2017-01-31 00:07:17.271,-62.2
2017-01-31 00:08:17.269,-62.2
2017-01-31 00:09:17.281,-62.1
2017-01-31 00:10:17.272,-62.1
2017-01-31 00:11:17.271,-62.1
2017-01-31 00:12:17.271,-62.1
2017-01-31 00:13:17.279,-62.0
2017-01-31 00:14:17.271,-62.0
2017-01-31 00:15:17.273,-62.0
2017-01-31 00:16:17.276,-61.9
2017-01-31 00:17:17.273,-61.9
2017-01-31 00:18:17.482,-61.8
2017-01-31 00:19:17.277,-61.8
2017-01-31 00:20:17.275,-61.8
2017-01-31 00:21:17.291,-61.7
2017-01-31 00:22:17.269,-61.7
2017-01-31 00:23:17.275,-61.7
2017-01-31 00:24:17.268,-61.6
2017-01-31 00:25:17.291,-61.5
2017-01-31 00:26:17.274,-61.5
2017-01-31 00:27:17.276,-61.5
2017-01-31 00:28:17.277,-61.4
2017-01-31 00:29:17.278,-61.3
2017-01-31 00:30:17.291,-61.3
2017-01-31 00:31:17.283,-61.2
2017-01-31 00:32:17.269,-61.2
2017-01-31 00:33:17.277,-61.1
2017-01-31 00:34:17.282,-61.0
2017-01-31 00:35:17.286,-61.0
2017-01-31 00:36:17.278,-60.9
2017-01-31 00:37:17.278,-60.9
2017-01-31 00:38:17.274,-60.8
2017-01-31 00:39:17.274,-60.7
2017-01-31 00:40:17.267,-60.7
2017-01-31 00:41:17.282,-60.6
2017-01-31 00:42:17.275,-60.5
2017-01-31 00:43:17.272,-60.4
2017-01-31 00:44:17.273,-60.4
2017-01-31 00:45:17.278,-60.3
2017-01-31 00:46:17.278,-60.2
2017-01-31 00:47:17.272,-60.1
2017-01-31 00:48:17.277,-60.1
2017-01-31 00:49:17.284,-60.0
2017-01-31 00:50:17.272,-59.9
2017-01-31 00:51:17.277,-59.8
2017-01-31 00:52:17.307,-59.7
2017-01-31 00:53:17.272,-59.6
2017-01-31 00:54:17.270,-59.5
2017-01-31 00:55:17.292,-59.4
2017-01-31 00:56:17.273,-59.4
2017-01-31 00:57:17.277,-59.3
2017-01-31 00:58:17.275,-59.2
2017-01-31 00:59:17.281,-59.1
2017-01-31 01:00:17.285,-59.0
2017-01-31 01:01:17.272,-58.9
2017-01-31 01:02:17.280,-58.8
2017-01-31 01:03:17.268,-58.7
2017-01-31 01:04:17.275,-58.6
2017-01-31 01:05:17.283,-58.5
2017-01-31 01:06:17.283,-58.4
2017-01-31 01:07:17.278,-58.3
2017-01-31 01:08:17.272,-58.2
2017-01-31 01:09:17.270,-58.1
2017-01-31 01:10:17.268,-58.0
2017-01-31 01:11:17.275,-57.9
2017-01-31 01:12:17.288,-57.8
2017-01-31 01:13:17.278,-57.7
2017-01-31 01:14:17.275,-57.6
2017-01-31 01:15:17.276,-57.5
2017-01-31 01:16:17.273,-57.3
2017-01-31 01:17:17.279,-57.3
2017-01-31 01:18:17.278,-57.1
2017-01-31 01:19:17.273,-57.0
2017-01-31 01:20:17.284,-56.9
2017-01-31 01:21:17.273,-56.8
2017-01-31 01:22:17.271,-56.7
2017-01-31 01:23:17.270,-56.6
2017-01-31 01:24:17.275,-56.4
2017-01-31 01:25:17.272,-56.4
2017-01-31 01:26:17.281,-56.2
2017-01-31 01:27:17.268,-56.1
2017-01-31 01:28:17.282,-55.9
2017-01-31 01:29:17.277,-55.9
2017-01-31 01:30:17.275,-55.7
2017-01-31 01:31:17.280,-55.6
2017-01-31 01:32:17.279,-55.5
2017-01-31 01:33:17.278,-55.3
2017-01-31 01:34:17.291,-55.2
2017-01-31 01:35:17.269,-55.1
2017-01-31 01:36:17.272,-54.9
2017-01-31 01:37:17.289,-54.8
2017-01-31 01:38:17.276,-54.7
2017-01-31 01:39:17.284,-54.6
2017-01-31 01:40:17.268,-54.4
2017-01-31 01:41:17.271,-54.3
2017-01-31 01:42:17.287,-54.2
2017-01-31 01:43:17.281,-54.1
2017-01-31 01:44:17.278,-53.9
2017-01-31 01:45:17.271,-53.8
2017-01-31 01:46:17.283,-53.7
2017-01-31 01:47:17.273,-53.5
2017-01-31 01:48:17.283,-53.4
2017-01-31 01:49:17.273,-53.2
2017-01-31 01:50:17.275,-53.1
2017-01-31 01:51:17.270,-53.0
2017-01-31 01:52:17.274,-52.8
2017-01-31 01:53:17.273,-52.7
2017-01-31 01:54:17.278,-52.6
2017-01-31 01:55:17.284,-52.4
2017-01-31 01:56:17.284,-52.3
2017-01-31 01:57:17.283,-52.1
2017-01-31 01:58:17.284,-52.0
2017-01-31 01:59:17.283,-51.9
2017-01-31 02:00:17.266,-51.7
2017-01-31 02:01:17.272,-51.5
2017-01-31 02:02:17.279,-51.4
2017-01-31 02:03:17.277,-51.3
2017-01-31 02:04:17.278,-51.1
2017-01-31 02:05:17.274,-51.0
2017-01-31 02:06:17.272,-50.8
2017-01-31 02:07:17.285,-50.7
2017-01-31 02:08:17.278,-50.5
2017-01-31 02:09:17.283,-50.4
2017-01-31 02:10:17.274,-50.2
2017-01-31 02:11:17.273,-50.1
2017-01-31 02:12:17.278,-49.9
2017-01-31 02:13:17.277,-49.8
2017-01-31 02:14:17.280,-49.6
2017-01-31 02:15:17.279,-49.5
2017-01-31 02:16:17.271,-49.3
2017-01-31 02:17:17.278,-49.2
2017-01-31 02:18:17.271,-49.0
2017-01-31 02:19:17.272,-48.9
2017-01-31 02:20:17.273,-48.7
2017-01-31 02:21:17.286,-48.6
2017-01-31 02:22:17.286,-48.4
2017-01-31 02:23:17.273,-48.3
2017-01-31 02:24:17.271,-48.1
2017-01-31 02:25:17.292,-47.9
2017-01-31 02:26:17.272,-47.8
2017-01-31 02:27:17.286,-47.6
2017-01-31 02:28:17.274,-47.5
2017-01-31 02:29:17.307,-47.3
2017-01-31 02:30:17.272,-47.1
2017-01-31 02:31:17.277,-47.0
2017-01-31 02:32:17.282,-46.9
2017-01-31 02:33:17.272,-46.7
2017-01-31 02:34:17.280,-46.5
2017-01-31 02:35:17.281,-46.3
2017-01-31 02:36:17.277,-46.2
2017-01-31 02:37:17.286,-46.1
2017-01-31 02:38:17.265,-45.9
2017-01-31 02:39:17.275,-45.7
2017-01-31 02:40:17.275,-45.6
2017-01-31 02:41:17.273,-45.4
2017-01-31 02:42:17.278,-45.2
2017-01-31 02:43:17.274,-45.1
2017-01-31 02:44:17.272,-45.0
2017-01-31 02:45:17.271,-44.8
2017-01-31 02:46:17.271,-44.6
2017-01-31 02:47:17.268,-44.4
2017-01-31 02:48:17.269,-44.3
2017-01-31 02:49:17.281,-44.1
2017-01-31 02:50:17.267,-43.9
2017-01-31 02:51:17.281,-43.8
2017-01-31 02:52:17.273,-43.6
2017-01-31 02:53:17.281,-43.5
2017-01-31 02:54:17.271,-43.3
2017-01-31 02:55:17.280,-43.1
2017-01-31 02:56:17.277,-42.9
2017-01-31 02:57:17.271,-42.8
2017-01-31 02:58:17.274,-42.6
2017-01-31 02:59:17.275,-42.4
2017-01-31 03:00:17.270,-42.4
2017-01-31 03:01:17.288,-42.3
2017-01-31 03:02:17.280,-42.1
2017-01-31 03:03:17.285,-41.9
2017-01-31 03:04:17.282,-41.7
2017-01-31 03:05:17.285,-41.6
2017-01-31 03:06:17.272,-41.4
2017-01-31 03:07:17.288,-41.2
2017-01-31 03:08:17.282,-41.0
2017-01-31 03:09:17.272,-40.9
2017-01-31 03:10:17.270,-40.7
2017-01-31 03:11:17.271,-40.6
2017-01-31 03:12:17.271,-40.4
2017-01-31 03:13:17.278,-40.3
2017-01-31 03:14:17.272,-40.1
2017-01-31 03:15:17.279,-39.9
2017-01-31 03:16:17.279,-39.7
2017-01-31 03:17:17.273,-39.6
2017-01-31 03:18:17.274,-39.4
2017-01-31 03:19:17.271,-39.2
2017-01-31 03:20:17.281,-39.0
2017-01-31 03:21:17.293,-38.8
2017-01-31 03:22:17.285,-38.7
2017-01-31 03:23:17.274,-38.5
2017-01-31 03:24:17.274,-38.3
2017-01-31 03:25:17.285,-38.1
2017-01-31 03:26:17.279,-38.0
2017-01-31 03:27:17.265,-37.8
2017-01-31 03:28:17.281,-37.6
2017-01-31 03:29:17.280,-37.5
2017-01-31 03:30:17.272,-37.4
2017-01-31 03:31:17.288,-37.2
2017-01-31 03:32:17.273,-37.0
2017-01-31 03:33:17.268,-36.8
2017-01-31 03:34:17.275,-36.7
2017-01-31 03:35:17.284,-36.5
2017-01-31 03:36:17.281,-36.3
2017-01-31 03:37:17.285,-36.1
2017-01-31 03:38:17.274,-36.0
2017-01-31 03:39:17.271,-35.8
2017-01-31 03:40:17.278,-35.6
2017-01-31 03:41:17.285,-35.4
2017-01-31 03:42:17.268,-35.3
2017-01-31 03:43:17.271,-35.1
2017-01-31 03:44:17.274,-34.9
2017-01-31 03:45:17.276,-34.7
2017-01-31 03:46:17.284,-34.5
2017-01-31 03:47:17.282,-34.4
2017-01-31 03:48:17.281,-34.2
2017-01-31 03:49:17.271,-34.0
2017-01-31 03:50:17.284,-33.8
2017-01-31 03:51:17.270,-33.7
2017-01-31 03:52:17.271,-33.5
2017-01-31 03:53:17.274,-33.3
2017-01-31 03:54:17.269,-33.1
2017-01-31 03:55:17.273,-33.0
2017-01-31 03:56:17.274,-32.8
2017-01-31 03:57:17.276,-32.6
2017-01-31 03:58:17.273,-32.4
2017-01-31 03:59:17.289,-32.3
2017-01-31 04:00:17.273,-32.1
2017-01-31 04:01:17.272,-31.9
2017-01-31 04:02:17.272,-31.7
2017-01-31 04:03:17.271,-31.6
2017-01-31 04:04:17.267,-31.4
2017-01-31 04:05:17.287,-31.2
2017-01-31 04:06:17.272,-31.0
2017-01-31 04:07:17.271,-30.9
2017-01-31 04:08:17.281,-30.7
2017-01-31 04:09:17.281,-30.5
2017-01-31 04:10:17.272,-30.3
2017-01-31 04:11:17.272,-30.2
2017-01-31 04:12:17.302,-30.0
2017-01-31 04:13:17.268,-29.8
2017-01-31 04:14:17.285,-29.6
2017-01-31 04:15:17.277,-29.4
2017-01-31 04:16:17.276,-29.3
2017-01-31 04:17:17.271,-29.1
2017-01-31 04:18:17.284,-28.9
2017-01-31 04:19:17.276,-28.7
2017-01-31 04:20:17.274,-28.6
2017-01-31 04:21:17.291,-28.4
2017-01-31 04:22:17.285,-28.2
2017-01-31 04:23:17.271,-28.0
2017-01-31 04:24:17.269,-27.9
2017-01-31 04:25:17.288,-27.7
2017-01-31 04:26:17.281,-27.5
2017-01-31 04:27:17.284,-27.3
2017-01-31 04:28:17.272,-27.2
2017-01-31 04:29:17.276,-27.0
2017-01-31 04:30:17.271,-26.8
2017-01-31 04:31:17.271,-26.6
2017-01-31 04:32:17.279,-26.5
2017-01-31 04:33:17.282,-26.3
2017-01-31 04:34:17.287,-26.1
2017-01-31 04:35:17.271,-25.9
2017-01-31 04:36:17.272,-25.8
2017-01-31 04:37:17.268,-25.6
2017-01-31 04:38:17.268,-25.4
2017-01-31 04:39:17.285,-25.2
2017-01-31 04:40:17.292,-25.0
2017-01-31 04:41:17.284,-24.9
2017-01-31 04:42:17.278,-24.7
2017-01-31 04:43:17.275,-24.5
2017-01-31 04:44:17.283,-24.3
2017-01-31 04:45:17.269,-24.2
2017-01-31 04:46:17.287,-24.0
2017-01-31 04:47:17.272,-23.8
2017-01-31 04:48:17.273,-23.6
2017-01-31 04:49:17.272,-23.5
2017-01-31 04:50:17.284,-23.3
2017-01-31 04:51:17.276,-23.1
2017-01-31 04:52:17.281,-22.9
2017-01-31 04:53:17.269,-22.8
2017-01-31 04:54:17.272,-22.6
2017-01-31 04:55:17.272,-22.4
2017-01-31 04:56:17.276,-22.2
2017-01-31 04:57:17.276,-22.1
2017-01-31 04:58:17.286,-21.9
2017-01-31 04:59:17.286,-21.6
2017-01-31 05:00:17.284,-21.4
2017-01-31 05:01:17.271,-21.3
2017-01-31 05:02:17.270,-21.1
2017-01-31 05:03:17.278,-20.9
2017-01-31 05:04:17.264,-20.7
2017-01-31 05:05:17.264,-20.5
2017-01-31 05:06:17.283,-20.4
2017-01-31 05:07:17.271,-20.2
2017-01-31 05:08:17.264,-20.0
2017-01-31 05:09:17.272,-19.8
2017-01-31 05:10:17.271,-19.7
2017-01-31 05:11:17.271,-19.5
2017-01-31 05:12:17.272,-19.3
2017-01-31 05:13:17.293,-19.1
2017-01-31 05:14:17.277,-19.0
2017-01-31 05:15:17.271,-18.8
2017-01-31 05:16:17.282,-18.6
2017-01-31 05:17:17.292,-18.4
2017-01-31 05:18:17.283,-18.3
2017-01-31 05:19:17.291,-18.1
2017-01-31 05:20:17.275,-17.9
2017-01-31 05:21:17.273,-17.7
2017-01-31 05:22:17.278,-17.6
2017-01-31 05:23:17.269,-17.4
2017-01-31 05:24:17.278,-17.2
2017-01-31 05:25:17.269,-17.0
2017-01-31 05:26:17.271,-16.9
2017-01-31 05:27:17.290,-16.7
2017-01-31 05:28:17.273,-16.5
2017-01-31 05:29:17.280,-16.3
2017-01-31 05:30:17.276,-16.2
2017-01-31 05:31:17.276,-16.0
2017-01-31 05:32:17.272,-15.8
2017-01-31 05:33:17.276,-15.6
2017-01-31 05:34:17.264,-15.4
2017-01-31 05:35:17.287,-15.3
2017-01-31 05:36:17.281,-15.1
2017-01-31 05:37:17.286,-14.9
2017-01-31 05:38:17.279,-14.7
2017-01-31 05:39:17.276,-14.6
2017-01-31 05:40:17.275,-14.4
2017-01-31 05:41:17.281,-14.3
2017-01-31 05:42:17.280,-14.1
2017-01-31 05:43:17.274,-14.0
2017-01-31 05:44:17.273,-13.8
2017-01-31 05:45:17.281,-13.6
2017-01-31 05:46:17.272,-13.4
2017-01-31 05:47:17.271,-13.3
2017-01-31 05:48:17.272,-13.1
2017-01-31 05:49:17.283,-12.9
2017-01-31 05:50:17.273,-12.7
2017-01-31 05:51:17.287,-12.6
2017-01-31 05:52:17.275,-12.4
2017-01-31 05:53:17.277,-12.2
2017-01-31 05:54:17.269,-12.0
2017-01-31 05:55:17.272,-11.9
2017-01-31 05:56:17.273,-11.7
2017-01-31 05:57:17.273,-11.5
2017-01-31 05:58:17.282,-11.3
2017-01-31 05:59:17.274,-11.1
2017-01-31 06:00:17.270,-11.0
2017-01-31 06:01:17.283,-10.8
2017-01-31 06:02:17.272,-10.6
2017-01-31 06:03:17.275,-10.4
2017-01-31 06:04:17.276,-10.3
2017-01-31 06:05:17.268,-10.1
2017-01-31 06:06:17.286,-9.9
2017-01-31 06:07:17.272,-9.7
2017-01-31 06:08:17.278,-9.6
2017-01-31 06:09:17.282,-9.4
2017-01-31 06:10:17.271,-9.2
2017-01-31 06:11:17.273,-9.0
2017-01-31 06:12:17.283,-8.9
2017-01-31 06:13:17.272,-8.8
2017-01-31 06:14:17.283,-8.6
2017-01-31 06:15:17.275,-8.4
2017-01-31 06:16:17.281,-8.3
2017-01-31 06:17:17.275,-8.1
2017-01-31 06:18:17.268,-7.9
2017-01-31 06:19:17.275,-7.7
2017-01-31 06:20:17.280,-7.6
2017-01-31 06:21:17.270,-7.4
2017-01-31 06:22:17.275,-7.2
2017-01-31 06:23:17.272,-7.0
2017-01-31 06:24:17.282,-6.8
2017-01-31 06:25:17.280,-6.7
2017-01-31 06:26:17.271,-6.5
2017-01-31 06:27:17.271,-6.3
2017-01-31 06:28:17.274,-6.2
2017-01-31 06:29:17.277,-6.1
2017-01-31 06:30:17.290,-5.9
2017-01-31 06:31:17.273,-5.7
2017-01-31 06:32:17.279,-5.5
2017-01-31 06:33:17.276,-5.4
2017-01-31 06:34:17.275,-5.2
2017-01-31 06:35:17.279,-5.0
2017-01-31 06:36:17.270,-4.8
2017-01-31 06:37:17.278,-4.7
2017-01-31 06:38:17.275,-4.5
2017-01-31 06:39:17.278,-4.3
2017-01-31 06:40:17.273,-4.2
2017-01-31 06:41:17.282,-4.1
2017-01-31 06:42:17.281,-3.9
2017-01-31 06:43:17.269,-3.7
2017-01-31 06:44:17.270,-3.5
2017-01-31 06:45:17.266,-3.4
2017-01-31 06:46:17.296,-3.2
2017-01-31 06:47:17.280,-3.0
2017-01-31 06:48:17.274,-2.8
2017-01-31 06:49:17.271,-2.8
2017-01-31 06:50:17.283,-2.6
2017-01-31 06:51:17.274,-2.4
2017-01-31 06:52:17.273,-2.2
2017-01-31 06:53:17.282,-2.0
2017-01-31 06:54:17.275,-1.9
2017-01-31 06:55:17.272,-1.7
2017-01-31 06:56:17.282,-1.5
2017-01-31 06:57:17.271,-1.4
2017-01-31 06:58:17.283,-1.3
2017-01-31 06:59:17.271,-1.1
2017-01-31 07:00:17.276,-0.9
2017-01-31 07:01:17.271,-0.7
2017-01-31 07:02:17.270,-0.6
2017-01-31 07:03:17.278,-0.4
2017-01-31 07:04:17.274,-0.2
2017-01-31 07:05:17.271,-0.1
2017-01-31 07:06:17.275,0.0
2017-01-31 07:07:17.282,0.1
2017-01-31 07:08:17.272,0.3
2017-01-31 07:09:17.292,0.5
2017-01-31 07:10:17.272,0.6
2017-01-31 07:11:17.266,0.7
2017-01-31 07:12:17.274,0.9
2017-01-31 07:13:17.274,1.1
2017-01-31 07:14:17.275,1.2
2017-01-31 07:15:17.264,1.4
2017-01-31 07:16:17.274,1.6
2017-01-31 07:17:17.269,1.7
2017-01-31 07:18:17.270,1.9
2017-01-31 07:19:17.278,2.0
2017-01-31 07:20:17.282,2.2
2017-01-31 07:21:17.281,2.4
2017-01-31 07:22:17.272,2.5
2017-01-31 07:23:17.270,2.6
2017-01-31 07:24:17.278,2.8
2017-01-31 07:25:17.283,3.0
2017-01-31 07:26:17.277,3.2
2017-01-31 07:27:17.269,3.3
2017-01-31 07:28:17.278,3.4
2017-01-31 07:29:17.273,3.6
2017-01-31 07:30:17.284,3.8
2017-01-31 07:31:17.276,3.9
2017-01-31 07:32:17.279,4.0
2017-01-31 07:33:17.267,4.2
2017-01-31 07:34:17.274,4.4
2017-01-31 07:35:17.279,4.5
2017-01-31 07:36:17.283,4.7
2017-01-31 07:37:17.274,4.8
2017-01-31 07:38:17.273,5.0
2017-01-31 07:39:17.270,5.1
2017-01-31 07:40:17.266,5.3
2017-01-31 07:41:17.275,5.4
2017-01-31 07:42:17.276,5.6
2017-01-31 07:43:17.272,5.7
2017-01-31 07:44:17.270,5.9
2017-01-31 07:45:17.270,6.0
2017-01-31 07:46:17.270,6.2
2017-01-31 07:47:17.292,6.4
2017-01-31 07:48:17.273,6.5
2017-01-31 07:49:17.270,6.6
2017-01-31 07:50:17.282,6.8
2017-01-31 07:51:17.272,7.0
2017-01-31 07:52:17.274,7.1
2017-01-31 07:53:17.279,7.2
2017-01-31 07:54:17.279,7.4
2017-01-31 07:55:17.284,7.6
2017-01-31 07:56:17.295,7.6
2017-01-31 07:57:17.272,7.8
2017-01-31 07:58:17.274,8.0
2017-01-31 07:59:17.268,8.1
2017-01-31 08:00:17.275,8.2
2017-01-31 08:01:17.270,8.4
2017-01-31 08:02:17.283,8.6
2017-01-31 08:03:17.272,8.7
2017-01-31 08:04:17.281,8.8
2017-01-31 08:05:17.274,9.0
2017-01-31 08:06:17.285,9.1
2017-01-31 08:07:17.276,9.3
2017-01-31 08:08:17.280,9.4
2017-01-31 08:09:17.282,9.5
2017-01-31 08:10:17.278,9.7
2017-01-31 08:11:17.270,9.9
2017-01-31 08:12:17.281,10.0
2017-01-31 08:13:17.272,10.1
2017-01-31 08:14:17.276,10.3
2017-01-31 08:15:17.274,10.4
2017-01-31 08:16:17.279,10.6
2017-01-31 08:17:17.271,10.7
2017-01-31 08:18:17.287,10.8
2017-01-31 08:19:17.278,11.0
2017-01-31 08:20:17.270,11.1
2017-01-31 08:21:17.277,11.2
2017-01-31 08:22:17.271,11.4
2017-01-31 08:23:17.281,11.5
2017-01-31 08:24:17.280,11.7
2017-01-31 08:25:17.284,11.8
2017-01-31 08:26:17.277,11.9
2017-01-31 08:27:17.271,12.1
2017-01-31 08:28:17.286,12.2
2017-01-31 08:29:17.268,12.3
2017-01-31 08:30:17.285,12.4
2017-01-31 08:31:17.281,12.6
2017-01-31 08:32:17.280,12.7
2017-01-31 08:33:17.276,12.8
2017-01-31 08:34:17.272,13.0
2017-01-31 08:35:17.295,13.1
2017-01-31 08:36:17.283,13.3
2017-01-31 08:37:17.270,13.4
2017-01-31 08:38:17.278,13.5
2017-01-31 08:39:17.288,13.6
2017-01-31 08:40:17.275,13.8
2017-01-31 08:41:17.270,13.9
2017-01-31 08:42:17.271,14.0
2017-01-31 08:43:17.282,14.2
2017-01-31 08:44:17.274,14.3
2017-01-31 08:45:17.271,14.5
2017-01-31 08:46:17.280,14.5
2017-01-31 08:47:17.272,14.7
2017-01-31 08:48:17.281,14.8
2017-01-31 08:49:17.283,15.0
2017-01-31 08:50:17.292,15.0
2017-01-31 08:51:17.285,15.2
2017-01-31 08:52:17.279,15.3
2017-01-31 08:53:17.271,15.5
2017-01-31 08:54:17.274,15.5
2017-01-31 08:55:17.271,15.7
2017-01-31 08:56:17.275,15.8
2017-01-31 08:57:17.270,15.9
2017-01-31 08:58:17.272,16.0
2017-01-31 08:59:17.274,16.2
2017-01-31 09:00:17.272,16.2
2017-01-31 09:01:17.292,16.4
2017-01-31 09:02:17.283,16.4
2017-01-31 09:03:17.281,16.6
2017-01-31 09:04:17.273,16.7
2017-01-31 09:05:17.270,16.8
2017-01-31 09:06:17.278,17.0
2017-01-31 09:07:17.270,17.0
2017-01-31 09:08:17.286,17.2
2017-01-31 09:09:17.281,17.3
2017-01-31 09:10:17.272,17.4
2017-01-31 09:11:17.280,17.5
2017-01-31 09:12:17.270,17.6
2017-01-31 09:13:17.274,17.8
2017-01-31 09:14:17.278,17.9
2017-01-31 09:15:17.273,18.0
2017-01-31 09:16:17.278,18.1
2017-01-31 09:17:17.268,18.2
2017-01-31 09:18:17.268,18.4
2017-01-31 09:19:17.266,18.4
2017-01-31 09:20:17.272,18.5
2017-01-31 09:21:17.283,18.7
2017-01-31 09:22:17.272,18.8
2017-01-31 09:23:17.282,18.9
2017-01-31 09:24:17.278,19.0
2017-01-31 09:25:17.277,19.1
2017-01-31 09:26:17.277,19.2
2017-01-31 09:27:17.278,19.3
2017-01-31 09:28:17.282,19.4
2017-01-31 09:29:17.271,19.5
2017-01-31 09:30:17.299,19.7
2017-01-31 09:31:17.281,19.8
2017-01-31 09:32:17.283,19.8
2017-01-31 09:33:17.274,20.0
2017-01-31 09:34:17.277,20.1
2017-01-31 09:35:17.272,20.2
2017-01-31 09:36:17.271,20.2
2017-01-31 09:37:17.282,20.4
2017-01-31 09:38:17.281,20.5
2017-01-31 09:39:17.292,20.6
2017-01-31 09:40:17.278,20.6
2017-01-31 09:41:17.272,20.8
2017-01-31 09:42:17.281,20.9
2017-01-31 09:43:17.293,21.0
2017-01-31 09:44:17.270,21.0
2017-01-31 09:45:17.274,21.1
2017-01-31 09:46:17.283,21.3
2017-01-31 09:47:17.274,21.4
2017-01-31 09:48:17.278,21.4
2017-01-31 09:49:17.279,21.5
2017-01-31 09:50:17.274,21.6
2017-01-31 09:51:17.283,21.7
2017-01-31 09:52:17.278,21.8
2017-01-31 09:53:17.280,21.9
2017-01-31 09:54:17.276,22.0
2017-01-31 09:55:17.274,22.1
2017-01-31 09:56:17.273,22.2
2017-01-31 09:57:17.283,22.3
2017-01-31 09:58:17.286,22.4
2017-01-31 09:59:17.270,22.5
2017-01-31 10:00:17.278,22.6
2017-01-31 10:01:17.277,22.6
2017-01-31 10:02:17.278,22.7
2017-01-31 10:03:17.271,22.8
2017-01-31 10:04:17.271,22.9
2017-01-31 10:05:17.271,23.0
2017-01-31 10:06:17.272,23.0
2017-01-31 10:07:17.276,23.1
2017-01-31 10:08:17.271,23.2
2017-01-31 10:09:17.280,23.3
2017-01-31 10:10:17.268,23.4
2017-01-31 10:11:17.281,23.5
2017-01-31 10:12:17.283,23.6
2017-01-31 10:13:17.275,23.6
2017-01-31 10:14:17.282,23.7
2017-01-31 10:15:17.274,23.8
2017-01-31 10:16:17.266,23.9
2017-01-31 10:17:17.282,23.9
2017-01-31 10:18:17.266,24.0
2017-01-31 10:19:17.275,24.1
2017-01-31 10:20:17.275,24.2
2017-01-31 10:21:17.272,24.2
2017-01-31 10:22:17.280,24.3
2017-01-31 10:23:17.273,24.4
2017-01-31 10:24:17.269,24.5
2017-01-31 10:25:17.289,24.5
2017-01-31 10:26:17.275,24.6
2017-01-31 10:27:17.273,24.7
2017-01-31 10:28:17.275,24.7
2017-01-31 10:29:17.277,24.8
2017-01-31 10:30:17.291,24.8
2017-01-31 10:31:17.275,24.9
2017-01-31 10:32:17.271,25.0
2017-01-31 10:33:17.284,25.1
2017-01-31 10:34:17.272,25.1
2017-01-31 10:35:17.275,25.2
2017-01-31 10:36:17.281,25.2
2017-01-31 10:37:17.279,25.3
2017-01-31 10:38:17.281,25.4
2017-01-31 10:39:17.271,25.4
2017-01-31 10:40:17.292,25.5
2017-01-31 10:41:17.271,25.6
2017-01-31 10:42:17.283,25.6
2017-01-31 10:43:17.292,25.7
2017-01-31 10:44:17.280,25.7
2017-01-31 10:45:17.283,25.8
2017-01-31 10:46:17.276,25.8
2017-01-31 10:47:17.314,25.9
2017-01-31 10:48:17.272,25.9
2017-01-31 10:49:17.279,26.0
2017-01-31 10:50:17.273,26.1
2017-01-31 10:51:17.275,26.1
2017-01-31 10:52:17.271,26.1
2017-01-31 10:53:17.270,26.2
2017-01-31 10:54:17.280,26.3
2017-01-31 10:55:17.275,26.3
2017-01-31 10:56:17.277,26.3
2017-01-31 10:57:17.271,26.4
2017-01-31 10:58:17.283,26.4
2017-01-31 10:59:17.291,26.5
2017-01-31 11:00:17.278,26.5
2017-01-31 11:01:17.289,26.6
2017-01-31 11:02:17.283,26.6
2017-01-31 11:03:17.283,26.6
2017-01-31 11:04:17.291,26.7
2017-01-31 11:05:17.283,26.7
2017-01-31 11:06:17.277,26.8
2017-01-31 11:07:17.289,26.8
2017-01-31 11:08:17.275,26.8
2017-01-31 11:09:17.278,26.9
2017-01-31 11:10:17.275,26.9
2017-01-31 11:11:17.271,26.9
2017-01-31 11:12:17.277,27.0
2017-01-31 11:13:17.281,27.0
2017-01-31 11:14:17.272,27.1
2017-01-31 11:15:17.283,27.1
2017-01-31 11:16:17.270,27.1
2017-01-31 11:17:17.278,27.1
2017-01-31 11:18:17.268,27.2
2017-01-31 11:19:17.281,27.2
2017-01-31 11:20:17.270,27.2
2017-01-31 11:21:17.275,27.3
2017-01-31 11:22:17.269,27.3
2017-01-31 11:23:17.275,27.3
2017-01-31 11:24:17.282,27.3
2017-01-31 11:25:17.287,27.4
2017-01-31 11:26:17.265,27.4
2017-01-31 11:27:17.265,27.4
2017-01-31 11:28:17.271,27.4
2017-01-31 11:29:17.281,27.5
2017-01-31 11:30:17.283,27.5
2017-01-31 11:31:17.272,27.5
2017-01-31 11:32:17.280,27.5
2017-01-31 11:33:17.292,27.5
2017-01-31 11:34:17.269,27.5
2017-01-31 11:35:17.274,27.6
2017-01-31 11:36:17.293,27.6
2017-01-31 11:37:17.274,27.6
2017-01-31 11:38:17.280,27.6
2017-01-31 11:39:17.287,27.6
2017-01-31 11:40:17.265,27.6
2017-01-31 11:41:17.281,27.6
2017-01-31 11:42:17.272,27.6
2017-01-31 11:43:17.268,27.7
2017-01-31 11:44:17.279,27.7
2017-01-31 11:45:17.273,27.7
2017-01-31 11:46:17.273,27.7
2017-01-31 11:47:17.272,27.7
2017-01-31 11:48:17.285,27.7
2017-01-31 11:49:17.271,27.7
2017-01-31 11:50:17.278,27.7
2017-01-31 11:51:17.263,27.7
2017-01-31 11:52:17.275,27.7
2017-01-31 11:53:17.270,27.7
2017-01-31 11:54:17.280,27.7
2017-01-31 11:55:17.273,27.7
2017-01-31 11:56:17.274,27.7
2017-01-31 11:57:17.264,27.7
2017-01-31 11:58:17.271,27.7
2017-01-31 11:59:17.271,27.7
2017-01-31 12:00:17.270,27.7
2017-01-31 12:01:17.286,27.7
2017-01-31 12:02:17.280,27.7
2017-01-31 12:03:17.288,27.7
2017-01-31 12:04:17.272,27.7
2017-01-31 12:05:17.270,27.7
2017-01-31 12:06:17.283,27.6
2017-01-31 12:07:17.270,27.6
2017-01-31 12:08:17.282,27.6
2017-01-31 12:09:17.269,27.6
2017-01-31 12:10:17.266,27.6
2017-01-31 12:11:17.272,27.6
2017-01-31 12:12:17.287,27.6
2017-01-31 12:13:17.284,27.5
2017-01-31 12:14:17.267,27.5
2017-01-31 12:15:17.274,27.5
2017-01-31 12:16:17.286,27.5
2017-01-31 12:17:17.285,27.5
2017-01-31 12:18:17.270,27.5
2017-01-31 12:19:17.283,27.4
2017-01-31 12:20:17.264,27.4
2017-01-31 12:21:17.282,27.4
2017-01-31 12:22:17.271,27.4
2017-01-31 12:23:17.290,27.3
2017-01-31 12:24:17.266,27.3
2017-01-31 12:25:17.291,27.3
2017-01-31 12:26:17.287,27.3
2017-01-31 12:27:17.284,27.2
2017-01-31 12:28:17.280,27.2
2017-01-31 12:29:17.282,27.2
2017-01-31 12:30:17.279,27.2
2017-01-31 12:31:17.277,27.1
2017-01-31 12:32:17.281,27.1
2017-01-31 12:33:17.282,27.0
2017-01-31 12:34:17.264,27.0
2017-01-31 12:35:17.265,27.0
2017-01-31 12:36:17.275,27.0
2017-01-31 12:37:17.275,26.9
2017-01-31 12:38:17.264,26.9
2017-01-31 12:39:17.282,26.8
2017-01-31 12:40:17.284,26.8
2017-01-31 12:41:17.291,26.8
2017-01-31 12:42:17.267,26.7
2017-01-31 12:43:17.275,26.7
2017-01-31 12:44:17.284,26.6
2017-01-31 12:45:17.271,26.6
2017-01-31 12:46:17.265,26.6
2017-01-31 12:47:17.270,26.5
2017-01-31 12:48:17.274,26.5
2017-01-31 12:49:17.282,26.4
2017-01-31 12:50:17.267,26.4
2017-01-31 12:51:17.275,26.3
2017-01-31 12:52:17.270,26.3
2017-01-31 12:53:17.272,26.2
2017-01-31 12:54:17.265,26.2
2017-01-31 12:55:17.287,26.2
2017-01-31 12:56:17.270,26.1
2017-01-31 12:57:17.264,26.0
2017-01-31 12:58:17.274,26.0
2017-01-31 12:59:17.273,25.9
2017-01-31 13:00:17.283,25.9
2017-01-31 13:01:17.272,25.8
2017-01-31 13:02:17.304,25.8
2017-01-31 13:03:17.271,25.7
2017-01-31 13:04:17.267,25.7
2017-01-31 13:05:17.272,25.6
2017-01-31 13:06:17.275,25.5
2017-01-31 13:07:17.282,25.5
2017-01-31 13:08:17.285,25.4
2017-01-31 13:09:17.275,25.4
2017-01-31 13:10:17.273,25.3
2017-01-31 13:11:17.273,25.2
2017-01-31 13:12:17.271,25.2
2017-01-31 13:13:17.265,25.1
2017-01-31 13:14:17.272,25.0
2017-01-31 13:15:17.270,25.0
2017-01-31 13:16:17.274,24.9
2017-01-31 13:17:17.270,24.9
2017-01-31 13:18:17.276,24.8
2017-01-31 13:19:17.273,24.7
2017-01-31 13:20:17.279,24.7
2017-01-31 13:21:17.274,24.6
2017-01-31 13:22:17.282,24.5
2017-01-31 13:23:17.282,24.4
2017-01-31 13:24:17.275,24.4
2017-01-31 13:25:17.272,24.3
2017-01-31 13:26:17.288,24.2
2017-01-31 13:27:17.276,24.1
2017-01-31 13:28:17.270,24.1
2017-01-31 13:29:17.273,24.0
2017-01-31 13:30:17.276,23.9
2017-01-31 13:31:17.271,23.8
2017-01-31 13:32:17.282,23.8
2017-01-31 13:33:17.275,23.7
2017-01-31 13:34:17.275,23.6
2017-01-31 13:35:17.277,23.5
2017-01-31 13:36:17.278,23.4
2017-01-31 13:37:17.269,23.4
2017-01-31 13:38:17.286,23.3
2017-01-31 13:39:17.279,23.2
2017-01-31 13:40:17.265,23.1
2017-01-31 13:41:17.297,23.1
2017-01-31 13:42:17.278,23.0
2017-01-31 13:43:17.282,22.9
2017-01-31 13:44:17.270,22.8
2017-01-31 13:45:17.283,22.7
2017-01-31 13:46:17.271,22.6
2017-01-31 13:47:17.288,22.5
2017-01-31 13:48:17.286,22.4
2017-01-31 13:49:17.293,22.4
2017-01-31 13:50:17.272,22.3
2017-01-31 13:51:17.267,22.2
2017-01-31 13:52:17.283,22.1
2017-01-31 13:53:17.286,22.0
2017-01-31 13:54:17.277,21.9
2017-01-31 13:55:17.271,21.8
2017-01-31 13:56:17.282,21.7
2017-01-31 13:57:17.295,21.6
2017-01-31 13:58:17.274,21.6
2017-01-31 13:59:17.275,21.4
2017-01-31 14:00:17.265,21.3
2017-01-31 14:01:17.278,21.2
2017-01-31 14:02:17.277,21.2
2017-01-31 14:03:17.274,21.1
2017-01-31 14:04:17.282,21.0
2017-01-31 14:05:17.269,20.8
2017-01-31 14:06:17.276,20.8
2017-01-31 14:07:17.272,20.7
2017-01-31 14:08:17.272,20.6
2017-01-31 14:09:17.277,20.4
2017-01-31 14:10:17.286,20.4
2017-01-31 14:11:17.277,20.3
2017-01-31 14:12:17.272,20.2
2017-01-31 14:13:17.286,20.0
2017-01-31 14:14:17.282,20.0
2017-01-31 14:15:17.273,19.9
2017-01-31 14:16:17.280,19.7
2017-01-31 14:17:17.275,19.6
2017-01-31 14:18:17.275,19.6
2017-01-31 14:19:17.274,19.4
2017-01-31 14:20:17.267,19.3
2017-01-31 14:21:17.279,19.2
2017-01-31 14:22:17.273,19.1
2017-01-31 14:23:17.286,19.0
2017-01-31 14:24:17.274,18.9
2017-01-31 14:25:17.277,18.8
2017-01-31 14:26:17.274,18.6
2017-01-31 14:27:17.277,18.6
2017-01-31 14:28:17.282,18.4
2017-01-31 14:29:17.276,18.3
2017-01-31 14:30:17.273,18.2
2017-01-31 14:31:17.273,18.1
2017-01-31 14:32:17.273,18.0
2017-01-31 14:33:17.273,17.9
2017-01-31 14:34:17.288,17.7
2017-01-31 14:35:17.279,17.7
2017-01-31 14:36:17.272,17.5
2017-01-31 14:37:17.276,17.4
2017-01-31 14:38:17.287,17.3
2017-01-31 14:39:17.273,17.2
2017-01-31 14:40:17.283,17.1
2017-01-31 14:41:17.278,16.9
2017-01-31 14:42:17.272,16.8
2017-01-31 14:43:17.279,16.7
2017-01-31 14:44:17.305,16.6
2017-01-31 14:45:17.274,16.5
2017-01-31 14:46:17.274,16.3
2017-01-31 14:47:17.301,16.3
2017-01-31 14:48:17.271,16.1
2017-01-31 14:49:17.287,16.0
2017-01-31 14:50:17.274,15.8
2017-01-31 14:51:17.280,15.7
2017-01-31 14:52:17.300,15.6
2017-01-31 14:53:17.271,15.5
2017-01-31 14:54:17.279,15.3
2017-01-31 14:55:17.283,15.2
2017-01-31 14:56:17.283,15.1
2017-01-31 14:57:17.273,15.0
2017-01-31 14:58:17.283,14.9
2017-01-31 14:59:17.274,14.7
2017-01-31 15:00:17.272,14.6
2017-01-31 15:01:17.272,14.7
2017-01-31 15:02:17.272,14.5
2017-01-31 15:03:17.281,14.4
2017-01-31 15:04:17.271,14.3
2017-01-31 15:05:17.282,14.2
2017-01-31 15:06:17.264,14.0
2017-01-31 15:07:17.270,13.9
2017-01-31 15:08:17.292,13.8
2017-01-31 15:09:17.277,13.7
2017-01-31 15:10:17.279,13.5
2017-01-31 15:11:17.270,13.4
2017-01-31 15:12:17.275,13.3
2017-01-31 15:13:17.276,13.1
2017-01-31 15:14:17.266,13.0
2017-01-31 15:15:17.280,12.8
2017-01-31 15:16:17.290,12.7
2017-01-31 15:17:17.273,12.6
2017-01-31 15:18:17.275,12.4
2017-01-31 15:19:17.269,12.3
2017-01-31 15:20:17.270,12.1
2017-01-31 15:21:17.284,12.1
2017-01-31 15:22:17.377,11.9
2017-01-31 15:23:17.275,11.7
2017-01-31 15:24:17.270,11.6
2017-01-31 15:25:17.265,11.5
2017-01-31 15:26:17.288,11.4
2017-01-31 15:27:17.282,11.2
2017-01-31 15:28:17.272,11.0
2017-01-31 15:29:17.272,11.0
2017-01-31 15:30:17.271,10.8
2017-01-31 15:31:17.268,10.6
2017-01-31 15:32:17.271,10.5
2017-01-31 15:33:17.275,10.4
2017-01-31 15:34:17.274,10.2
2017-01-31 15:35:17.276,10.1
2017-01-31 15:36:17.283,9.9
2017-01-31 15:37:17.275,9.8
2017-01-31 15:38:17.270,9.7
2017-01-31 15:39:17.276,9.5
2017-01-31 15:40:17.284,9.4
2017-01-31 15:41:17.277,9.3
2017-01-31 15:42:17.275,9.1
2017-01-31 15:43:17.271,8.9
2017-01-31 15:44:17.278,8.8
2017-01-31 15:45:17.276,8.6
2017-01-31 15:46:17.278,8.5
2017-01-31 15:47:17.293,8.4
2017-01-31 15:48:17.284,8.2
2017-01-31 15:49:17.280,8.0
2017-01-31 15:50:17.272,8.0
2017-01-31 15:51:17.282,7.8
2017-01-31 15:52:17.279,7.6
2017-01-31 15:53:17.278,7.5
2017-01-31 15:54:17.273,7.4
2017-01-31 15:55:17.377,7.2
2017-01-31 15:56:17.277,7.0
2017-01-31 15:57:17.273,6.9
2017-01-31 15:58:17.280,6.8
2017-01-31 15:59:17.271,6.6
2017-01-31 16:00:17.269,6.4
2017-01-31 16:01:17.271,6.3
2017-01-31 16:02:17.281,6.2
2017-01-31 16:03:17.268,6.0
2017-01-31 16:04:17.273,5.8
2017-01-31 16:05:17.271,5.7
2017-01-31 16:06:17.272,5.6
2017-01-31 16:07:17.285,5.4
2017-01-31 16:08:17.265,5.2
2017-01-31 16:09:17.297,5.1
2017-01-31 16:10:17.277,4.9
2017-01-31 16:11:17.272,4.8
2017-01-31 16:12:17.280,4.6
2017-01-31 16:13:17.282,4.5
2017-01-31 16:14:17.274,4.3
2017-01-31 16:15:17.279,4.2
2017-01-31 16:16:17.281,4.0
2017-01-31 16:17:17.271,3.8
2017-01-31 16:18:17.271,3.7
2017-01-31 16:19:17.277,3.6
2017-01-31 16:20:17.268,3.4
2017-01-31 16:21:17.275,3.2
2017-01-31 16:22:17.276,3.0
2017-01-31 16:23:17.272,3.0
2017-01-31 16:24:17.272,2.8
2017-01-31 16:25:17.272,2.6
2017-01-31 16:26:17.269,2.4
2017-01-31 16:27:17.274,2.3
2017-01-31 16:28:17.274,2.2
2017-01-31 16:29:17.278,2.0
2017-01-31 16:30:17.276,1.8
2017-01-31 16:31:17.271,1.7
2017-01-31 16:32:17.283,1.5
2017-01-31 16:33:17.278,1.3
2017-01-31 16:34:17.304,1.2
2017-01-31 16:35:17.273,1.0
2017-01-31 16:36:17.273,0.9
2017-01-31 16:37:17.273,0.7
2017-01-31 16:38:17.274,0.5
2017-01-31 16:39:17.282,0.3
2017-01-31 16:40:17.292,0.3
2017-01-31 16:41:17.263,0.1
2017-01-31 16:42:17.299,0.0
2017-01-31 16:43:17.270,-0.2
2017-01-31 16:44:17.271,-0.3
2017-01-31 16:45:17.278,-0.5
2017-01-31 16:46:17.271,-0.7
2017-01-31 16:47:17.273,-0.8
2017-01-31 16:48:17.279,-0.9
2017-01-31 16:49:17.277,-1.1
2017-01-31 16:50:17.292,-1.3
2017-01-31 16:51:17.283,-1.5
2017-01-31 16:52:17.280,-1.6
2017-01-31 16:53:17.279,-1.8
2017-01-31 16:54:17.275,-2.0
2017-01-31 16:55:17.271,-2.1
2017-01-31 16:56:17.278,-2.2
2017-01-31 16:57:17.281,-2.4
2017-01-31 16:58:17.282,-2.6
2017-01-31 16:59:17.291,-2.8
2017-01-31 17:00:17.276,-2.9
2017-01-31 17:01:17.272,-3.1
2017-01-31 17:02:17.278,-3.3
2017-01-31 17:03:17.274,-3.4
2017-01-31 17:04:17.274,-3.6
2017-01-31 17:05:17.274,-3.7
2017-01-31 17:06:17.285,-3.9
2017-01-31 17:07:17.271,-4.1
2017-01-31 17:08:17.281,-4.3
2017-01-31 17:09:17.276,-4.4
2017-01-31 17:10:17.275,-4.6
2017-01-31 17:11:17.272,-4.8
2017-01-31 17:12:17.281,-5.0
2017-01-31 17:13:17.281,-5.1
2017-01-31 17:14:17.278,-5.2
2017-01-31 17:15:17.271,-5.4
2017-01-31 17:16:17.264,-5.6
2017-01-31 17:17:17.271,-5.7
2017-01-31 17:18:17.273,-5.9
2017-01-31 17:19:17.273,-6.1
2017-01-31 17:20:17.281,-6.3
2017-01-31 17:21:17.302,-6.4
2017-01-31 17:22:17.284,-6.6
2017-01-31 17:23:17.274,-6.8
2017-01-31 17:24:17.275,-7.0
2017-01-31 17:25:17.271,-7.1
2017-01-31 17:26:17.274,-7.3
2017-01-31 17:27:17.278,-7.5
2017-01-31 17:28:17.278,-7.6
2017-01-31 17:29:17.275,-7.8
2017-01-31 17:30:17.276,-7.9
2017-01-31 17:31:17.282,-8.1
2017-01-31 17:32:17.263,-8.3
2017-01-31 17:33:17.271,-8.5
2017-01-31 17:34:17.271,-8.6
2017-01-31 17:35:17.276,-8.8
2017-01-31 17:36:17.275,-9.0
2017-01-31 17:37:17.280,-9.2
2017-01-31 17:38:17.277,-9.3
2017-01-31 17:39:17.281,-9.5
2017-01-31 17:40:17.273,-9.7
2017-01-31 17:41:17.283,-9.9
2017-01-31 17:42:17.271,-10.0
2017-01-31 17:43:17.273,-10.2
2017-01-31 17:44:17.289,-10.4
2017-01-31 17:45:17.288,-10.6
2017-01-31 17:46:17.279,-10.7
2017-01-31 17:47:17.268,-10.9
2017-01-31 17:48:17.279,-11.1
2017-01-31 17:49:17.275,-11.2
2017-01-31 17:50:17.271,-11.3
2017-01-31 17:51:17.272,-11.5
2017-01-31 17:52:17.276,-11.7
2017-01-31 17:53:17.284,-11.9
2017-01-31 17:54:17.264,-12.0
2017-01-31 17:55:17.278,-12.2
2017-01-31 17:56:17.270,-12.4
2017-01-31 17:57:17.271,-12.6
2017-01-31 17:58:17.276,-12.8
2017-01-31 17:59:17.279,-12.9
2017-01-31 18:00:17.279,-13.1
2017-01-31 18:01:17.267,-13.3
2017-01-31 18:02:17.270,-13.5
2017-01-31 18:03:17.267,-13.6
2017-01-31 18:04:17.279,-13.8
2017-01-31 18:05:17.271,-14.0
2017-01-31 18:06:17.265,-14.2
2017-01-31 18:07:17.278,-14.3
2017-01-31 18:08:17.278,-14.5
2017-01-31 18:09:17.281,-14.7
2017-01-31 18:10:17.271,-14.9
2017-01-31 18:11:17.283,-15.0
2017-01-31 18:12:17.277,-15.2
2017-01-31 18:13:17.276,-15.4
2017-01-31 18:14:17.278,-15.6
2017-01-31 18:15:17.279,-15.7
2017-01-31 18:16:17.286,-15.9
2017-01-31 18:17:17.274,-16.1
2017-01-31 18:18:17.277,-16.3
2017-01-31 18:19:17.273,-16.4
2017-01-31 18:20:17.278,-16.6
2017-01-31 18:21:17.272,-16.8
2017-01-31 18:22:17.275,-17.0
2017-01-31 18:23:17.271,-17.2
2017-01-31 18:24:17.280,-17.3
2017-01-31 18:25:17.270,-17.5
2017-01-31 18:26:17.272,-17.7
2017-01-31 18:27:17.269,-17.9
2017-01-31 18:28:17.268,-18.0
2017-01-31 18:29:17.273,-18.2
2017-01-31 18:30:17.292,-18.4
2017-01-31 18:31:17.278,-18.6
2017-01-31 18:32:17.274,-18.7
2017-01-31 18:33:17.277,-18.9
2017-01-31 18:34:17.273,-19.1
2017-01-31 18:35:17.283,-19.3
2017-01-31 18:36:17.270,-19.4
2017-01-31 18:37:17.272,-19.6
2017-01-31 18:38:17.265,-19.8
2017-01-31 18:39:17.274,-20.0
2017-01-31 18:40:17.282,-20.1
2017-01-31 18:41:17.273,-20.3
2017-01-31 18:42:17.273,-20.5
2017-01-31 18:43:17.287,-20.7
2017-01-31 18:44:17.286,-20.8
2017-01-31 18:45:17.276,-21.0
2017-01-31 18:46:17.280,-21.2
2017-01-31 18:47:17.271,-21.4
2017-01-31 18:48:17.296,-21.6
2017-01-31 18:49:17.277,-21.7
2017-01-31 18:50:17.275,-21.9
2017-01-31 18:51:17.281,-22.1
2017-01-31 18:52:17.270,-22.3
2017-01-31 18:53:17.277,-22.4
2017-01-31 18:54:17.275,-22.6
2017-01-31 18:55:17.272,-22.8
2017-01-31 18:56:17.281,-23.0
2017-01-31 18:57:17.277,-23.1
2017-01-31 18:58:17.274,-23.3
2017-01-31 18:59:17.277,-23.5
2017-01-31 19:00:17.274,-23.7
2017-01-31 19:01:17.272,-23.8
2017-01-31 19:02:17.274,-24.0
2017-01-31 19:03:17.281,-24.2
2017-01-31 19:04:17.271,-24.4
2017-01-31 19:05:17.272,-24.5
2017-01-31 19:06:17.272,-24.7
2017-01-31 19:07:17.264,-24.9
2017-01-31 19:08:17.269,-25.1
2017-01-31 19:09:17.274,-25.2
2017-01-31 19:10:17.274,-25.4
2017-01-31 19:11:17.273,-25.6
2017-01-31 19:12:17.272,-25.8
2017-01-31 19:13:17.270,-25.9
2017-01-31 19:14:17.269,-26.1
2017-01-31 19:15:17.271,-26.3
2017-01-31 19:16:17.275,-26.5
2017-01-31 19:17:17.271,-26.7
2017-01-31 19:18:17.272,-26.8
2017-01-31 19:19:17.277,-27.0
2017-01-31 19:20:17.271,-27.2
2017-01-31 19:21:17.275,-27.5
2017-01-31 19:22:17.272,-27.6
2017-01-31 19:23:17.271,-27.8
2017-01-31 19:24:17.273,-28.0
2017-01-31 19:25:17.271,-28.2
2017-01-31 19:26:17.274,-28.3
2017-01-31 19:27:17.273,-28.5
2017-01-31 19:28:17.272,-28.7
2017-01-31 19:29:17.273,-28.9
2017-01-31 19:30:17.270,-29.0
2017-01-31 19:31:17.273,-29.2
2017-01-31 19:32:17.266,-29.4
2017-01-31 19:33:17.269,-29.6
2017-01-31 19:34:17.278,-29.7
2017-01-31 19:35:17.278,-29.9
2017-01-31 19:36:17.273,-30.1
2017-01-31 19:37:17.272,-30.3
2017-01-31 19:38:17.262,-30.4
2017-01-31 19:39:17.270,-30.6
2017-01-31 19:40:17.277,-30.8
2017-01-31 19:41:17.270,-31.0
2017-01-31 19:42:17.277,-31.2
2017-01-31 19:43:17.285,-31.3
2017-01-31 19:44:17.273,-31.5
2017-01-31 19:45:17.277,-31.7
2017-01-31 19:46:17.273,-31.9
2017-01-31 19:47:17.272,-32.0
2017-01-31 19:48:17.274,-32.2
2017-01-31 19:49:17.272,-32.4
2017-01-31 19:50:17.283,-32.6
2017-01-31 19:51:17.279,-32.7
2017-01-31 19:52:17.278,-32.9
2017-01-31 19:53:17.270,-33.1
2017-01-31 19:54:17.272,-33.3
2017-01-31 19:55:17.277,-33.4
2017-01-31 19:56:17.272,-33.6
2017-01-31 19:57:17.271,-33.8
2017-01-31 19:58:17.271,-34.0
2017-01-31 19:59:17.276,-34.1
2017-01-31 20:00:17.264,-34.3
2017-01-31 20:01:17.274,-34.5
2017-01-31 20:02:17.272,-34.6
2017-01-31 20:03:17.291,-34.7
2017-01-31 20:04:17.274,-34.9
2017-01-31 20:05:17.269,-35.1
2017-01-31 20:06:17.274,-35.3
2017-01-31 20:07:17.270,-35.4
2017-01-31 20:08:17.276,-35.6
2017-01-31 20:09:17.276,-35.8
2017-01-31 20:10:17.278,-36.0
2017-01-31 20:11:17.275,-36.2
2017-01-31 20:12:17.271,-36.3
2017-01-31 20:13:17.273,-36.5
2017-01-31 20:14:17.271,-36.7
2017-01-31 20:15:17.271,-36.9
2017-01-31 20:16:17.285,-37.0
2017-01-31 20:17:17.272,-37.2
2017-01-31 20:18:17.277,-37.4
2017-01-31 20:19:17.273,-37.6
2017-01-31 20:20:17.278,-37.7
2017-01-31 20:21:17.276,-37.9
2017-01-31 20:22:17.282,-38.1
2017-01-31 20:23:17.282,-38.3
2017-01-31 20:24:17.270,-38.4
2017-01-31 20:25:17.269,-38.6
2017-01-31 20:26:17.282,-38.8
2017-01-31 20:27:17.270,-39.0
2017-01-31 20:28:17.267,-39.1
2017-01-31 20:29:17.298,-39.3
2017-01-31 20:30:17.269,-39.4
2017-01-31 20:31:17.272,-39.6
2017-01-31 20:32:17.271,-39.7
2017-01-31 20:33:17.271,-39.9
2017-01-31 20:34:17.271,-40.1
2017-01-31 20:35:17.269,-40.3
2017-01-31 20:36:17.264,-40.5
2017-01-31 20:37:17.269,-40.6
2017-01-31 20:38:17.280,-40.8
2017-01-31 20:39:17.271,-41.0
2017-01-31 20:40:17.271,-41.2
2017-01-31 20:41:17.272,-41.3
2017-01-31 20:42:17.265,-41.5
2017-01-31 20:43:17.277,-41.7
2017-01-31 20:44:17.272,-41.8
2017-01-31 20:45:17.271,-41.9
2017-01-31 20:46:17.269,-42.1
2017-01-31 20:47:17.272,-42.3
2017-01-31 20:48:17.274,-42.5
2017-01-31 20:49:17.264,-42.6
2017-01-31 20:50:17.287,-42.8
2017-01-31 20:51:17.277,-43.0
2017-01-31 20:52:17.273,-43.2
2017-01-31 20:53:17.270,-43.3
2017-01-31 20:54:17.268,-43.4
2017-01-31 20:55:17.278,-43.6
2017-01-31 20:56:17.273,-43.8
2017-01-31 20:57:17.269,-43.9
2017-01-31 20:58:17.271,-44.1
2017-01-31 20:59:17.264,-44.3
2017-01-31 21:00:17.276,-44.2
2017-01-31 21:01:17.270,-44.4
2017-01-31 21:02:17.271,-44.5
2017-01-31 21:03:17.269,-44.7
2017-01-31 21:04:17.269,-44.9
2017-01-31 21:05:17.274,-45.1
2017-01-31 21:06:17.269,-45.2
2017-01-31 21:07:17.272,-45.4
2017-01-31 21:08:17.271,-45.5
2017-01-31 21:09:17.281,-45.7
2017-01-31 21:10:17.271,-45.8
2017-01-31 21:11:17.280,-46.0
2017-01-31 21:12:17.274,-46.2
2017-01-31 21:13:17.272,-46.4
2017-01-31 21:14:17.269,-46.4
2017-01-31 21:15:17.271,-46.6
2017-01-31 21:16:17.274,-46.8
2017-01-31 21:17:17.284,-47.0
2017-01-31 21:18:17.270,-47.1
2017-01-31 21:19:17.272,-47.2
2017-01-31 21:20:17.273,-47.4
2017-01-31 21:21:17.298,-47.6
2017-01-31 21:22:17.274,-47.7
2017-01-31 21:23:17.282,-47.9
2017-01-31 21:24:17.274,-48.0
2017-01-31 21:25:17.272,-48.2
2017-01-31 21:26:17.271,-48.3
2017-01-31 21:27:17.265,-48.5
2017-01-31 21:28:17.272,-48.7
2017-01-31 21:29:17.272,-48.8
2017-01-31 21:30:17.270,-49.0
2017-01-31 21:31:17.272,-49.1
2017-01-31 21:32:17.271,-49.3
2017-01-31 21:33:17.277,-49.4
2017-01-31 21:34:17.271,-49.6
2017-01-31 21:35:17.275,-49.7
2017-01-31 21:36:17.273,-49.9
2017-01-31 21:37:17.272,-50.0
2017-01-31 21:38:17.268,-50.2
2017-01-31 21:39:17.270,-50.3
2017-01-31 21:40:17.294,-50.4
2017-01-31 21:41:17.274,-50.6
2017-01-31 21:42:17.273,-50.8
2017-01-31 21:43:17.264,-50.9
2017-01-31 21:44:17.272,-51.0
2017-01-31 21:45:17.271,-51.2
2017-01-31 21:46:17.273,-51.4
2017-01-31 21:47:17.273,-51.4
2017-01-31 21:48:17.281,-51.6
2017-01-31 21:49:17.270,-51.8
2017-01-31 21:50:17.270,-51.9
2017-01-31 21:51:17.282,-52.0
2017-01-31 21:52:17.269,-52.2
2017-01-31 21:53:17.274,-52.3
2017-01-31 21:54:17.278,-52.5
2017-01-31 21:55:17.279,-52.6
2017-01-31 21:56:17.277,-52.7
2017-01-31 21:57:17.274,-52.9
2017-01-31 21:58:17.273,-53.0
2017-01-31 21:59:17.277,-53.2
2017-01-31 22:00:17.273,-53.3
2017-01-31 22:01:17.274,-53.4
2017-01-31 22:02:17.273,-53.6
2017-01-31 22:03:17.282,-53.7
2017-01-31 22:04:17.271,-53.8
2017-01-31 22:05:17.268,-53.9
2017-01-31 22:06:17.271,-54.1
2017-01-31 22:07:17.273,-54.2
2017-01-31 22:08:17.273,-54.3
2017-01-31 22:09:17.275,-54.5
2017-01-31 22:10:17.269,-54.6
2017-01-31 22:11:17.274,-54.7
2017-01-31 22:12:17.269,-54.8
2017-01-31 22:13:17.278,-55.0
2017-01-31 22:14:17.272,-55.1
2017-01-31 22:15:17.273,-55.2
2017-01-31 22:16:17.273,-55.3
2017-01-31 22:17:17.274,-55.5
2017-01-31 22:18:17.272,-55.6
2017-01-31 22:19:17.282,-55.7
2017-01-31 22:20:17.272,-55.9
2017-01-31 22:21:17.273,-55.9
2017-01-31 22:22:17.278,-56.1
2017-01-31 22:23:17.274,-56.2
2017-01-31 22:24:17.275,-56.3
2017-01-31 22:25:17.271,-56.4
2017-01-31 22:26:17.270,-56.5
2017-01-31 22:27:17.272,-56.7
2017-01-31 22:28:17.273,-56.8
2017-01-31 22:29:17.284,-56.9
2017-01-31 22:30:17.284,-57.0
2017-01-31 22:31:17.282,-57.1
2017-01-31 22:32:17.270,-57.2
2017-01-31 22:33:17.273,-57.3
2017-01-31 22:34:17.273,-57.4
2017-01-31 22:35:17.283,-57.6
2017-01-31 22:36:17.269,-57.7
2017-01-31 22:37:17.272,-57.7
2017-01-31 22:38:17.275,-57.8
2017-01-31 22:39:17.274,-58.0
2017-01-31 22:40:17.281,-58.1
2017-01-31 22:41:17.272,-58.1
2017-01-31 22:42:17.274,-58.3
2017-01-31 22:43:17.274,-58.4
2017-01-31 22:44:17.272,-58.5
2017-01-31 22:45:17.279,-58.5
2017-01-31 22:46:17.273,-58.6
2017-01-31 22:47:17.275,-58.7
2017-01-31 22:48:17.267,-58.9
2017-01-31 22:49:17.272,-59.0
2017-01-31 22:50:17.272,-59.0
2017-01-31 22:51:17.291,-59.1
2017-01-31 22:52:17.273,-59.2
2017-01-31 22:53:17.270,-59.3
2017-01-31 22:54:17.272,-59.4
2017-01-31 22:55:17.272,-59.5
2017-01-31 22:56:17.270,-59.6
2017-01-31 22:57:17.274,-59.6
2017-01-31 22:58:17.271,-59.7
2017-01-31 22:59:17.271,-59.8
