date and time,Technique-Electrique_VMC Aldes_Energy4[kWh]
2017-03-31 22:02:00,26.27
2017-03-31 23:02:00,26.29
2017-04-01 00:02:00,26.3
2017-04-01 01:02:00,26.31
2017-04-01 02:02:00,26.33
2017-04-01 03:02:00,26.34
2017-04-01 04:02:00,26.36
2017-04-01 05:02:00,26.37
2017-04-01 06:02:00,26.38
2017-04-01 07:02:00,26.4
2017-04-01 08:02:00,26.41
2017-04-01 09:02:00,26.42
2017-04-01 10:02:00,26.44
2017-04-01 11:02:00,26.45
2017-04-01 12:02:00,26.47
2017-04-01 13:02:00,26.48
2017-04-01 14:02:00,26.49
2017-04-01 15:02:00,26.51
2017-04-01 16:02:00,26.52
2017-04-01 17:02:00,26.53
2017-04-01 18:02:00,26.55
2017-04-01 19:02:00,26.56
2017-04-01 20:02:00,26.58
2017-04-01 21:02:00,26.59
2017-04-01 22:02:00,26.6
2017-04-01 23:02:00,26.62
2017-04-02 00:02:00,26.63
2017-04-02 01:02:00,26.64
2017-04-02 02:02:00,26.66
2017-04-02 03:02:00,26.67
2017-04-02 04:02:00,26.68
2017-04-02 05:02:00,26.7
2017-04-02 06:02:00,26.71
2017-04-02 07:02:00,26.73
2017-04-02 08:02:00,26.74
2017-04-02 09:02:00,26.75
2017-04-02 10:02:00,26.77
2017-04-02 11:02:00,26.78
2017-04-02 12:02:00,26.8
2017-04-02 13:02:00,26.81
2017-04-02 14:02:00,26.82
2017-04-02 15:02:00,26.84
2017-04-02 16:02:00,26.85
2017-04-02 17:02:00,26.87
2017-04-02 18:02:00,26.88
2017-04-02 19:02:00,26.9
2017-04-02 20:02:00,26.91
2017-04-02 21:02:00,26.93
2017-04-02 22:02:00,26.94
2017-04-02 23:02:00,26.95
2017-04-03 00:02:00,26.97
2017-04-03 01:02:00,26.98
2017-04-03 02:02:00,26.99
2017-04-03 03:02:00,27.01
2017-04-03 04:02:00,27.02
2017-04-03 05:02:00,27.04
2017-04-03 06:02:00,27.05
2017-04-03 07:02:00,27.06
2017-04-03 08:02:00,27.08
2017-04-03 09:02:00,27.09
2017-04-03 10:02:00,27.11
2017-04-03 11:02:00,27.12
2017-04-03 12:02:00,27.13
2017-04-03 13:02:00,27.15
2017-04-03 14:02:00,27.16
2017-04-03 15:02:00,27.17
2017-04-03 16:02:00,27.19
2017-04-03 17:02:00,27.2
2017-04-03 18:02:00,27.21
2017-04-03 19:02:00,27.23
2017-04-03 20:02:00,27.25
2017-04-03 21:02:00,27.26
2017-04-03 22:02:00,27.27
2017-04-03 23:02:00,27.29
2017-04-04 00:02:00,27.3
2017-04-04 01:02:00,27.32
2017-04-04 02:02:00,27.33
2017-04-04 03:02:00,27.34
2017-04-04 04:02:00,27.36
2017-04-04 05:02:00,27.37
2017-04-04 06:02:00,27.38
2017-04-04 07:02:00,27.4
2017-04-04 08:02:00,27.41
2017-04-04 09:02:00,27.43
2017-04-04 10:02:00,27.44
2017-04-04 11:02:00,27.45
2017-04-04 12:02:00,27.47
2017-04-04 13:02:00,27.48
2017-04-04 14:02:00,27.49
2017-04-04 15:02:00,27.51
2017-04-04 16:02:00,27.52
2017-04-04 17:02:00,27.53
2017-04-04 18:02:00,27.55
2017-04-04 19:02:00,27.56
2017-04-04 20:02:00,27.58
2017-04-04 21:02:00,27.59
2017-04-04 22:02:00,27.6
2017-04-04 23:02:00,27.62
2017-04-05 00:02:00,27.63
2017-04-05 01:02:00,27.64
2017-04-05 02:02:00,27.66
2017-04-05 03:02:00,27.67
2017-04-05 04:02:00,27.69
2017-04-05 05:02:00,27.7
2017-04-05 06:02:00,27.71
2017-04-05 07:02:00,27.73
2017-04-05 08:02:00,27.74
2017-04-05 09:02:00,27.75
2017-04-05 10:02:00,27.77
2017-04-05 11:02:00,27.78
2017-04-05 12:02:00,27.8
2017-04-05 13:02:00,27.81
2017-04-05 14:02:00,27.82
2017-04-05 15:02:00,27.83
2017-04-05 16:02:00,27.84
2017-04-05 17:02:00,27.85
2017-04-05 18:02:00,27.86
2017-04-05 19:02:00,27.88
2017-04-05 20:02:00,27.89
2017-04-05 21:02:00,27.9
2017-04-05 22:02:00,27.91
2017-04-05 23:02:00,27.93
2017-04-06 00:02:00,27.94
2017-04-06 01:02:00,27.95
2017-04-06 02:02:00,27.97
2017-04-06 03:02:00,27.98
2017-04-06 04:02:00,27.99
2017-04-06 05:02:00,28.0
2017-04-06 06:02:00,28.02
2017-04-06 07:02:00,28.03
2017-04-06 08:02:00,28.04
2017-04-06 09:02:00,28.06
2017-04-06 10:02:00,28.07
2017-04-06 11:02:00,28.08
2017-04-06 13:02:00,28.11
2017-04-06 14:02:00,28.12
2017-04-06 15:02:00,28.14
2017-04-06 16:02:00,28.15
2017-04-06 17:02:00,28.16
2017-04-06 18:02:00,28.18
2017-04-06 19:02:00,28.19
2017-04-06 20:02:00,28.2
2017-04-06 21:02:00,28.22
2017-04-06 22:02:00,28.23
2017-04-06 23:02:00,28.25
2017-04-07 00:02:00,28.26
2017-04-07 01:02:00,28.27
2017-04-07 02:02:00,28.29
2017-04-07 03:02:00,28.3
2017-04-07 04:02:00,28.31
2017-04-07 05:02:00,28.33
2017-04-07 06:02:00,28.34
2017-04-07 07:02:00,28.35
2017-04-07 08:02:00,28.37
2017-04-07 09:02:00,28.38
2017-04-07 10:02:00,28.39
2017-04-07 11:02:00,28.41
2017-04-07 12:02:00,28.42
2017-04-07 13:02:00,28.43
2017-04-07 14:02:00,28.45
2017-04-07 15:02:00,28.46
2017-04-07 16:02:00,28.47
2017-04-07 17:02:00,28.49
2017-04-07 18:02:00,28.5
2017-04-07 19:02:00,28.52
2017-04-07 20:02:00,28.53
2017-04-07 21:02:00,28.55
2017-04-07 22:02:00,28.56
2017-04-07 23:02:00,28.57
2017-04-08 00:02:00,28.59
2017-04-08 01:02:00,28.6
2017-04-08 02:02:00,28.61
2017-04-08 03:02:00,28.63
2017-04-08 05:02:00,28.66
2017-04-08 06:02:00,28.67
2017-04-08 07:02:00,28.68
2017-04-08 08:02:00,28.7
2017-04-08 09:02:00,28.71
2017-04-08 10:02:00,28.72
2017-04-08 11:02:00,28.74
2017-04-08 12:02:00,28.75
2017-04-08 13:02:00,28.77
2017-04-08 14:02:00,28.78
2017-04-08 15:02:00,28.8
2017-04-08 16:02:00,28.81
2017-04-08 17:02:00,28.82
2017-04-08 18:02:00,28.84
2017-04-08 19:02:00,28.85
2017-04-08 20:02:00,28.86
2017-04-08 21:02:00,28.88
2017-04-08 22:02:00,28.89
2017-04-08 23:02:00,28.91
2017-04-09 00:02:00,28.92
2017-04-09 01:02:00,28.93
2017-04-09 02:02:00,28.95
2017-04-09 03:02:00,28.96
2017-04-09 04:02:00,28.98
2017-04-09 05:02:00,28.99
2017-04-09 06:02:00,29.0
2017-04-09 07:02:00,29.02
2017-04-09 08:02:00,29.03
2017-04-09 09:02:00,29.05
2017-04-09 10:02:00,29.06
2017-04-09 11:02:00,29.07
2017-04-09 12:02:00,29.09
2017-04-09 13:02:00,29.1
2017-04-09 14:02:00,29.11
2017-04-09 15:02:00,29.12
2017-04-09 16:02:00,29.13
2017-04-09 17:02:00,29.14
2017-04-09 18:02:00,29.15
2017-04-09 19:02:00,29.16
2017-04-09 20:02:00,29.18
2017-04-09 21:02:00,29.19
2017-04-09 22:02:00,29.21
2017-04-09 23:02:00,29.22
2017-04-10 00:02:00,29.23
2017-04-10 01:02:00,29.25
2017-04-10 02:02:00,29.26
2017-04-10 03:02:00,29.27
2017-04-10 04:02:00,29.29
2017-04-10 05:02:00,29.3
2017-04-10 06:02:00,29.31
2017-04-10 07:02:00,29.33
2017-04-10 08:02:00,29.34
2017-04-10 09:02:00,29.35
2017-04-10 10:02:00,29.37
2017-04-10 11:02:00,29.38
2017-04-10 12:02:00,29.39
2017-04-10 13:02:00,29.41
2017-04-10 14:02:00,29.42
2017-04-10 15:02:00,29.43
2017-04-10 16:02:00,29.45
2017-04-10 17:02:00,29.46
2017-04-10 18:02:00,29.48
2017-04-10 19:02:00,29.49
2017-04-10 20:02:00,29.5
2017-04-10 21:02:00,29.52
2017-04-10 22:02:00,29.53
2017-04-10 23:02:00,29.54
2017-04-11 00:02:00,29.56
2017-04-11 01:02:00,29.57
2017-04-11 02:02:00,29.58
2017-04-11 03:02:00,29.6
2017-04-11 04:02:00,29.61
2017-04-11 05:02:00,29.62
2017-04-11 06:02:00,29.64
2017-04-11 07:02:00,29.65
2017-04-11 08:02:00,29.66
2017-04-11 09:02:00,29.68
2017-04-11 10:02:00,29.69
2017-04-11 11:02:00,29.7
2017-04-11 12:02:00,29.71
2017-04-11 13:02:00,29.73
2017-04-11 14:02:00,29.74
2017-04-11 15:02:00,29.75
2017-04-11 16:02:00,29.77
2017-04-11 17:02:00,29.78
2017-04-11 18:02:00,29.8
2017-04-11 19:02:00,29.81
2017-04-11 20:02:00,29.82
2017-04-11 21:02:00,29.84
2017-04-11 22:02:00,29.85
2017-04-11 23:02:00,29.86
2017-04-12 00:02:00,29.88
2017-04-12 01:02:00,29.89
2017-04-12 02:02:00,29.9
2017-04-12 03:02:00,29.92
2017-04-12 04:02:00,29.93
2017-04-12 05:02:00,29.94
2017-04-12 06:02:00,29.96
2017-04-12 07:02:00,29.97
2017-04-12 08:02:00,29.98
2017-04-12 09:02:00,30.0
2017-04-12 10:02:00,30.01
2017-04-12 11:02:00,30.02
2017-04-12 12:02:00,30.04
2017-04-12 13:02:00,30.05
2017-04-12 14:02:00,30.06
2017-04-12 15:02:00,30.07
2017-04-12 16:02:00,30.08
2017-04-12 17:02:00,30.09
2017-04-12 18:02:00,30.1
2017-04-12 19:02:00,30.12
2017-04-12 20:02:00,30.13
2017-04-12 21:02:00,30.15
2017-04-12 22:02:00,30.16
2017-04-12 23:02:00,30.17
2017-04-13 00:02:00,30.19
2017-04-13 01:02:00,30.2
2017-04-13 02:02:00,30.21
2017-04-13 03:02:00,30.23
2017-04-13 04:02:00,30.24
2017-04-13 05:02:00,30.25
2017-04-13 06:02:00,30.27
2017-04-13 07:02:00,30.28
2017-04-13 08:02:00,30.29
2017-04-13 09:02:00,30.3
2017-04-13 10:02:00,30.32
2017-04-13 11:02:00,30.33
2017-04-13 12:02:00,30.34
2017-04-13 13:02:00,30.36
2017-04-13 14:02:00,30.37
2017-04-13 15:02:00,30.38
2017-04-13 16:02:00,30.39
2017-04-13 17:02:00,30.4
2017-04-13 18:02:00,30.41
2017-04-13 19:02:00,30.42
2017-04-13 20:02:00,30.44
2017-04-13 21:02:00,30.44
2017-04-13 22:02:00,30.45
2017-04-13 23:02:00,30.46
2017-04-14 00:02:00,30.47
2017-04-14 01:02:00,30.48
2017-04-14 02:02:00,30.48
2017-04-14 03:02:00,30.49
2017-04-14 04:02:00,30.5
2017-04-14 05:02:00,30.51
2017-04-14 06:02:00,30.52
2017-04-14 07:02:00,30.53
2017-04-14 08:02:00,30.53
2017-04-14 09:02:00,30.54
2017-04-14 10:02:00,30.55
2017-04-14 11:02:00,30.56
2017-04-14 12:02:00,30.57
2017-04-14 13:02:00,30.57
2017-04-14 14:02:00,30.58
2017-04-14 15:02:00,30.59
2017-04-14 16:02:00,30.6
2017-04-14 17:02:00,30.61
2017-04-14 18:02:00,30.62
2017-04-14 19:02:00,30.63
2017-04-14 20:02:00,30.64
2017-04-14 21:02:00,30.66
2017-04-14 22:02:00,30.67
2017-04-14 23:02:00,30.68
2017-04-15 00:02:00,30.7
2017-04-15 01:02:00,30.71
2017-04-15 02:02:00,30.72
2017-04-15 03:02:00,30.73
2017-04-15 04:02:00,30.75
2017-04-15 05:02:00,30.76
2017-04-15 06:02:00,30.77
2017-04-15 07:02:00,30.79
2017-04-15 08:02:00,30.8
2017-04-15 09:02:00,30.81
2017-04-15 10:02:00,30.83
2017-04-15 11:02:00,30.84
2017-04-15 12:02:00,30.85
2017-04-15 13:02:00,30.87
2017-04-15 14:02:00,30.88
2017-04-15 15:02:00,30.89
2017-04-15 16:02:00,30.9
2017-04-15 18:02:00,30.93
2017-04-15 19:02:00,30.94
2017-04-15 20:02:00,30.96
2017-04-15 21:02:00,30.97
2017-04-15 22:02:00,30.98
2017-04-15 23:02:00,31.0
2017-04-16 00:02:00,31.01
2017-04-16 01:02:00,31.02
2017-04-16 02:02:00,31.04
2017-04-16 03:02:00,31.05
2017-04-16 04:02:00,31.06
2017-04-16 05:02:00,31.08
2017-04-16 06:02:00,31.09
2017-04-16 07:02:00,31.1
2017-04-16 08:02:00,31.12
2017-04-16 09:02:00,31.13
2017-04-16 10:02:00,31.14
2017-04-16 11:02:00,31.16
2017-04-16 12:02:00,31.17
2017-04-16 13:02:00,31.18
2017-04-16 14:02:00,31.18
2017-04-16 15:02:00,31.19
2017-04-16 16:02:00,31.2
2017-04-16 17:02:00,31.21
2017-04-16 18:02:00,31.22
2017-04-16 19:02:00,31.23
2017-04-16 20:02:00,31.25
2017-04-16 21:02:00,31.26
2017-04-16 22:02:00,31.27
2017-04-16 23:02:00,31.29
2017-04-17 00:02:00,31.3
2017-04-17 01:02:00,31.31
2017-04-17 02:02:00,31.32
2017-04-17 03:02:00,31.34
2017-04-17 04:02:00,31.35
2017-04-17 05:02:00,31.36
2017-04-17 06:02:00,31.38
2017-04-17 07:02:00,31.39
2017-04-17 08:02:00,31.4
2017-04-17 09:02:00,31.42
2017-04-17 10:02:00,31.43
2017-04-17 11:02:00,31.45
2017-04-17 12:02:00,31.45
2017-04-17 13:02:00,31.46
2017-04-17 14:02:00,31.47
2017-04-17 15:02:00,31.48
2017-04-17 16:02:00,31.49
2017-04-17 17:02:00,31.5
2017-04-17 18:02:00,31.5
2017-04-17 19:02:00,31.51
2017-04-17 20:02:00,31.52
2017-04-17 21:02:00,31.53
2017-04-17 22:02:00,31.54
2017-04-17 23:02:00,31.55
2017-04-18 00:02:00,31.55
2017-04-18 01:02:00,31.56
2017-04-18 02:02:00,31.57
2017-04-18 03:02:00,31.58
2017-04-18 04:02:00,31.59
2017-04-18 05:02:00,31.6
2017-04-18 06:02:00,31.61
2017-04-18 07:02:00,31.61
2017-04-18 08:02:00,31.62
2017-04-18 09:02:00,31.63
2017-04-18 10:02:00,31.64
2017-04-18 11:02:00,31.65
2017-04-18 12:02:00,31.65
2017-04-18 13:02:00,31.66
2017-04-18 14:02:00,31.67
2017-04-18 15:02:00,31.68
2017-04-18 16:02:00,31.69
2017-04-18 17:02:00,31.69
2017-04-18 18:02:00,31.7
2017-04-18 19:02:00,31.71
2017-04-18 20:02:00,31.72
2017-04-18 21:02:00,31.73
2017-04-18 22:02:00,31.74
2017-04-18 23:02:00,31.75
2017-04-19 00:02:00,31.76
2017-04-19 01:02:00,31.77
2017-04-19 02:02:00,31.79
2017-04-19 03:02:00,31.8
2017-04-19 04:02:00,31.81
2017-04-19 05:02:00,31.82
2017-04-19 06:02:00,31.84
2017-04-19 07:02:00,31.85
2017-04-19 08:02:00,31.86
2017-04-19 09:02:00,31.87
2017-04-19 10:02:00,31.89
2017-04-19 11:02:00,31.9
2017-04-19 12:02:00,31.91
2017-04-19 13:02:00,31.92
2017-04-19 14:02:00,31.92
2017-04-19 15:02:00,31.93
2017-04-19 16:02:00,31.94
2017-04-19 17:02:00,31.95
2017-04-19 18:02:00,31.96
2017-04-19 19:02:00,31.96
2017-04-19 20:02:00,31.97
2017-04-19 21:02:00,31.98
2017-04-19 22:02:00,31.99
2017-04-19 23:02:00,32.0
2017-04-20 00:02:00,32.02
2017-04-20 01:02:00,32.03
2017-04-20 02:02:00,32.04
2017-04-20 03:02:00,32.05
2017-04-20 04:02:00,32.06
2017-04-20 05:02:00,32.08
2017-04-20 06:02:00,32.09
2017-04-20 07:02:00,32.1
2017-04-20 08:02:00,32.11
2017-04-20 09:02:00,32.13
2017-04-20 10:02:00,32.14
2017-04-20 11:02:00,32.15
2017-04-20 12:02:00,32.16
2017-04-20 13:02:00,32.17
2017-04-20 14:02:00,32.18
2017-04-20 15:02:00,32.19
2017-04-20 16:02:00,32.2
2017-04-20 17:02:00,32.2
2017-04-20 18:02:00,32.21
2017-04-20 19:02:00,32.22
2017-04-20 20:02:00,32.23
2017-04-20 21:02:00,32.24
2017-04-20 22:02:00,32.26
2017-04-20 23:02:00,32.27
2017-04-21 00:02:00,32.28
2017-04-21 01:02:00,32.29
2017-04-21 02:02:00,32.3
2017-04-21 03:02:00,32.32
2017-04-21 04:02:00,32.33
2017-04-21 05:02:00,32.34
2017-04-21 06:02:00,32.35
2017-04-21 07:02:00,32.37
2017-04-21 08:02:00,32.38
2017-04-21 09:02:00,32.39
2017-04-21 10:02:00,32.4
2017-04-21 11:02:00,32.41
2017-04-21 12:02:00,32.43
2017-04-21 13:02:00,32.44
2017-04-21 14:02:00,32.45
2017-04-21 15:02:00,32.46
2017-04-21 16:02:00,32.46
2017-04-21 17:02:00,32.47
2017-04-21 18:02:00,32.48
2017-04-21 19:02:00,32.49
2017-04-21 20:02:00,32.5
2017-04-21 21:02:00,32.51
2017-04-21 22:02:00,32.51
2017-04-21 23:02:00,32.52
2017-04-22 00:02:00,32.53
2017-04-22 01:02:00,32.54
2017-04-22 02:02:00,32.55
2017-04-22 03:02:00,32.55
2017-04-22 04:02:00,32.56
2017-04-22 05:02:00,32.57
2017-04-22 06:02:00,32.58
2017-04-22 07:02:00,32.59
2017-04-22 08:02:00,32.59
2017-04-22 09:02:00,32.6
2017-04-22 10:02:00,32.61
2017-04-22 11:02:00,32.62
2017-04-22 12:02:00,32.63
2017-04-22 13:02:00,32.64
2017-04-22 14:02:00,32.65
2017-04-22 15:02:00,32.66
2017-04-22 16:02:00,32.66
2017-04-22 17:02:00,32.67
2017-04-22 18:02:00,32.68
2017-04-22 19:02:00,32.69
2017-04-22 20:02:00,32.7
2017-04-22 21:02:00,32.72
2017-04-22 22:02:00,32.73
2017-04-22 23:02:00,32.74
2017-04-23 00:02:00,32.75
2017-04-23 01:02:00,32.77
2017-04-23 02:02:00,32.78
2017-04-23 03:02:00,32.79
2017-04-23 04:02:00,32.8
2017-04-23 06:02:00,32.83
2017-04-23 07:02:00,32.84
2017-04-23 08:02:00,32.85
2017-04-23 09:02:00,32.87
2017-04-23 10:02:00,32.88
2017-04-23 11:02:00,32.89
2017-04-23 12:02:00,32.91
2017-04-23 13:02:00,32.92
2017-04-23 14:02:00,32.92
2017-04-23 15:02:00,32.93
2017-04-23 16:02:00,32.94
2017-04-23 17:02:00,32.95
2017-04-23 18:02:00,32.96
2017-04-23 19:02:00,32.97
2017-04-23 20:02:00,32.97
2017-04-23 21:02:00,32.98
2017-04-23 22:02:00,32.99
2017-04-23 23:02:00,33.0
2017-04-24 00:02:00,33.01
2017-04-24 01:02:00,33.01
2017-04-24 02:02:00,33.02
2017-04-24 03:02:00,33.03
2017-04-24 04:02:00,33.04
2017-04-24 05:02:00,33.05
2017-04-24 06:02:00,33.05
2017-04-24 07:02:00,33.06
2017-04-24 08:02:00,33.07
2017-04-24 09:02:00,33.08
2017-04-24 10:02:00,33.09
2017-04-24 11:02:00,33.1
2017-04-24 12:02:00,33.12
2017-04-24 13:02:00,33.13
2017-04-24 14:02:00,33.15
2017-04-24 15:02:00,33.16
2017-04-24 16:02:00,33.18
2017-04-24 17:02:00,33.19
2017-04-24 18:02:00,33.21
2017-04-24 19:02:00,33.22
2017-04-24 20:02:00,33.24
2017-04-24 21:02:00,33.25
2017-04-24 22:02:00,33.27
2017-04-24 23:02:00,33.28
2017-04-25 00:02:00,33.3
2017-04-25 01:02:00,33.31
2017-04-25 02:02:00,33.33
2017-04-25 03:02:00,33.34
2017-04-25 04:02:00,33.35
2017-04-25 05:02:00,33.37
2017-04-25 06:02:00,33.38
2017-04-25 07:02:00,33.4
2017-04-25 08:02:00,33.41
2017-04-25 09:02:00,33.43
2017-04-25 10:02:00,33.44
2017-04-25 11:02:00,33.46
2017-04-25 12:02:00,33.47
2017-04-25 13:02:00,33.49
2017-04-25 14:02:00,33.5
2017-04-25 15:02:00,33.52
2017-04-25 16:02:00,33.53
2017-04-25 17:02:00,33.55
2017-04-25 18:02:00,33.56
2017-04-25 19:02:00,33.58
2017-04-25 20:02:00,33.59
2017-04-25 21:02:00,33.61
2017-04-25 22:02:00,33.62
2017-04-25 23:02:00,33.64
2017-04-26 00:02:00,33.65
2017-04-26 01:02:00,33.67
2017-04-26 02:02:00,33.68
2017-04-26 03:02:00,33.7
2017-04-26 04:02:00,33.71
2017-04-26 05:02:00,33.73
2017-04-26 06:02:00,33.74
2017-04-26 07:02:00,33.76
2017-04-26 08:02:00,33.77
2017-04-26 09:02:00,33.79
2017-04-26 10:02:00,33.8
2017-04-26 11:02:00,33.82
2017-04-26 12:02:00,33.83
2017-04-26 13:02:00,33.85
2017-04-26 14:02:00,33.86
2017-04-26 15:02:00,33.88
2017-04-26 16:02:00,33.89
2017-04-26 17:02:00,33.91
2017-04-26 18:02:00,33.92
2017-04-26 19:02:00,33.94
2017-04-26 20:02:00,33.95
2017-04-26 21:02:00,33.97
2017-04-26 22:02:00,33.98
2017-04-26 23:02:00,34.0
2017-04-27 00:02:00,34.01
2017-04-27 01:02:00,34.03
2017-04-27 02:02:00,34.04
2017-04-27 03:02:00,34.06
2017-04-27 04:02:00,34.07
2017-04-27 05:02:00,34.09
2017-04-27 06:02:00,34.1
2017-04-27 07:02:00,34.12
2017-04-27 08:02:00,34.13
2017-04-27 09:02:00,34.15
2017-04-27 10:02:00,34.16
2017-04-27 11:02:00,34.18
2017-04-27 12:02:00,34.19
2017-04-27 13:02:00,34.21
2017-04-27 14:02:00,34.22
2017-04-27 15:02:00,34.23
2017-04-27 16:02:00,34.25
2017-04-27 17:02:00,34.27
2017-04-27 18:02:00,34.28
2017-04-27 19:02:00,34.29
2017-04-27 20:02:00,34.31
2017-04-27 21:02:00,34.32
2017-04-27 22:02:00,34.33
2017-04-27 23:02:00,34.34
2017-04-28 00:02:00,34.36
2017-04-28 01:02:00,34.37
2017-04-28 02:02:00,34.38
2017-04-28 03:02:00,34.4
2017-04-28 04:02:00,34.41
2017-04-28 05:02:00,34.42
2017-04-28 06:02:00,34.43
2017-04-28 07:02:00,34.44
2017-04-28 08:02:00,34.46
2017-04-28 09:02:00,34.47
2017-04-28 10:02:00,34.48
2017-04-28 11:02:00,34.49
2017-04-28 12:02:00,34.51
2017-04-28 13:02:00,34.52
2017-04-28 14:02:00,34.53
2017-04-28 15:02:00,34.54
2017-04-28 16:02:00,34.55
2017-04-28 17:02:00,34.57
2017-04-28 18:02:00,34.58
2017-04-28 19:02:00,34.59
2017-04-28 20:02:00,34.61
2017-04-28 21:02:00,34.62
2017-04-28 22:02:00,34.63
2017-04-28 23:02:00,34.65
2017-04-29 00:02:00,34.66
2017-04-29 01:02:00,34.67
2017-04-29 02:02:00,34.69
2017-04-29 03:02:00,34.7
2017-04-29 04:02:00,34.71
2017-04-29 05:02:00,34.72
2017-04-29 06:02:00,34.73
2017-04-29 07:02:00,34.75
2017-04-29 08:02:00,34.76
2017-04-29 09:02:00,34.77
2017-04-29 10:02:00,34.78
2017-04-29 11:02:00,34.8
2017-04-29 12:02:00,34.81
2017-04-29 13:02:00,34.81
2017-04-29 14:02:00,34.82
2017-04-29 15:02:00,34.83
2017-04-29 16:02:00,34.84
2017-04-29 17:02:00,34.85
2017-04-29 18:02:00,34.85
2017-04-29 19:02:00,34.86
2017-04-29 20:02:00,34.87
2017-04-29 21:02:00,34.88
2017-04-29 22:02:00,34.89
2017-04-29 23:02:00,34.9
2017-04-30 00:02:00,34.92
2017-04-30 01:02:00,34.93
2017-04-30 02:02:00,34.94
2017-04-30 03:02:00,34.95
2017-04-30 04:02:00,34.97
2017-04-30 05:02:00,34.98
2017-04-30 06:02:00,34.99
2017-04-30 07:02:00,35.0
2017-04-30 08:02:00,35.02
2017-04-30 09:02:00,35.03
2017-04-30 10:02:00,35.04
2017-04-30 11:02:00,35.05
2017-04-30 12:02:00,35.06
2017-04-30 13:02:00,35.07
2017-04-30 14:02:00,35.08
2017-04-30 15:02:00,35.09
2017-04-30 16:02:00,35.1
2017-04-30 18:02:00,35.11
2017-04-30 19:02:00,35.12
2017-04-30 20:02:00,35.13
2017-04-30 21:02:00,35.14
