date and time,Technique-Electrique_PAC_Energy1[kWh]
2017-03-31 22:02:00,846.23
2017-03-31 23:02:00,846.23
2017-04-01 00:02:00,846.23
2017-04-01 01:02:00,846.23
2017-04-01 02:02:00,846.23
2017-04-01 03:02:00,846.23
2017-04-01 04:02:00,846.23
2017-04-01 05:02:00,846.23
2017-04-01 06:02:00,846.23
2017-04-01 07:02:00,846.23
2017-04-01 08:02:00,846.23
2017-04-01 09:02:00,846.23
2017-04-01 10:02:00,846.23
2017-04-01 11:02:00,846.23
2017-04-01 12:02:00,846.23
2017-04-01 13:02:00,846.23
2017-04-01 14:02:00,846.59
2017-04-01 15:02:00,847.05
2017-04-01 16:02:00,847.49
2017-04-01 17:02:00,847.87
2017-04-01 18:02:00,847.92
2017-04-01 19:02:00,847.92
2017-04-01 20:02:00,847.92
2017-04-01 21:02:00,847.92
2017-04-01 22:02:00,847.92
2017-04-01 23:02:00,847.92
2017-04-02 00:02:00,847.92
2017-04-02 01:02:00,847.92
2017-04-02 02:02:00,848.65
2017-04-02 03:02:00,849.33
2017-04-02 04:02:00,850.21
2017-04-02 05:02:00,850.99
2017-04-02 06:02:00,851.66
2017-04-02 07:02:00,852.3
2017-04-02 08:02:00,852.68
2017-04-02 09:02:00,853.24
2017-04-02 10:02:00,853.3
2017-04-02 11:02:00,853.3
2017-04-02 12:02:00,853.3
2017-04-02 13:02:00,853.47
2017-04-02 14:02:00,854.07
2017-04-02 15:02:00,854.39
2017-04-02 16:02:00,854.39
2017-04-02 17:02:00,854.39
2017-04-02 18:02:00,854.4
2017-04-02 19:02:00,854.98
2017-04-02 20:02:00,855.19
2017-04-02 21:02:00,855.19
2017-04-02 22:02:00,855.19
2017-04-02 23:02:00,855.19
2017-04-03 00:02:00,855.19
2017-04-03 01:02:00,855.22
2017-04-03 02:02:00,856.24
2017-04-03 03:02:00,857.12
2017-04-03 04:02:00,857.85
2017-04-03 05:02:00,858.51
2017-04-03 06:02:00,858.75
2017-04-03 07:02:00,858.75
2017-04-03 08:02:00,858.75
2017-04-03 09:02:00,858.75
2017-04-03 10:02:00,858.75
2017-04-03 11:02:00,858.75
2017-04-03 12:02:00,858.75
2017-04-03 13:02:00,858.75
2017-04-03 14:02:00,858.75
2017-04-03 15:02:00,858.75
2017-04-03 16:02:00,858.75
2017-04-03 17:02:00,858.75
2017-04-03 18:02:00,858.75
2017-04-03 19:02:00,858.75
2017-04-03 20:02:00,858.75
2017-04-03 21:02:00,858.75
2017-04-03 22:02:00,858.75
2017-04-03 23:02:00,858.75
2017-04-04 00:02:00,858.75
2017-04-04 01:02:00,858.75
2017-04-04 02:02:00,858.75
2017-04-04 03:02:00,858.75
2017-04-04 04:02:00,858.75
2017-04-04 05:02:00,858.75
2017-04-04 06:02:00,858.75
2017-04-04 07:02:00,858.75
2017-04-04 08:02:00,858.75
2017-04-04 09:02:00,858.75
2017-04-04 10:02:00,858.75
2017-04-04 11:02:00,858.75
2017-04-04 12:02:00,858.75
2017-04-04 13:02:00,858.75
2017-04-04 14:02:00,858.75
2017-04-04 15:02:00,858.75
2017-04-04 16:02:00,858.75
2017-04-04 17:02:00,858.75
2017-04-04 18:02:00,858.75
2017-04-04 19:02:00,858.75
2017-04-04 20:02:00,858.75
2017-04-04 21:02:00,858.75
2017-04-04 22:02:00,858.75
2017-04-04 23:02:00,858.75
2017-04-05 00:02:00,858.75
2017-04-05 01:02:00,858.75
2017-04-05 02:02:00,858.82
2017-04-05 03:02:00,859.55
2017-04-05 04:02:00,860.34
2017-04-05 05:02:00,860.78
2017-04-05 06:02:00,860.99
2017-04-05 07:02:00,860.99
2017-04-05 08:02:00,860.99
2017-04-05 09:02:00,860.99
2017-04-05 10:02:00,860.99
2017-04-05 11:02:00,860.99
2017-04-05 12:02:00,860.99
2017-04-05 13:02:00,860.99
2017-04-05 14:02:00,860.99
2017-04-05 15:02:00,860.99
2017-04-05 16:02:00,860.99
2017-04-05 17:02:00,860.99
2017-04-05 18:02:00,860.99
2017-04-05 19:02:00,860.99
2017-04-05 20:02:00,860.99
2017-04-05 21:02:00,860.99
2017-04-05 22:02:00,860.99
2017-04-05 23:02:00,860.99
2017-04-06 00:02:00,860.99
2017-04-06 01:02:00,860.99
2017-04-06 02:02:00,860.99
2017-04-06 03:02:00,860.99
2017-04-06 04:02:00,860.99
2017-04-06 05:02:00,860.99
2017-04-06 06:02:00,860.99
2017-04-06 07:02:00,860.99
2017-04-06 08:02:00,860.99
2017-04-06 09:02:00,860.99
2017-04-06 10:02:00,860.99
2017-04-06 11:02:00,860.99
2017-04-06 12:02:00,860.99
2017-04-06 13:02:00,860.99
2017-04-06 14:02:00,860.99
2017-04-06 15:02:00,860.99
2017-04-06 16:02:00,860.99
2017-04-06 17:02:00,860.99
2017-04-06 18:02:00,860.99
2017-04-06 19:02:00,860.99
2017-04-06 20:02:00,860.99
2017-04-06 21:02:00,860.99
2017-04-06 22:02:00,860.99
2017-04-06 23:02:00,860.99
2017-04-07 01:02:00,860.99
2017-04-07 02:02:00,860.99
2017-04-07 03:02:00,860.99
2017-04-07 04:02:00,860.99
2017-04-07 05:02:00,860.99
2017-04-07 06:02:00,860.99
2017-04-07 07:02:00,860.99
2017-04-07 08:02:00,860.99
2017-04-07 09:02:00,860.99
2017-04-07 10:02:00,860.99
2017-04-07 11:02:00,860.99
2017-04-07 12:02:00,860.99
2017-04-07 13:02:00,860.99
2017-04-07 14:02:00,860.99
2017-04-07 15:02:00,860.99
2017-04-07 16:02:00,860.99
2017-04-07 17:02:00,860.99
2017-04-07 18:02:00,860.99
2017-04-07 19:02:00,860.99
2017-04-07 20:02:00,860.99
2017-04-07 21:02:00,860.99
2017-04-07 22:02:00,860.99
2017-04-07 23:02:00,860.99
2017-04-08 00:02:00,860.99
2017-04-08 01:02:00,860.99
2017-04-08 02:02:00,860.99
2017-04-08 03:02:00,860.99
2017-04-08 04:02:00,860.99
2017-04-08 05:02:00,860.99
2017-04-08 06:02:00,860.99
2017-04-08 07:02:00,860.99
2017-04-08 08:02:00,860.99
2017-04-08 09:02:00,860.99
2017-04-08 10:02:00,860.99
2017-04-08 11:02:00,860.99
2017-04-08 12:02:00,860.99
2017-04-08 13:02:00,860.99
2017-04-08 14:02:00,860.99
2017-04-08 15:02:00,860.99
2017-04-08 16:02:00,860.99
2017-04-08 17:02:00,860.99
2017-04-08 18:02:00,860.99
2017-04-08 19:02:00,860.99
2017-04-08 20:02:00,860.99
2017-04-08 21:02:00,860.99
2017-04-08 22:02:00,860.99
2017-04-08 23:02:00,860.99
2017-04-09 00:02:00,860.99
2017-04-09 01:02:00,860.99
2017-04-09 02:02:00,860.99
2017-04-09 03:02:00,860.99
2017-04-09 04:02:00,860.99
2017-04-09 05:02:00,860.99
2017-04-09 06:02:00,860.99
2017-04-09 07:02:00,860.99
2017-04-09 08:02:00,860.99
2017-04-09 09:02:00,860.99
2017-04-09 10:02:00,860.99
2017-04-09 11:02:00,860.99
2017-04-09 12:02:00,860.99
2017-04-09 13:02:00,860.99
2017-04-09 14:02:00,860.99
2017-04-09 15:02:00,860.99
2017-04-09 16:02:00,860.99
2017-04-09 17:02:00,860.99
2017-04-09 18:02:00,860.99
2017-04-09 19:02:00,860.99
2017-04-09 20:02:00,860.99
2017-04-09 21:02:00,860.99
2017-04-09 22:02:00,860.99
2017-04-09 23:02:00,860.99
2017-04-10 00:02:00,860.99
2017-04-10 01:02:00,860.99
2017-04-10 02:02:00,860.99
2017-04-10 03:02:00,860.99
2017-04-10 04:02:00,860.99
2017-04-10 05:02:00,860.99
2017-04-10 06:02:00,860.99
2017-04-10 07:02:00,860.99
2017-04-10 08:02:00,860.99
2017-04-10 09:02:00,860.99
2017-04-10 10:02:00,860.99
2017-04-10 11:02:00,860.99
2017-04-10 12:02:00,860.99
2017-04-10 13:02:00,860.99
2017-04-10 14:02:00,860.99
2017-04-10 15:02:00,860.99
2017-04-10 16:02:00,860.99
2017-04-10 17:02:00,860.99
2017-04-10 18:02:00,860.99
2017-04-10 19:02:00,860.99
2017-04-10 20:02:00,860.99
2017-04-10 21:02:00,860.99
2017-04-10 22:02:00,860.99
2017-04-10 23:02:00,860.99
2017-04-11 00:02:00,860.99
2017-04-11 01:02:00,860.99
2017-04-11 02:02:00,860.99
2017-04-11 03:02:00,860.99
2017-04-11 04:02:00,860.99
2017-04-11 05:02:00,860.99
2017-04-11 06:02:00,860.99
2017-04-11 07:02:00,860.99
2017-04-11 08:02:00,860.99
2017-04-11 09:02:00,860.99
2017-04-11 10:02:00,860.99
2017-04-11 11:02:00,860.99
2017-04-11 12:02:00,860.99
2017-04-11 13:02:00,860.99
2017-04-11 14:02:00,860.99
2017-04-11 15:02:00,860.99
2017-04-11 16:02:00,860.99
2017-04-11 17:02:00,860.99
2017-04-11 18:02:00,860.99
2017-04-11 19:02:00,860.99
2017-04-11 20:02:00,860.99
2017-04-11 21:02:00,860.99
2017-04-11 22:02:00,860.99
2017-04-11 23:02:00,860.99
2017-04-12 00:02:00,860.99
2017-04-12 01:02:00,860.99
2017-04-12 02:02:00,860.99
2017-04-12 03:02:00,860.99
2017-04-12 04:02:00,860.99
2017-04-12 05:02:00,860.99
2017-04-12 06:02:00,860.99
2017-04-12 07:02:00,860.99
2017-04-12 08:02:00,860.99
2017-04-12 09:02:00,860.99
2017-04-12 10:02:00,860.99
2017-04-12 11:02:00,860.99
2017-04-12 12:02:00,860.99
2017-04-12 13:02:00,860.99
2017-04-12 14:02:00,860.99
2017-04-12 15:02:00,860.99
2017-04-12 16:02:00,860.99
2017-04-12 17:02:00,860.99
2017-04-12 18:02:00,860.99
2017-04-12 19:02:00,860.99
2017-04-12 20:02:00,860.99
2017-04-12 21:02:00,860.99
2017-04-12 22:02:00,860.99
2017-04-12 23:02:00,860.99
2017-04-13 00:02:00,860.99
2017-04-13 01:02:00,860.99
2017-04-13 02:02:00,860.99
2017-04-13 03:02:00,860.99
2017-04-13 04:02:00,860.99
2017-04-13 05:02:00,860.99
2017-04-13 06:02:00,860.99
2017-04-13 07:02:00,860.99
2017-04-13 08:02:00,860.99
2017-04-13 09:02:00,860.99
2017-04-13 10:02:00,860.99
2017-04-13 11:02:00,860.99
2017-04-13 12:02:00,860.99
2017-04-13 13:02:00,860.99
2017-04-13 14:02:00,860.99
2017-04-13 15:02:00,860.99
2017-04-13 16:02:00,860.99
2017-04-13 17:02:00,860.99
2017-04-13 18:02:00,860.99
2017-04-13 19:02:00,860.99
2017-04-13 20:02:00,860.99
2017-04-13 21:02:00,860.99
2017-04-13 22:02:00,860.99
2017-04-13 23:02:00,860.99
2017-04-14 00:02:00,860.99
2017-04-14 01:02:00,860.99
2017-04-14 02:02:00,860.99
2017-04-14 03:02:00,860.99
2017-04-14 04:02:00,860.99
2017-04-14 05:02:00,860.99
2017-04-14 06:02:00,860.99
2017-04-14 07:02:00,860.99
2017-04-14 08:02:00,860.99
2017-04-14 09:02:00,860.99
2017-04-14 10:02:00,860.99
2017-04-14 11:02:00,860.99
2017-04-14 13:02:00,860.99
2017-04-14 14:02:00,860.99
2017-04-14 15:02:00,860.99
2017-04-14 16:02:00,860.99
2017-04-14 17:02:00,860.99
2017-04-14 18:02:00,860.99
2017-04-14 19:02:00,860.99
2017-04-14 20:02:00,860.99
2017-04-14 21:02:00,860.99
2017-04-14 22:02:00,860.99
2017-04-14 23:02:00,860.99
2017-04-15 00:02:00,860.99
2017-04-15 01:02:00,860.99
2017-04-15 02:02:00,860.99
2017-04-15 03:02:00,860.99
2017-04-15 04:02:00,860.99
2017-04-15 05:02:00,860.99
2017-04-15 06:02:00,860.99
2017-04-15 07:02:00,860.99
2017-04-15 08:02:00,860.99
2017-04-15 09:02:00,860.99
2017-04-15 10:02:00,860.99
2017-04-15 11:02:00,860.99
2017-04-15 12:02:00,860.99
2017-04-15 13:02:00,860.99
2017-04-15 14:02:00,860.99
2017-04-15 15:02:00,860.99
2017-04-15 16:02:00,860.99
2017-04-15 17:02:00,860.99
2017-04-15 18:02:00,860.99
2017-04-15 19:02:00,860.99
2017-04-15 20:02:00,860.99
2017-04-15 21:02:00,860.99
2017-04-15 22:02:00,860.99
2017-04-15 23:02:00,860.99
2017-04-16 00:02:00,860.99
2017-04-16 01:02:00,860.99
2017-04-16 02:02:00,860.99
2017-04-16 03:02:00,860.99
2017-04-16 04:02:00,860.99
2017-04-16 05:02:00,860.99
2017-04-16 06:02:00,860.99
2017-04-16 07:02:00,860.99
2017-04-16 08:02:00,860.99
2017-04-16 09:02:00,861.12
2017-04-16 10:02:00,861.12
2017-04-16 11:02:00,861.12
2017-04-16 12:02:00,861.12
2017-04-16 13:02:00,861.12
2017-04-16 14:02:00,861.12
2017-04-16 15:02:00,861.12
2017-04-16 16:02:00,861.12
2017-04-16 17:02:00,861.12
2017-04-16 18:02:00,861.12
2017-04-16 19:02:00,861.12
2017-04-16 20:02:00,861.12
2017-04-16 21:02:00,861.12
2017-04-16 22:02:00,861.12
2017-04-16 23:02:00,861.12
2017-04-17 00:02:00,861.12
2017-04-17 01:02:00,861.12
2017-04-17 02:02:00,861.12
2017-04-17 03:02:00,861.12
2017-04-17 04:02:00,861.12
2017-04-17 05:02:00,861.12
2017-04-17 06:02:00,861.12
2017-04-17 07:02:00,861.12
2017-04-17 08:02:00,861.12
2017-04-17 09:02:00,861.12
2017-04-17 10:02:00,861.12
2017-04-17 11:02:00,861.12
2017-04-17 12:02:00,861.12
2017-04-17 13:02:00,861.12
2017-04-17 14:02:00,861.12
2017-04-17 15:02:00,861.12
2017-04-17 16:02:00,861.12
2017-04-17 17:02:00,861.12
2017-04-17 18:02:00,861.12
2017-04-17 19:02:00,861.12
2017-04-17 20:02:00,861.12
2017-04-17 21:02:00,861.12
2017-04-17 22:02:00,861.12
2017-04-17 23:02:00,861.12
2017-04-18 00:02:00,861.12
2017-04-18 01:02:00,861.12
2017-04-18 02:02:00,861.12
2017-04-18 03:02:00,861.12
2017-04-18 04:02:00,861.12
2017-04-18 05:02:00,861.12
2017-04-18 06:02:00,861.12
2017-04-18 07:02:00,861.12
2017-04-18 08:02:00,861.12
2017-04-18 09:02:00,861.12
2017-04-18 10:02:00,861.12
2017-04-18 11:02:00,861.12
2017-04-18 12:02:00,861.12
2017-04-18 13:02:00,861.12
2017-04-18 14:02:00,861.12
2017-04-18 15:02:00,861.12
2017-04-18 16:02:00,861.12
2017-04-18 17:02:00,861.12
2017-04-18 18:02:00,861.12
2017-04-18 19:02:00,861.12
2017-04-18 20:02:00,861.12
2017-04-18 21:02:00,861.12
2017-04-18 22:02:00,861.12
2017-04-18 23:02:00,861.12
2017-04-19 00:02:00,861.12
2017-04-19 01:02:00,861.12
2017-04-19 02:02:00,861.12
2017-04-19 03:02:00,861.12
2017-04-19 04:02:00,861.12
2017-04-19 05:02:00,861.12
2017-04-19 06:02:00,861.12
2017-04-19 07:02:00,861.12
2017-04-19 08:02:00,861.12
2017-04-19 09:02:00,861.12
2017-04-19 10:02:00,861.12
2017-04-19 11:02:00,861.12
2017-04-19 12:02:00,861.12
2017-04-19 13:02:00,861.12
2017-04-19 14:02:00,861.12
2017-04-19 15:02:00,861.12
2017-04-19 16:02:00,861.12
2017-04-19 17:02:00,861.12
2017-04-19 18:02:00,861.12
2017-04-19 19:02:00,861.12
2017-04-19 20:02:00,861.12
2017-04-19 21:02:00,861.12
2017-04-19 22:02:00,861.12
2017-04-19 23:02:00,861.12
2017-04-20 00:02:00,861.12
2017-04-20 01:02:00,861.12
2017-04-20 02:02:00,861.12
2017-04-20 03:02:00,861.12
2017-04-20 04:02:00,861.12
2017-04-20 05:02:00,861.12
2017-04-20 06:02:00,861.12
2017-04-20 07:02:00,861.12
2017-04-20 08:02:00,861.12
2017-04-20 09:02:00,861.12
2017-04-20 10:02:00,861.12
2017-04-20 11:02:00,861.12
2017-04-20 12:02:00,861.12
2017-04-20 13:02:00,861.12
2017-04-20 14:02:00,861.12
2017-04-20 15:02:00,861.12
2017-04-20 16:02:00,861.12
2017-04-20 17:02:00,861.12
2017-04-20 18:02:00,861.12
2017-04-20 19:02:00,861.12
2017-04-20 20:02:00,861.12
2017-04-20 21:02:00,861.12
2017-04-20 22:02:00,861.12
2017-04-20 23:02:00,861.12
2017-04-21 00:02:00,861.12
2017-04-21 01:02:00,861.12
2017-04-21 02:02:00,861.12
2017-04-21 03:02:00,861.12
2017-04-21 04:02:00,861.12
2017-04-21 05:02:00,861.12
2017-04-21 06:02:00,861.12
2017-04-21 07:02:00,861.12
2017-04-21 08:02:00,861.12
2017-04-21 09:02:00,861.12
2017-04-21 10:02:00,861.12
2017-04-21 11:02:00,861.12
2017-04-21 12:02:00,861.12
2017-04-21 13:02:00,861.12
2017-04-21 14:02:00,861.12
2017-04-21 15:02:00,861.12
2017-04-21 16:02:00,861.12
2017-04-21 17:02:00,861.12
2017-04-21 18:02:00,861.12
2017-04-21 19:02:00,861.12
2017-04-21 20:02:00,861.12
2017-04-21 21:02:00,861.12
2017-04-21 22:02:00,861.12
2017-04-21 23:02:00,861.12
2017-04-22 01:02:00,861.12
2017-04-22 02:02:00,861.12
2017-04-22 03:02:00,861.12
2017-04-22 04:02:00,861.12
2017-04-22 05:02:00,861.12
2017-04-22 06:02:00,861.12
2017-04-22 07:02:00,861.12
2017-04-22 08:02:00,861.12
2017-04-22 09:02:00,861.12
2017-04-22 10:02:00,861.12
2017-04-22 11:02:00,861.12
2017-04-22 12:02:00,861.12
2017-04-22 13:02:00,861.12
2017-04-22 14:02:00,861.12
2017-04-22 15:02:00,861.12
2017-04-22 16:02:00,861.12
2017-04-22 17:02:00,861.12
2017-04-22 18:02:00,861.12
2017-04-22 19:02:00,861.12
2017-04-22 20:02:00,861.12
2017-04-22 21:02:00,861.12
2017-04-22 22:02:00,861.12
2017-04-22 23:02:00,861.12
2017-04-23 00:02:00,861.12
2017-04-23 01:02:00,861.12
2017-04-23 02:02:00,861.12
2017-04-23 03:02:00,861.12
2017-04-23 04:02:00,861.12
2017-04-23 05:02:00,861.12
2017-04-23 06:02:00,861.12
2017-04-23 07:02:00,861.12
2017-04-23 08:02:00,861.12
2017-04-23 09:02:00,861.12
2017-04-23 10:02:00,861.12
2017-04-23 11:02:00,861.12
2017-04-23 12:02:00,861.12
2017-04-23 13:02:00,861.12
2017-04-23 14:02:00,861.12
2017-04-23 15:02:00,861.12
2017-04-23 16:02:00,861.12
2017-04-23 17:02:00,861.12
2017-04-23 18:02:00,861.12
2017-04-23 19:02:00,861.12
2017-04-23 20:02:00,861.12
2017-04-23 21:02:00,861.12
2017-04-23 22:02:00,861.12
2017-04-23 23:02:00,861.12
2017-04-24 00:02:00,861.12
2017-04-24 01:02:00,861.12
2017-04-24 02:02:00,861.12
2017-04-24 03:02:00,861.12
2017-04-24 04:02:00,861.12
2017-04-24 05:02:00,861.12
2017-04-24 06:02:00,861.12
2017-04-24 07:02:00,861.12
2017-04-24 08:02:00,861.12
2017-04-24 09:02:00,861.12
2017-04-24 10:02:00,861.12
2017-04-24 11:02:00,861.12
2017-04-24 12:02:00,861.12
2017-04-24 13:02:00,861.12
2017-04-24 14:02:00,861.12
2017-04-24 15:02:00,861.12
2017-04-24 16:02:00,861.12
2017-04-24 17:02:00,861.12
2017-04-24 18:02:00,861.12
2017-04-24 19:02:00,861.12
2017-04-24 20:02:00,861.12
2017-04-24 21:02:00,861.12
2017-04-24 22:02:00,861.12
2017-04-24 23:02:00,861.12
2017-04-25 00:02:00,861.12
2017-04-25 01:02:00,861.12
2017-04-25 02:02:00,861.12
2017-04-25 03:02:00,861.12
2017-04-25 04:02:00,861.12
2017-04-25 05:02:00,861.12
2017-04-25 06:02:00,861.12
2017-04-25 07:02:00,861.12
2017-04-25 08:02:00,861.12
2017-04-25 09:02:00,861.12
2017-04-25 10:02:00,861.12
2017-04-25 11:02:00,861.12
2017-04-25 12:02:00,861.12
2017-04-25 13:02:00,861.12
2017-04-25 14:02:00,861.12
2017-04-25 15:02:00,861.12
2017-04-25 16:02:00,861.12
2017-04-25 17:02:00,861.12
2017-04-25 18:02:00,861.12
2017-04-25 19:02:00,861.12
2017-04-25 20:02:00,861.12
2017-04-25 21:02:00,861.12
2017-04-25 22:02:00,861.12
2017-04-25 23:02:00,861.12
2017-04-26 00:02:00,861.12
2017-04-26 01:02:00,861.12
2017-04-26 02:02:00,861.12
2017-04-26 03:02:00,861.12
2017-04-26 04:02:00,861.12
2017-04-26 05:02:00,861.12
2017-04-26 06:02:00,861.12
2017-04-26 07:02:00,861.12
2017-04-26 08:02:00,861.12
2017-04-26 09:02:00,861.12
2017-04-26 10:02:00,861.12
2017-04-26 11:02:00,861.12
2017-04-26 12:02:00,861.77
2017-04-26 13:02:00,862.21
2017-04-26 14:02:00,862.64
2017-04-26 15:02:00,862.96
2017-04-26 16:02:00,863.6
2017-04-26 17:02:00,864.25
2017-04-26 18:02:00,864.76
2017-04-26 19:02:00,864.89
2017-04-26 20:02:00,864.89
2017-04-26 21:02:00,864.89
2017-04-26 22:02:00,864.89
2017-04-26 23:02:00,864.89
2017-04-27 00:02:00,864.89
2017-04-27 01:02:00,865.62
2017-04-27 02:02:00,866.43
2017-04-27 03:02:00,867.36
2017-04-27 04:02:00,868.24
2017-04-27 05:02:00,869.12
2017-04-27 06:02:00,869.45
2017-04-27 07:02:00,869.45
2017-04-27 08:02:00,869.45
2017-04-27 09:02:00,869.45
2017-04-27 10:02:00,869.58
2017-04-27 11:02:00,870.55
2017-04-27 12:02:00,871.21
2017-04-27 13:02:00,872.0
2017-04-27 14:02:00,872.9
2017-04-27 15:02:00,873.78
2017-04-27 16:02:00,874.66
2017-04-27 17:02:00,875.54
2017-04-27 18:02:00,876.42
2017-04-27 19:02:00,877.3
2017-04-27 20:02:00,877.6
2017-04-27 21:02:00,877.6
2017-04-27 22:02:00,877.6
2017-04-27 23:02:00,877.6
2017-04-28 00:02:00,877.63
2017-04-28 01:02:00,878.72
2017-04-28 02:02:00,879.67
2017-04-28 03:02:00,881.07
2017-04-28 04:02:00,882.16
2017-04-28 05:02:00,883.44
2017-04-28 06:02:00,884.25
2017-04-28 07:02:00,884.91
2017-04-28 08:02:00,885.6
2017-04-28 09:02:00,886.11
2017-04-28 10:02:00,886.13
2017-04-28 11:02:00,886.13
2017-04-28 12:02:00,886.13
2017-04-28 13:02:00,886.13
2017-04-28 14:02:00,886.13
2017-04-28 15:02:00,886.13
2017-04-28 16:02:00,886.46
2017-04-28 17:02:00,886.46
2017-04-28 18:02:00,886.46
2017-04-28 19:02:00,886.46
2017-04-28 20:02:00,886.46
2017-04-28 21:02:00,886.46
2017-04-28 22:02:00,886.46
2017-04-28 23:02:00,886.46
2017-04-29 00:02:00,887.56
2017-04-29 01:02:00,888.51
2017-04-29 02:02:00,889.9
2017-04-29 03:02:00,891.2
2017-04-29 04:02:00,892.53
2017-04-29 05:02:00,893.94
2017-04-29 06:02:00,895.27
2017-04-29 07:02:00,896.32
2017-04-29 08:02:00,897.31
2017-04-29 09:02:00,897.46
2017-04-29 10:02:00,897.46
2017-04-29 11:02:00,897.46
2017-04-29 13:02:00,897.46
2017-04-29 14:02:00,897.46
2017-04-29 15:02:00,897.46
2017-04-29 16:02:00,897.46
2017-04-29 17:02:00,897.46
2017-04-29 18:02:00,897.46
2017-04-29 19:02:00,897.46
2017-04-29 20:02:00,897.46
2017-04-29 21:02:00,897.46
2017-04-29 22:02:00,897.46
2017-04-29 23:02:00,897.46
2017-04-30 00:02:00,897.46
2017-04-30 01:02:00,897.46
2017-04-30 02:02:00,897.46
2017-04-30 03:02:00,897.46
2017-04-30 04:02:00,897.46
2017-04-30 05:02:00,897.46
2017-04-30 06:02:00,897.46
2017-04-30 07:02:00,897.46
2017-04-30 08:02:00,897.46
2017-04-30 09:02:00,897.46
2017-04-30 10:02:00,897.46
2017-04-30 11:02:00,897.46
2017-04-30 12:02:00,897.46
2017-04-30 13:02:00,897.46
2017-04-30 14:02:00,897.46
2017-04-30 15:02:00,897.46
2017-04-30 16:02:00,897.46
2017-04-30 17:02:00,897.46
2017-04-30 18:02:00,897.46
2017-04-30 19:02:00,897.46
2017-04-30 20:02:00,897.46
2017-04-30 21:02:00,897.46
